start_time,end_time,D1,D2,up_times,down_times,min_up_change,sec_up_change,third_up_change,max_up_change,min_down_change,sec_down_change,third_down_change,max_down_change
Open,High,1,10,19,10,0.012,0.408,0.619,7.446000000000001,-0.11,-0.33299999999999996,-0.746,-5.825
Open,High,1,11,19,10,0.408,0.619,0.91,7.446000000000001,-0.33299999999999996,-0.366,-0.746,-5.825
Open,High,2,10,19,11,0.139,0.28300000000000003,0.408,5.972,-0.11,-0.299,-0.384,-5.149
Open,High,2,11,19,11,0.139,0.28300000000000003,0.408,8.729,-0.299,-0.366,-0.384,-5.149
Open,High,2,12,19,11,0.139,0.28300000000000003,0.43200000000000005,8.729,-0.366,-0.384,-0.52,-5.149
Open,High,2,13,19,11,0.139,0.28300000000000003,0.43200000000000005,8.729,-0.366,-0.384,-0.52,-5.149
Open,High,2,14,19,11,0.139,0.28300000000000003,0.43200000000000005,8.729,-0.366,-0.384,-0.52,-6.035
Open,High,2,15,19,11,0.139,0.28300000000000003,0.43200000000000005,10.022,-0.366,-0.384,-0.52,-8.712
Open,High,2,16,19,12,0.139,0.28300000000000003,0.43200000000000005,12.244000000000002,-0.187,-0.366,-0.384,-8.712
Open,High,2,17,19,12,0.139,0.28300000000000003,0.43200000000000005,15.092,-0.366,-0.384,-0.649,-8.712
Open,High,2,18,19,12,0.139,0.28300000000000003,0.43200000000000005,15.092,-0.366,-0.384,-0.649,-8.712
Open,High,2,19,19,12,0.139,0.28300000000000003,0.43200000000000005,15.092,-0.366,-0.384,-0.649,-8.712
Open,High,2,20,19,12,0.139,0.28300000000000003,0.43200000000000005,15.092,-0.366,-0.384,-0.649,-8.712
Open,High,2,21,19,13,0.139,0.28300000000000003,0.43200000000000005,15.092,-0.366,-0.384,-0.649,-8.712
Open,High,2,22,19,13,0.139,0.299,0.43200000000000005,15.092,-0.366,-0.384,-0.649,-8.712
Open,High,2,23,19,13,0.139,0.299,0.43200000000000005,15.092,-0.366,-0.384,-0.649,-8.712
Open,High,2,24,19,13,0.139,0.299,0.43200000000000005,15.092,-0.366,-0.384,-0.649,-8.712
Open,High,2,25,19,13,0.139,0.299,0.43200000000000005,15.092,-0.366,-0.384,-0.649,-8.712
Open,High,2,26,19,13,0.139,0.43200000000000005,0.551,15.092,-0.366,-0.384,-0.649,-8.712
Open,High,2,27,19,13,0.139,0.43200000000000005,0.551,15.092,-0.366,-0.384,-0.649,-8.712
Open,High,2,28,19,13,0.139,0.43200000000000005,0.551,15.092,-0.366,-0.384,-0.649,-8.952
Open,High,2,29,19,13,0.139,0.43200000000000005,0.551,15.367,-0.366,-0.384,-0.649,-10.632
Open,High,2,30,19,13,0.139,0.43200000000000005,0.551,15.367,-0.366,-0.384,-0.649,-10.632
Open,High,3,4,16,1,0.139,0.244,0.28300000000000003,3.263,-0.5579999999999999,,,-0.5579999999999999
Open,High,3,5,19,3,0.139,0.212,0.244,3.263,-0.519,-0.5579999999999999,-1.3330000000000002,-1.3330000000000002
Open,High,3,6,19,7,0.139,0.212,0.244,3.34,-0.369,-0.5579999999999999,-0.618,-1.3330000000000002
Open,High,3,7,19,7,0.139,0.212,0.244,3.34,-0.618,-0.746,-0.794,-4.31
Open,High,3,8,19,8,0.139,0.212,0.244,3.34,-0.08900000000000001,-0.618,-0.746,-4.31
Open,High,3,9,19,8,0.139,0.212,0.244,5.252999999999999,-0.746,-1.1,-1.3330000000000002,-5.829
Open,High,3,10,19,9,0.139,0.212,0.28300000000000003,5.252999999999999,-0.11,-0.746,-1.1,-6.831
Open,High,3,11,19,9,0.139,0.212,0.28300000000000003,6.678999999999999,-0.366,-0.746,-1.1,-6.831
Open,High,3,12,19,9,0.139,0.212,0.28300000000000003,6.739,-0.366,-0.746,-1.3330000000000002,-6.831
Open,High,3,13,19,9,0.139,0.212,0.28300000000000003,6.739,-0.366,-0.746,-1.3330000000000002,-6.831
Open,High,3,14,19,9,0.139,0.212,0.28300000000000003,6.739,-0.366,-0.9159999999999999,-1.3330000000000002,-7.43
Open,High,3,15,19,9,0.139,0.212,0.28300000000000003,7.949,-0.366,-0.9159999999999999,-1.3330000000000002,-8.926
Open,High,3,16,19,10,0.139,0.212,0.28300000000000003,10.128,-0.006999999999999999,-0.366,-0.9159999999999999,-8.926
Open,High,3,17,19,10,0.139,0.212,0.28300000000000003,12.923,-0.366,-0.469,-0.956,-8.926
Open,High,3,18,19,10,0.139,0.212,0.28300000000000003,12.923,-0.366,-0.469,-0.956,-8.926
Open,High,3,19,19,10,0.139,0.212,0.28300000000000003,12.923,-0.366,-0.469,-1.3330000000000002,-8.926
Open,High,3,20,19,11,0.139,0.212,0.28300000000000003,12.923,-0.366,-0.469,-0.935,-8.926
Open,High,3,21,19,12,0.139,0.212,0.28300000000000003,12.923,-0.366,-0.469,-0.935,-8.926
Open,High,3,22,19,13,0.139,0.212,0.299,12.923,-0.008,-0.366,-0.469,-9.901
Open,High,3,23,19,13,0.139,0.212,0.299,12.923,-0.366,-0.469,-1.148,-10.131
Open,High,3,24,19,13,0.139,0.212,0.299,12.923,-0.366,-0.469,-1.148,-10.131
Open,High,3,25,19,13,0.139,0.212,0.299,12.923,-0.366,-0.469,-1.148,-10.131
Open,High,3,26,19,13,0.139,0.212,0.415,12.923,-0.366,-0.469,-1.148,-10.131
Open,High,3,27,19,13,0.139,0.212,0.415,12.923,-0.366,-0.469,-1.148,-10.131
Open,High,3,28,19,13,0.139,0.212,0.415,12.923,-0.366,-0.469,-1.148,-10.131
Open,High,3,29,19,13,0.139,0.212,0.415,13.192,-0.366,-0.469,-1.148,-10.841
Open,High,3,30,19,13,0.139,0.212,0.415,13.192,-0.366,-0.469,-1.148,-10.841
Open,High,4,5,17,4,0.028999999999999998,0.10800000000000001,0.139,2.427,-0.052000000000000005,-0.182,-0.469,-0.6
Open,High,4,6,19,9,0.028999999999999998,0.10800000000000001,0.139,2.5639999999999996,-0.052000000000000005,-0.102,-0.182,-1.02
Open,High,4,7,19,10,0.028999999999999998,0.10800000000000001,0.139,2.5639999999999996,-0.052000000000000005,-0.102,-0.182,-3.502
Open,High,4,8,19,12,0.028999999999999998,0.10800000000000001,0.139,3.072,-0.052000000000000005,-0.102,-0.182,-3.502
Open,High,4,9,19,12,0.028999999999999998,0.10800000000000001,0.139,5.252999999999999,-0.052000000000000005,-0.182,-0.8270000000000001,-5.034
Open,High,4,12,19,12,0.10800000000000001,0.139,0.212,8.065,-0.052000000000000005,-0.182,-0.8270000000000001,-6.044
Open,High,4,13,19,12,0.10800000000000001,0.139,0.212,8.065,-0.052000000000000005,-0.182,-0.8270000000000001,-6.044
Open,High,4,14,19,12,0.139,0.212,0.281,8.065,-0.052000000000000005,-0.182,-0.9,-6.648
Open,High,4,15,19,12,0.139,0.212,0.281,9.351,-0.052000000000000005,-0.182,-0.9,-8.926
Open,High,4,16,19,12,0.139,0.212,0.281,11.558,-0.052000000000000005,-0.182,-0.9,-8.926
Open,High,4,17,19,12,0.139,0.212,0.281,14.39,-0.052000000000000005,-0.7120000000000001,-0.9,-8.926
Open,High,4,18,19,12,0.139,0.212,0.281,14.39,-0.052000000000000005,-0.7120000000000001,-0.9,-8.926
Open,High,4,19,19,12,0.139,0.212,0.281,14.39,-0.052000000000000005,-0.7120000000000001,-0.9,-8.926
Open,High,4,20,19,13,0.139,0.212,0.281,14.39,-0.052000000000000005,-0.7120000000000001,-0.9,-8.926
Open,High,4,21,19,14,0.139,0.212,0.281,14.39,-0.052000000000000005,-0.7120000000000001,-0.9,-8.926
Open,High,4,22,19,14,0.139,0.212,0.281,14.39,-0.052000000000000005,-0.8440000000000001,-0.9,-9.141
Open,High,4,23,19,14,0.139,0.212,0.281,14.39,-0.052000000000000005,-0.9,-1.589,-9.372
Open,High,4,24,19,14,0.139,0.212,0.281,14.39,-0.052000000000000005,-0.9,-1.589,-9.372
Open,High,4,25,19,14,0.139,0.212,0.281,14.39,-0.052000000000000005,-0.9,-1.589,-9.372
Open,High,4,26,19,14,0.139,0.212,0.281,14.39,-0.052000000000000005,-0.9,-1.589,-9.372
Open,High,4,27,19,14,0.139,0.212,0.281,14.39,-0.052000000000000005,-0.9,-1.589,-9.372
Open,High,4,28,19,14,0.139,0.212,0.281,14.39,-0.052000000000000005,-0.9,-1.589,-9.372
Open,High,4,29,19,14,0.139,0.212,0.281,14.662,-0.052000000000000005,-0.9,-1.589,-10.841
Open,High,4,30,19,14,0.139,0.212,0.281,14.662,-0.052000000000000005,-0.9,-1.589,-10.841
Open,High,5,6,17,5,0.031,0.109,0.161,1.9580000000000002,-0.363,-0.59,-0.596,-0.978
Open,High,5,7,19,6,0.031,0.109,0.147,2.478,-0.125,-0.363,-0.618,-1.831
Open,High,5,8,19,9,0.031,0.109,0.147,3.072,-0.125,-0.363,-0.599,-2.046
Open,High,5,9,19,11,0.031,0.109,0.147,5.252999999999999,-0.125,-0.363,-0.599,-3.037
Open,High,5,10,19,11,0.031,0.109,0.147,6.082000000000001,-0.125,-0.7120000000000001,-0.763,-3.807
Open,High,5,11,19,11,0.031,0.109,0.147,8.842,-0.125,-0.7120000000000001,-0.7929999999999999,-3.807
Open,High,5,12,19,11,0.031,0.109,0.147,8.842,-0.125,-0.7120000000000001,-0.7929999999999999,-3.807
Open,High,5,13,19,12,0.031,0.109,0.147,8.842,-0.081,-0.125,-0.7120000000000001,-4.408
Open,High,5,14,19,12,0.031,0.147,0.212,8.842,-0.081,-0.125,-0.7120000000000001,-6.255
Open,High,5,15,19,12,0.031,0.147,0.212,10.137,-0.081,-0.125,-0.7120000000000001,-8.926
Open,High,5,16,19,12,0.031,0.147,0.212,12.360999999999999,-0.081,-0.125,-0.7120000000000001,-8.926
Open,High,5,17,19,13,0.031,0.147,0.212,15.213,-0.081,-0.29100000000000004,-0.7120000000000001,-8.926
Open,High,5,18,19,13,0.031,0.147,0.212,15.213,-0.081,-0.29100000000000004,-0.7120000000000001,-8.926
Open,High,5,19,19,14,0.031,0.147,0.212,15.213,-0.29100000000000004,-0.7120000000000001,-0.96,-8.926
Open,High,5,20,19,14,0.031,0.147,0.212,15.213,-0.29100000000000004,-0.7120000000000001,-0.96,-8.926
Open,High,5,21,19,15,0.031,0.147,0.212,15.213,-0.29100000000000004,-0.7120000000000001,-0.96,-8.926
Open,High,5,26,19,15,0.147,0.212,0.374,15.213,-0.7120000000000001,-0.96,-1.0170000000000001,-8.926
Open,High,5,27,19,15,0.147,0.212,0.374,15.213,-0.7120000000000001,-0.96,-1.0170000000000001,-8.926
Open,High,7,19,19,15,0.147,0.158,0.46299999999999997,16.662,-0.215,-0.293,-0.489,-7.962999999999999
Open,High,7,20,19,15,0.147,0.341,0.46299999999999997,16.662,-0.215,-0.489,-0.584,-7.962999999999999
Open,High,7,21,19,15,0.147,0.40399999999999997,0.46299999999999997,16.662,-0.215,-0.489,-0.584,-7.962999999999999
Open,High,7,22,19,15,0.147,0.46299999999999997,0.552,16.662,-0.215,-0.489,-0.584,-7.962999999999999
Open,High,7,23,19,16,0.147,0.46299999999999997,0.552,16.662,-0.215,-0.489,-0.584,-7.962999999999999
Open,High,7,24,19,16,0.147,0.46299999999999997,0.552,16.662,-0.215,-0.489,-0.584,-7.962999999999999
Open,High,7,25,19,16,0.147,0.46299999999999997,0.552,16.662,-0.215,-0.489,-0.584,-7.962999999999999
Open,High,7,26,19,16,0.147,0.46299999999999997,0.552,16.662,-0.215,-0.489,-0.584,-7.962999999999999
Open,High,7,27,19,16,0.147,0.46299999999999997,0.552,16.662,-0.215,-0.489,-0.584,-7.962999999999999
Open,High,7,28,19,16,0.46299999999999997,0.552,0.925,16.662,-0.215,-0.489,-0.584,-8.205
Open,High,7,29,19,16,0.46299999999999997,0.552,0.925,16.94,-0.215,-0.489,-0.584,-9.898
Open,High,7,30,19,16,0.46299999999999997,0.552,0.925,16.94,-0.215,-0.489,-0.584,-9.898
Open,High,16,18,19,4,0.21,0.297,0.40700000000000003,4.982,-0.081,-0.16699999999999998,-0.18100000000000002,-0.9329999999999999
Open,High,16,20,19,7,0.34600000000000003,0.42,0.726,4.982,-0.081,-0.16699999999999998,-0.18100000000000002,-2.471
Open,High,16,21,19,8,0.34600000000000003,0.623,0.726,4.982,-0.081,-0.16699999999999998,-0.18100000000000002,-2.471
Open,High,16,22,19,8,0.34600000000000003,0.623,0.726,4.982,-0.081,-0.16699999999999998,-0.18100000000000002,-2.5140000000000002
Open,High,16,23,19,9,0.59,0.623,0.726,4.982,-0.081,-0.16699999999999998,-0.18100000000000002,-2.763
Open,High,16,24,19,9,0.59,0.623,0.726,4.982,-0.081,-0.16699999999999998,-0.18100000000000002,-2.763
Open,High,16,25,19,9,0.59,0.623,0.726,4.982,-0.081,-0.16699999999999998,-0.18100000000000002,-2.763
Open,High,18,29,19,11,0.08199999999999999,0.321,0.629,5.952000000000001,-0.452,-0.484,-0.579,-2.748
Open,High,18,30,19,11,0.08199999999999999,0.321,0.7559999999999999,5.952000000000001,-0.484,-0.579,-0.79,-2.748
Close,High,1,3,19,1,0.016,0.134,0.19699999999999998,5.513,-0.46799999999999997,,,-0.46799999999999997
Close,High,1,12,19,10,0.157,0.217,0.551,7.422999999999999,-0.257,-0.645,-0.985,-5.362
Close,High,1,13,19,10,0.157,0.217,0.551,7.422999999999999,-0.257,-0.645,-0.985,-5.362
Close,High,1,14,19,10,0.157,0.551,0.578,7.422999999999999,-0.257,-0.645,-0.985,-5.971
Close,High,1,15,19,10,0.157,0.551,0.578,8.701,-0.645,-0.985,-1.186,-8.212
Close,High,1,16,19,11,0.157,0.551,0.578,10.895999999999999,-0.166,-0.645,-0.985,-8.212
Close,High,1,17,19,11,0.157,0.551,0.578,13.71,-0.627,-0.645,-1.227,-8.212
Close,High,1,18,19,11,0.157,0.551,0.7659999999999999,13.71,-0.627,-0.645,-1.227,-8.212
Close,High,1,19,19,11,0.157,0.551,0.7659999999999999,13.71,-0.627,-0.645,-1.511,-8.212
Close,High,1,20,19,12,0.157,0.551,0.7659999999999999,13.71,-0.627,-0.645,-1.186,-8.212
Close,High,1,21,19,13,0.157,0.551,0.7659999999999999,13.71,-0.627,-0.645,-1.186,-8.212
Close,High,1,22,19,13,0.157,0.551,0.7659999999999999,13.71,-0.627,-0.645,-1.186,-8.481
Close,High,1,23,19,13,0.157,0.551,0.7659999999999999,13.71,-0.627,-0.645,-1.393,-8.715
Close,High,1,24,19,13,0.157,0.551,0.7659999999999999,13.71,-0.627,-0.645,-1.393,-8.715
Close,High,1,25,19,13,0.157,0.551,0.7659999999999999,13.71,-0.627,-0.645,-1.393,-8.715
Close,High,1,26,19,13,0.157,0.551,0.7659999999999999,13.71,-0.627,-0.645,-1.393,-8.715
Close,High,1,27,19,13,0.157,0.551,0.7659999999999999,13.71,-0.627,-0.645,-1.393,-8.715
Close,High,1,28,19,13,0.157,0.551,0.7759999999999999,13.71,-0.627,-0.645,-1.393,-8.715
Close,High,1,29,19,13,0.157,0.551,0.7759999999999999,13.981,-0.627,-0.645,-1.393,-10.142000000000001
Close,High,1,30,19,13,0.157,0.551,0.7759999999999999,13.981,-0.627,-0.645,-1.393,-10.142000000000001
Close,High,2,3,17,0,0.016,0.134,0.187,2.3890000000000002,,,,
Close,High,2,12,19,9,0.141,0.157,0.217,6.994,-0.953,-1.018,-1.4980000000000002,-6.37
Close,High,2,13,19,9,0.141,0.157,0.217,6.994,-0.953,-1.018,-1.4980000000000002,-6.37
Close,High,2,14,19,9,0.141,0.157,0.434,6.994,-0.953,-1.186,-1.4980000000000002,-6.972
Close,High,2,15,19,9,0.141,0.157,0.434,7.769,-1.186,-1.4980000000000002,-1.589,-8.827
Close,High,2,16,19,10,0.141,0.157,0.434,9.945,-0.252,-1.186,-1.4980000000000002,-8.827
Close,High,2,17,19,10,0.141,0.157,0.434,12.735,-0.713,-1.227,-1.4980000000000002,-8.827
Close,High,2,18,19,10,0.141,0.157,0.434,12.735,-0.713,-1.227,-1.4980000000000002,-8.827
Close,High,2,19,19,10,0.141,0.157,0.434,12.735,-0.713,-1.4980000000000002,-1.589,-8.827
Close,High,2,20,19,11,0.141,0.157,0.434,12.735,-0.713,-1.186,-1.4980000000000002,-8.827
Close,High,2,21,19,12,0.141,0.157,0.434,12.735,-0.713,-1.186,-1.4980000000000002,-8.827
Close,High,2,26,19,13,0.157,0.434,0.769,12.735,-0.713,-1.399,-1.4980000000000002,-9.686
Close,High,2,27,19,13,0.157,0.434,0.91,12.735,-0.713,-1.399,-1.4980000000000002,-9.686
Close,High,2,28,19,13,0.157,0.434,0.91,12.735,-0.713,-1.399,-1.4980000000000002,-9.686
Close,High,2,29,19,13,0.157,0.434,0.91,13.004000000000001,-0.713,-1.399,-1.4980000000000002,-10.744000000000002
Close,High,2,30,19,13,0.157,0.434,0.91,13.004000000000001,-0.713,-1.399,-1.4980000000000002,-10.744000000000002
Close,High,4,5,17,2,0.024,0.141,0.157,3.628,-0.124,-0.537,,-0.537
Close,High,4,6,19,5,0.141,0.17600000000000002,0.266,3.628,-0.124,-0.39899999999999997,-0.51,-0.728
Close,High,4,7,19,7,0.141,0.17600000000000002,0.397,3.628,-0.012,-0.124,-0.282,-1.9680000000000002
Close,High,4,8,19,10,0.141,0.17600000000000002,0.397,3.628,-0.012,-0.124,-0.282,-1.9680000000000002
Close,High,4,9,19,13,0.141,0.17600000000000002,0.397,4.343,-0.012,-0.124,-0.39899999999999997,-2.9939999999999998
Close,High,4,10,19,13,0.141,0.397,0.418,6.18,-0.012,-0.124,-0.44299999999999995,-3.765
Close,High,4,11,19,13,0.141,0.397,0.418,8.942,-0.012,-0.124,-0.44299999999999995,-3.765
Close,High,4,12,19,13,0.141,0.397,0.418,8.942,-0.012,-0.124,-0.537,-3.765
Close,High,4,13,19,13,0.141,0.397,0.418,8.942,-0.012,-0.124,-0.665,-3.765
Close,High,4,14,19,13,0.141,0.397,0.418,8.942,-0.012,-0.124,-0.665,-5.27
Close,High,4,15,19,13,0.141,0.397,0.418,10.238,-0.012,-0.124,-0.665,-7.968
Close,High,4,16,19,14,0.141,0.397,0.418,12.464,-0.012,-0.124,-0.177,-7.968
Close,High,4,17,19,14,0.141,0.397,0.418,15.318,-0.177,-0.654,-0.665,-7.968
Close,High,4,18,19,14,0.141,0.397,0.418,15.318,-0.177,-0.654,-0.665,-7.968
Close,High,4,19,19,15,0.141,0.397,0.418,15.318,-0.177,-0.654,-0.665,-7.968
Close,High,4,20,19,15,0.141,0.397,0.418,15.318,-0.39299999999999996,-0.654,-0.665,-7.968
Close,High,4,21,19,15,0.141,0.397,0.418,15.318,-0.654,-0.665,-0.8490000000000001,-7.968
Close,High,4,28,19,15,0.418,0.434,1.082,15.318,-0.665,-0.8490000000000001,-1.053,-8.211
Close,High,4,29,19,15,0.418,0.434,1.082,15.593,-0.665,-0.8490000000000001,-1.053,-9.904
Close,High,4,30,19,15,0.418,0.434,1.082,15.593,-0.665,-0.8490000000000001,-1.053,-9.904
Close,High,5,6,17,2,0.07400000000000001,0.098,0.418,2.545,-0.061,-0.28,,-0.28
Close,High,5,7,19,2,0.07400000000000001,0.098,0.18100000000000002,2.545,-0.061,-1.526,,-1.526
Close,High,5,8,19,5,0.07400000000000001,0.418,0.507,3.957,-0.061,-0.813,-0.925,-1.526
Close,High,5,9,19,8,0.07400000000000001,0.418,0.507,4.343,-0.44299999999999995,-0.578,-0.86,-2.9939999999999998
Close,High,5,10,19,10,0.07400000000000001,0.418,0.507,8.061,-0.009000000000000001,-0.183,-0.44299999999999995,-3.765
Close,High,5,11,19,10,0.07400000000000001,0.418,0.507,10.873,-0.009000000000000001,-0.43799999999999994,-0.44299999999999995,-3.765
Close,High,5,12,19,10,0.418,0.474,0.507,10.873,-0.009000000000000001,-0.43799999999999994,-0.86,-3.765
Close,High,5,13,19,10,0.418,0.474,0.507,10.873,-0.009000000000000001,-0.43799999999999994,-0.86,-3.765
Close,High,5,14,19,10,0.418,0.474,0.507,10.873,-0.009000000000000001,-0.43799999999999994,-0.86,-5.27
Close,High,5,15,19,10,0.418,0.474,0.507,12.192,-0.43799999999999994,-0.86,-0.948,-7.968
Close,High,5,16,19,11,0.418,0.474,0.507,14.457,-0.177,-0.43799999999999994,-0.86,-7.968
Close,High,5,17,19,12,0.418,0.474,0.507,17.362000000000002,-0.177,-0.376,-0.43799999999999994,-7.968
Close,High,5,18,19,12,0.418,0.474,0.507,17.362000000000002,-0.177,-0.376,-0.43799999999999994,-7.968
Close,High,5,19,19,14,0.418,0.474,0.507,17.362000000000002,-0.177,-0.376,-0.43799999999999994,-7.968
Close,High,5,20,19,14,0.418,0.474,0.507,17.362000000000002,-0.376,-0.39299999999999996,-0.43799999999999994,-7.968
Close,High,5,21,19,14,0.418,0.474,0.507,17.362000000000002,-0.376,-0.43799999999999994,-0.86,-7.968
Close,High,5,22,19,14,0.418,0.474,0.507,17.362000000000002,-0.376,-0.43799999999999994,-0.86,-7.968
Close,High,5,23,19,15,0.418,0.474,0.507,17.362000000000002,-0.376,-0.43799999999999994,-0.823,-7.968
Close,High,5,24,19,15,0.418,0.474,0.507,17.362000000000002,-0.376,-0.43799999999999994,-0.823,-7.968
Close,High,5,25,19,15,0.418,0.474,0.507,17.362000000000002,-0.376,-0.43799999999999994,-0.823,-7.968
Close,High,5,26,19,15,0.418,0.507,0.887,17.362000000000002,-0.376,-0.43799999999999994,-0.823,-7.968
Close,High,5,27,19,15,0.418,0.507,0.887,17.362000000000002,-0.376,-0.43799999999999994,-0.823,-7.968
Close,High,5,28,19,15,0.418,0.507,0.887,17.362000000000002,-0.376,-0.43799999999999994,-0.823,-8.211
Close,High,5,29,19,15,0.418,0.507,0.887,17.642,-0.376,-0.43799999999999994,-0.823,-9.904
Close,High,5,30,19,15,0.418,0.507,0.887,17.642,-0.376,-0.43799999999999994,-0.823,-9.904
Close,High,6,22,19,14,0.418,0.507,0.934,14.777000000000001,-0.39799999999999996,-0.62,-0.836,-7.819
Close,High,6,23,19,15,0.418,0.507,0.934,14.777000000000001,-0.39799999999999996,-0.62,-0.836,-7.819
Close,High,6,24,19,15,0.418,0.507,0.934,14.777000000000001,-0.39799999999999996,-0.62,-0.836,-7.819
Close,High,6,25,19,15,0.418,0.507,0.934,14.777000000000001,-0.39799999999999996,-0.62,-0.836,-7.819
Close,High,6,26,19,15,0.418,0.507,0.934,14.777000000000001,-0.39799999999999996,-0.62,-0.836,-7.819
Close,High,6,27,19,15,0.418,0.507,0.934,14.777000000000001,-0.39799999999999996,-0.62,-0.836,-7.819
Close,High,6,28,19,15,0.418,0.507,0.934,14.777000000000001,-0.39799999999999996,-0.62,-0.836,-8.062000000000001
Close,High,6,29,19,15,0.418,0.507,0.934,15.050999999999998,-0.39799999999999996,-0.62,-0.836,-9.758
Close,High,6,30,19,15,0.418,0.507,0.934,15.050999999999998,-0.39799999999999996,-0.62,-0.836,-9.758
Close,High,7,8,16,3,0.028999999999999998,0.183,0.24100000000000002,1.6680000000000001,-0.04,-0.32,-0.442,-0.442
Close,High,7,9,19,6,0.028999999999999998,0.183,0.24100000000000002,3.6239999999999997,-0.04,-0.528,-1.001,-2.522
Close,High,8,12,19,6,0.32899999999999996,0.474,0.5429999999999999,8.431000000000001,-0.023,-0.064,-0.094,-0.7
Close,High,8,13,19,8,0.474,0.5429999999999999,0.684,8.431000000000001,-0.016,-0.023,-0.064,-2.222
Close,High,8,14,19,9,0.474,0.5429999999999999,0.684,8.431000000000001,-0.023,-0.064,-0.161,-4.112
Close,High,8,15,19,11,0.474,0.5429999999999999,0.684,9.721,-0.023,-0.064,-0.161,-6.843
Close,High,8,16,19,11,0.474,0.5429999999999999,0.684,11.936,-0.023,-0.064,-0.161,-6.843
Close,High,8,17,19,12,0.474,0.5429999999999999,0.684,14.777000000000001,-0.023,-0.064,-0.161,-6.843
Close,High,8,18,19,13,0.474,0.5429999999999999,0.684,14.777000000000001,-0.023,-0.064,-0.161,-6.843
Close,High,9,12,19,7,0.079,0.151,0.442,7.729,-0.006999999999999999,-0.048,-0.121,-0.3
Close,High,9,29,19,14,0.461,0.528,0.5429999999999999,14.306,-0.161,-0.24600000000000002,-0.294,-8.962
Close,High,9,30,19,14,0.461,0.528,0.5429999999999999,14.306,-0.161,-0.24600000000000002,-0.294,-8.962
Close,High,10,12,19,3,0.034,0.079,0.364,3.0980000000000003,-0.048,-0.09,-0.5539999999999999,-0.5539999999999999
Close,High,11,12,17,2,0.034,0.079,0.23199999999999998,2.6439999999999997,-0.048,-0.24600000000000002,,-0.24600000000000002
Close,High,13,14,16,2,0.02,0.064,0.13699999999999998,1.8619999999999999,-0.08,-1.229,,-1.229
Close,High,13,15,19,6,0.02,0.064,0.267,1.8619999999999999,-0.032,-0.08,-0.23600000000000002,-4.042
Close,High,13,16,19,7,0.02,0.064,0.44,2.825,-0.02,-0.032,-0.08,-4.042
Close,High,13,17,19,9,0.08800000000000001,0.37799999999999995,0.44,5.435,-0.02,-0.032,-0.08,-4.042
Close,High,13,18,19,10,0.08800000000000001,0.523,0.631,5.435,-0.08,-0.203,-0.563,-4.042
Close,High,13,26,19,12,0.631,0.684,0.716,5.435,-0.08,-0.203,-0.563,-4.894
Close,High,13,27,19,12,0.631,0.684,0.716,5.435,-0.08,-0.203,-0.563,-4.894
Close,High,13,28,19,12,0.631,0.684,0.716,5.435,-0.08,-0.203,-0.563,-4.894
Close,High,13,29,19,12,0.631,0.684,0.7170000000000001,5.686,-0.08,-0.203,-0.563,-6.061
Close,High,13,30,19,12,0.631,0.684,0.7170000000000001,5.686,-0.08,-0.203,-0.563,-6.061
Close,High,14,19,19,8,0.23199999999999998,0.264,0.264,5.435,-0.163,-0.63,-0.721,-1.781
Close,High,14,20,19,9,0.23199999999999998,0.264,0.264,5.435,-0.163,-0.54,-0.63,-3.0269999999999997
Close,High,14,21,19,10,0.23199999999999998,0.264,0.264,5.435,-0.163,-0.54,-0.63,-3.0269999999999997
Close,High,14,22,19,10,0.23199999999999998,0.264,0.264,5.435,-0.163,-0.54,-0.762,-3.0269999999999997
Close,High,14,23,19,10,0.23199999999999998,0.264,0.303,5.435,-0.163,-0.54,-1.6119999999999999,-3.236
Close,High,14,24,19,10,0.23199999999999998,0.264,0.303,5.435,-0.163,-0.54,-1.6119999999999999,-3.236
Close,High,14,25,19,10,0.23199999999999998,0.264,0.303,5.435,-0.163,-0.54,-1.6119999999999999,-3.236
Close,High,14,26,19,10,0.23199999999999998,0.264,0.303,5.435,-0.163,-0.54,-1.6119999999999999,-3.236
Close,High,14,27,19,10,0.23199999999999998,0.264,0.303,5.435,-0.163,-0.54,-1.6119999999999999,-3.236
Close,High,14,28,19,10,0.23199999999999998,0.264,0.303,5.912000000000001,-0.163,-0.54,-1.6119999999999999,-3.236
Close,High,14,29,19,11,0.23199999999999998,0.409,0.413,5.912000000000001,-0.163,-0.54,-1.578,-3.236
Close,High,14,30,19,11,0.23199999999999998,0.409,0.413,5.912000000000001,-0.163,-0.54,-1.578,-3.236
Close,High,15,19,19,8,0.264,0.342,0.408,5.435,-0.038,-0.163,-0.18100000000000002,-1.517
Close,High,15,20,19,9,0.264,0.342,0.409,5.435,-0.038,-0.163,-0.18100000000000002,-3.0269999999999997
Close,High,15,21,19,10,0.264,0.342,0.409,5.435,-0.038,-0.163,-0.18100000000000002,-3.0269999999999997
Close,High,15,22,19,10,0.264,0.342,0.409,5.435,-0.038,-0.163,-0.18100000000000002,-3.0269999999999997
Close,High,16,21,19,9,0.264,0.342,0.36200000000000004,4.645,-0.038,-0.159,-0.163,-3.0269999999999997
Close,High,16,22,19,9,0.264,0.342,0.36200000000000004,4.645,-0.038,-0.163,-0.22,-3.355
Close,High,17,27,19,12,0.149,0.29100000000000004,0.342,4.743,-0.038,-0.136,-0.29100000000000004,-2.248
Close,High,17,28,19,13,0.149,0.29100000000000004,0.342,5.712000000000001,-0.038,-0.136,-0.29100000000000004,-2.248
Close,High,18,27,19,10,0.149,0.289,0.321,3.674,-0.094,-0.374,-0.623,-2.5
Close,High,18,28,19,11,0.149,0.321,0.682,4.633,-0.094,-0.364,-0.374,-2.5
Close,High,19,28,19,12,0.149,0.41,0.57,4.881,-0.006999999999999999,-0.073,-0.094,-1.608
Close,High,19,30,19,13,0.57,0.7909999999999999,1.204,5.56,-0.006999999999999999,-0.073,-0.094,-2.201
Close,High,20,28,19,6,0.633,0.7909999999999999,0.946,5.13,-0.073,-0.094,-0.182,-1.671
Close,High,20,29,19,7,0.7909999999999999,1.112,1.2009999999999998,5.13,-0.073,-0.094,-0.182,-3.485
Close,High,20,30,19,7,0.7909999999999999,1.112,1.2009999999999998,5.13,-0.073,-0.094,-0.182,-3.485
Close,High,21,28,19,5,0.45799999999999996,0.633,0.9279999999999999,4.928999999999999,-0.073,-0.28800000000000003,-0.54,-1.446
Close,High,21,29,19,6,0.45799999999999996,0.9279999999999999,1.043,4.928999999999999,-0.073,-0.28800000000000003,-0.294,-3.263
Close,High,21,30,19,6,0.45799999999999996,0.9279999999999999,1.043,4.928999999999999,-0.073,-0.28800000000000003,-0.54,-3.263
Close,High,22,28,19,4,0.242,0.41600000000000004,0.429,3.096,-0.016,-0.187,-1.1440000000000001,-1.262
Close,High,22,29,19,4,0.242,0.41600000000000004,0.429,4.337,-0.016,-0.187,-1.1440000000000001,-3.083
Close,High,22,30,19,6,0.242,0.41600000000000004,0.429,4.337,-0.016,-0.187,-0.295,-3.083
Close,High,24,30,19,6,0.157,0.301,0.36200000000000004,2.271,-0.65,-0.736,-0.912,-2.189
Close,High,25,30,19,6,0.157,0.301,0.36200000000000004,2.6439999999999997,-0.027999999999999997,-0.736,-0.912,-2.189
Close,High,26,30,19,6,0.157,0.301,0.36200000000000004,2.6439999999999997,-0.027999999999999997,-0.736,-0.912,-2.189
Close,High,27,30,19,7,0.084,0.086,0.157,2.6439999999999997,-0.016,-0.027999999999999997,-0.09,-2.189
Close,Open,17,29,19,17,0.259,0.289,0.327,4.001,-0.03,-0.136,-0.226,-3.273
Close,Open,17,30,19,17,0.259,0.327,0.47100000000000003,4.001,-0.03,-0.136,-0.226,-3.273
Low,High,4,22,19,13,0.47200000000000003,0.863,1.0190000000000001,15.636,-0.3,-0.42,-0.47600000000000003,-7.325
Low,High,4,23,19,13,0.47200000000000003,0.863,1.0190000000000001,15.636,-0.47600000000000003,-0.635,-0.909,-7.325
Low,High,4,24,19,13,0.47200000000000003,0.863,1.0190000000000001,15.636,-0.47600000000000003,-0.635,-0.909,-7.325
Low,High,4,25,19,13,0.47200000000000003,0.863,1.0190000000000001,15.636,-0.47600000000000003,-0.635,-0.909,-7.325
Low,High,5,6,17,0,0.387,0.777,0.9520000000000001,4.0,,,,
Low,High,5,7,19,1,0.387,0.9520000000000001,1.0190000000000001,4.0,-1.249,,,-1.249
Low,High,5,8,19,4,0.387,0.9520000000000001,1.0190000000000001,5.432,-0.332,-0.44,-0.8490000000000001,-1.249
Low,High,5,9,19,5,0.387,0.9520000000000001,1.0190000000000001,5.462000000000001,-0.55,-0.8490000000000001,-1.121,-2.414
Low,High,5,10,19,6,0.387,0.9520000000000001,1.0190000000000001,9.595,-0.132,-0.55,-0.8490000000000001,-3.1889999999999996
Low,High,5,11,19,7,0.387,0.9520000000000001,1.0190000000000001,12.446,-0.132,-0.183,-0.55,-3.1889999999999996
Low,High,6,7,16,0,0.47600000000000003,0.491,0.977,2.57,,,,
Low,High,6,8,19,3,0.47600000000000003,0.491,0.977,3.447,-0.332,-0.44,-0.975,-0.975
Low,High,6,9,19,3,0.47600000000000003,0.491,0.977,5.252999999999999,-0.975,-1.121,-2.414,-2.414
Low,High,6,10,19,4,0.47600000000000003,0.491,0.977,7.531000000000001,-0.132,-0.975,-1.2770000000000001,-3.1889999999999996
Low,High,6,11,19,6,0.47600000000000003,0.491,0.977,10.329,-0.132,-0.20600000000000002,-0.22,-3.1889999999999996
Low,High,6,12,19,7,0.47600000000000003,0.491,0.977,10.329,-0.132,-0.20600000000000002,-0.22,-3.1889999999999996
Low,High,6,13,19,8,0.47600000000000003,0.491,0.977,10.329,-0.132,-0.20600000000000002,-0.22,-3.1889999999999996
Low,High,6,14,19,8,0.491,0.977,1.0190000000000001,10.329,-0.22,-0.27399999999999997,-0.396,-3.7289999999999996
Low,High,6,15,19,9,0.491,0.977,1.0190000000000001,11.640999999999998,-0.11199999999999999,-0.22,-0.523,-6.471
Low,High,6,16,19,9,0.491,0.977,1.0190000000000001,13.895999999999999,-0.11199999999999999,-0.22,-0.523,-6.471
Low,High,6,17,19,9,0.491,0.977,1.0190000000000001,16.785999999999998,-0.11199999999999999,-0.22,-0.523,-6.471
Low,High,6,18,19,9,0.491,0.977,1.0190000000000001,16.785999999999998,-0.11199999999999999,-0.22,-1.3630000000000002,-6.471
Low,High,6,19,19,10,0.491,0.977,1.0190000000000001,16.785999999999998,-0.11199999999999999,-0.22,-0.617,-6.471
Low,High,6,20,19,11,0.491,0.977,1.0190000000000001,16.785999999999998,-0.11199999999999999,-0.22,-0.429,-6.471
Low,High,6,21,19,12,0.491,0.977,1.0190000000000001,16.785999999999998,-0.11199999999999999,-0.22,-0.429,-6.471
Low,High,7,8,16,1,0.402,0.8859999999999999,0.986,3.447,-0.332,,,-0.332
Low,High,7,10,19,4,0.402,0.5539999999999999,0.59,7.531000000000001,-0.037000000000000005,-0.132,-0.429,-3.1889999999999996
Low,High,7,11,19,4,0.402,0.5539999999999999,0.8859999999999999,10.329,-0.132,-0.293,-0.429,-3.1889999999999996
Low,High,7,12,19,6,0.402,0.8859999999999999,0.986,10.329,-0.132,-0.214,-0.293,-3.1889999999999996
Low,High,7,13,19,6,0.402,0.8859999999999999,0.986,10.329,-0.132,-0.214,-0.293,-3.1889999999999996
Low,High,8,10,19,1,0.5539999999999999,0.59,0.628,7.531000000000001,-0.026000000000000002,,,-0.026000000000000002
Low,High,8,11,19,1,0.5539999999999999,0.628,0.636,10.329,-0.026000000000000002,,,-0.026000000000000002
Low,High,8,12,19,1,0.628,0.636,0.7440000000000001,10.329,-0.445,,,-0.445
Low,High,8,13,19,2,0.636,0.7440000000000001,1.047,10.329,-0.445,-1.97,,-1.97
Low,High,8,14,19,3,0.636,0.7440000000000001,1.062,10.329,-0.293,-0.445,-3.864,-3.864
Low,High,8,15,19,5,0.636,0.7440000000000001,1.062,11.640999999999998,-0.293,-0.318,-0.586,-6.603
Low,High,8,16,19,5,0.636,0.7440000000000001,1.062,13.895999999999999,-0.293,-0.318,-0.7809999999999999,-6.603
Low,High,8,17,19,6,0.636,0.7440000000000001,1.062,16.785999999999998,-0.318,-0.33399999999999996,-0.601,-6.603
Low,High,8,18,19,8,0.636,0.7440000000000001,1.062,16.785999999999998,-0.318,-0.33399999999999996,-0.601,-6.603
Low,High,8,19,19,9,0.7440000000000001,1.062,1.136,16.785999999999998,-0.195,-0.318,-0.601,-6.603
Low,High,8,20,19,9,0.7440000000000001,1.062,1.5330000000000001,16.785999999999998,-0.318,-0.601,-0.898,-6.603
Low,High,8,21,19,9,0.7440000000000001,1.062,1.5330000000000001,16.785999999999998,-0.318,-0.601,-0.898,-6.603
Low,High,8,22,19,9,0.7440000000000001,1.062,1.5330000000000001,16.785999999999998,-0.318,-0.601,-1.518,-6.603
Low,High,8,23,19,10,0.7440000000000001,1.062,1.5330000000000001,16.785999999999998,-0.318,-0.581,-0.601,-6.603
Low,High,8,24,19,10,0.7440000000000001,1.062,1.5330000000000001,16.785999999999998,-0.318,-0.581,-0.601,-6.603
Low,High,8,25,19,10,0.7440000000000001,1.062,1.5330000000000001,16.785999999999998,-0.318,-0.581,-0.601,-6.603
Low,High,8,26,19,10,0.7440000000000001,1.062,1.5330000000000001,16.785999999999998,-0.318,-0.581,-0.601,-6.603
Low,High,8,27,19,10,0.7440000000000001,1.062,1.5330000000000001,16.785999999999998,-0.318,-0.581,-0.601,-6.603
Low,High,8,28,19,10,0.7440000000000001,1.062,1.6769999999999998,16.785999999999998,-0.318,-0.581,-0.601,-6.849
Low,High,8,29,19,10,0.7440000000000001,1.062,1.6769999999999998,17.064,-0.318,-0.581,-0.601,-8.567
Low,High,8,30,19,10,0.7440000000000001,1.062,1.6769999999999998,17.064,-0.318,-0.581,-0.601,-8.567
Low,High,9,10,17,0,0.5539999999999999,0.59,0.636,6.388999999999999,,,,
Low,High,9,11,19,0,0.5539999999999999,0.636,0.737,9.156,,,,
Low,High,9,12,19,0,0.636,0.75,0.879,9.156,,,,
Low,High,9,13,19,1,0.636,0.879,1.062,9.156,-1.9869999999999999,,,-1.9869999999999999
Low,High,9,14,19,2,0.636,0.879,1.062,9.156,-0.293,-3.8810000000000002,,-3.8810000000000002
Low,High,9,15,19,5,0.636,0.879,1.062,10.455,-0.293,-0.41100000000000003,-1.099,-6.619
Low,High,9,16,19,5,0.636,0.879,1.062,12.685,-0.293,-0.41100000000000003,-1.306,-6.619
Low,High,9,17,19,8,0.636,0.879,1.062,15.545,-0.138,-0.2,-0.33399999999999996,-6.619
Low,High,9,18,19,10,0.636,0.879,1.062,15.545,-0.11599999999999999,-0.138,-0.2,-6.619
Low,High,9,19,19,11,0.879,1.062,1.107,15.545,-0.11599999999999999,-0.138,-0.195,-6.619
Low,High,9,20,19,11,0.879,1.062,1.107,15.545,-0.11599999999999999,-0.138,-0.2,-6.619
Low,High,9,21,19,11,0.879,1.062,1.107,15.545,-0.11599999999999999,-0.138,-0.2,-6.619
Low,High,9,22,19,11,0.879,1.062,1.107,15.545,-0.138,-0.33299999999999996,-0.41100000000000003,-6.619
Low,High,9,23,19,11,0.879,1.062,1.107,15.545,-0.138,-0.41100000000000003,-0.601,-6.619
Low,High,9,24,19,11,0.879,1.062,1.107,15.545,-0.138,-0.41100000000000003,-0.601,-6.619
Low,High,9,25,19,11,0.879,1.062,1.107,15.545,-0.138,-0.41100000000000003,-0.601,-6.619
Low,High,9,26,19,11,0.879,1.062,1.107,15.545,-0.138,-0.41100000000000003,-0.601,-6.619
Low,High,9,27,19,11,0.879,1.062,1.107,15.545,-0.138,-0.41100000000000003,-0.601,-6.619
Low,High,9,28,19,11,0.879,1.062,1.107,15.545,-0.138,-0.41100000000000003,-0.601,-6.865
Low,High,9,29,19,11,0.879,1.062,1.107,15.821,-0.138,-0.41100000000000003,-0.601,-8.583
Low,High,9,30,19,11,0.879,1.062,1.107,15.821,-0.138,-0.41100000000000003,-0.601,-8.583
Low,High,10,11,16,0,0.636,0.652,0.718,6.257000000000001,,,,
Low,High,10,12,19,0,0.636,0.652,0.718,6.257000000000001,,,,
Low,High,10,13,19,0,0.636,0.652,0.718,6.257000000000001,,,,
Low,High,10,14,19,3,0.636,0.652,0.718,6.257000000000001,-0.293,-1.045,-1.146,-1.146
Low,High,10,15,19,6,0.636,0.652,0.718,7.521,-0.285,-0.293,-0.513,-3.9610000000000003
Low,High,10,16,19,6,0.636,0.652,0.718,9.692,-0.293,-0.375,-0.513,-3.9610000000000003
Low,High,10,17,19,7,0.636,0.652,0.718,12.475999999999999,-0.33399999999999996,-0.513,-0.601,-3.9610000000000003
Low,High,10,18,19,9,0.636,0.652,0.718,12.475999999999999,-0.33399999999999996,-0.513,-0.601,-3.9610000000000003
Low,High,10,19,19,10,0.652,0.718,0.9540000000000001,12.475999999999999,-0.513,-0.601,-0.624,-3.9610000000000003
Low,High,10,20,19,10,0.652,0.718,0.9540000000000001,12.475999999999999,-0.513,-0.601,-0.624,-3.9610000000000003
Low,High,10,21,19,10,0.652,0.9520000000000001,0.9540000000000001,12.475999999999999,-0.513,-0.601,-0.624,-5.888
Low,High,10,22,19,10,0.652,0.9520000000000001,0.9540000000000001,12.475999999999999,-0.513,-0.601,-0.948,-5.888
Low,High,10,23,19,10,0.652,0.9520000000000001,0.9540000000000001,12.475999999999999,-0.513,-0.601,-0.948,-5.888
Low,High,10,24,19,10,0.652,0.9520000000000001,0.9540000000000001,12.475999999999999,-0.513,-0.601,-0.948,-5.888
Low,High,10,25,19,10,0.652,0.9520000000000001,0.9540000000000001,12.475999999999999,-0.513,-0.601,-0.948,-5.888
Low,High,10,26,19,10,0.652,0.9520000000000001,0.9540000000000001,12.475999999999999,-0.513,-0.601,-0.948,-5.888
Low,High,10,27,19,10,0.652,0.9520000000000001,0.9540000000000001,12.475999999999999,-0.513,-0.601,-0.948,-5.888
Low,High,10,28,19,10,0.652,0.9540000000000001,1.062,12.475999999999999,-0.513,-0.601,-0.948,-5.888
Low,High,10,29,19,10,0.652,0.9540000000000001,1.062,12.744000000000002,-0.513,-0.601,-0.948,-5.981
Low,High,10,30,19,10,0.652,0.9540000000000001,1.062,12.744000000000002,-0.513,-0.601,-0.948,-5.981
Low,High,11,18,19,9,0.62,0.7829999999999999,0.9540000000000001,9.963,-0.188,-0.426,-0.434,-3.9610000000000003
Low,High,12,17,19,8,0.265,0.778,0.797,8.232999999999999,-0.193,-0.426,-0.556,-3.9610000000000003
Low,High,12,19,19,9,0.778,0.797,0.8370000000000001,8.232999999999999,-0.193,-0.426,-1.067,-3.9610000000000003
Low,High,12,20,19,10,0.778,0.797,0.8370000000000001,8.232999999999999,-0.193,-0.426,-1.365,-3.9610000000000003
Low,High,12,21,19,10,0.778,0.797,0.8370000000000001,8.232999999999999,-0.193,-0.426,-1.365,-5.888
Low,High,12,22,19,11,0.778,0.797,0.8370000000000001,8.232999999999999,-0.193,-0.426,-1.476,-5.888
Low,High,12,23,19,11,0.778,0.797,0.8370000000000001,8.232999999999999,-0.193,-0.426,-1.689,-5.888
Low,High,12,24,19,11,0.778,0.797,0.8370000000000001,8.232999999999999,-0.193,-0.426,-1.689,-5.888
Low,High,12,25,19,11,0.778,0.797,0.8370000000000001,8.232999999999999,-0.193,-0.426,-1.689,-5.888
Low,High,12,29,19,11,0.8370000000000001,0.9540000000000001,0.9540000000000001,8.491,-0.193,-0.426,-1.689,-5.981
Low,High,12,30,19,11,0.8370000000000001,0.9540000000000001,0.9540000000000001,8.491,-0.193,-0.426,-1.689,-5.981
Low,High,13,14,16,0,0.201,0.7440000000000001,0.8029999999999999,2.69,,,,
Low,High,13,15,19,3,0.201,0.7440000000000001,0.875,2.69,-1.047,-2.115,-2.162,-2.162
Low,High,13,16,19,3,0.201,0.7440000000000001,0.875,4.248,-1.255,-2.162,-2.3080000000000003,-2.3080000000000003
Low,High,13,19,19,6,0.7440000000000001,1.024,1.08,6.893,-0.426,-0.823,-1.202,-2.3080000000000003
Low,High,13,20,19,7,0.7440000000000001,1.024,1.08,6.893,-0.426,-1.1179999999999999,-1.178,-2.519
Low,High,13,21,19,7,0.7440000000000001,1.024,1.08,6.893,-0.426,-1.178,-1.202,-4.712
Low,High,13,22,19,9,0.7440000000000001,1.024,1.08,6.893,-0.033,-0.426,-1.178,-4.712
Low,High,13,23,19,9,0.7440000000000001,1.024,1.3259999999999998,6.893,-0.426,-1.202,-1.391,-4.712
Low,High,13,24,19,9,0.7440000000000001,1.024,1.3259999999999998,6.893,-0.426,-1.202,-1.391,-4.712
Low,High,13,25,19,9,0.7440000000000001,1.024,1.3259999999999998,6.893,-0.426,-1.202,-1.391,-4.712
Low,High,13,26,19,9,0.7440000000000001,1.024,1.3619999999999999,6.893,-0.426,-1.202,-1.391,-4.712
Low,High,13,27,19,9,0.7440000000000001,1.024,1.3619999999999999,6.893,-0.426,-1.202,-1.391,-4.712
Low,High,13,28,19,9,0.7440000000000001,1.024,1.3619999999999999,6.893,-0.426,-1.202,-1.391,-4.712
Low,High,13,29,19,9,0.7440000000000001,1.024,1.795,7.148,-0.426,-1.202,-1.391,-4.712
Low,High,13,30,19,9,0.7440000000000001,1.024,1.795,7.148,-0.426,-1.202,-1.391,-4.712
Low,High,14,15,16,0,0.159,0.28300000000000003,0.616,4.707,,,,
Low,High,14,17,19,2,0.159,0.21,0.28300000000000003,6.893,-0.096,-0.948,,-0.948
Low,High,14,18,19,4,0.159,0.21,0.496,6.893,-0.081,-0.096,-0.948,-1.7530000000000001
Low,High,14,19,19,6,0.159,0.34600000000000003,0.496,6.893,-0.081,-0.114,-0.187,-1.7530000000000001
Low,High,14,20,19,6,0.159,0.34600000000000003,0.496,6.893,-0.081,-0.7440000000000001,-0.948,-1.7530000000000001
Low,High,14,21,19,7,0.159,0.34600000000000003,0.496,6.893,-0.081,-0.7440000000000001,-0.948,-2.083
Low,High,14,22,19,9,0.159,0.34600000000000003,0.496,6.893,-0.033,-0.081,-0.8059999999999999,-2.083
Low,High,14,23,19,9,0.159,0.496,0.59,6.893,-0.081,-0.8059999999999999,-0.948,-2.083
Low,High,14,24,19,9,0.159,0.496,0.59,6.893,-0.081,-0.8059999999999999,-0.948,-2.083
Low,High,14,25,19,9,0.159,0.496,0.59,6.893,-0.081,-0.8059999999999999,-0.948,-2.083
Low,High,14,26,19,9,0.159,0.496,1.114,6.893,-0.081,-0.8059999999999999,-0.948,-2.083
Low,High,14,27,19,9,0.159,0.496,1.114,6.893,-0.081,-0.8059999999999999,-0.948,-2.083
Low,High,14,28,19,9,0.159,0.496,1.114,6.893,-0.081,-0.8059999999999999,-0.948,-2.083
Low,High,15,17,19,1,0.21,0.433,0.5329999999999999,6.893,-0.065,,,-0.065
Low,High,15,18,19,2,0.21,0.742,0.787,6.893,-0.065,-0.081,,-0.081
Low,High,15,19,19,4,0.34600000000000003,0.787,0.894,6.893,-0.065,-0.081,-0.187,-0.799
Low,High,15,20,19,5,0.34600000000000003,0.787,1.051,6.893,-0.065,-0.081,-0.18100000000000002,-1.7169999999999999
Low,High,15,21,19,6,0.34600000000000003,0.787,1.051,6.893,-0.065,-0.081,-0.18100000000000002,-1.7990000000000002
Low,High,15,22,19,8,0.34600000000000003,0.787,1.051,6.893,-0.033,-0.065,-0.081,-1.7990000000000002
Low,High,15,23,19,8,0.59,0.787,1.051,6.893,-0.065,-0.081,-0.18100000000000002,-1.929
Low,High,15,24,19,8,0.59,0.787,1.051,6.893,-0.065,-0.081,-0.18100000000000002,-1.929
Low,High,15,25,19,8,0.59,0.787,1.051,6.893,-0.065,-0.081,-0.18100000000000002,-1.929
Low,High,15,26,19,8,0.787,1.051,1.5519999999999998,6.893,-0.065,-0.081,-0.18100000000000002,-1.929
Low,High,15,27,19,8,0.787,1.051,1.5519999999999998,6.893,-0.065,-0.081,-0.18100000000000002,-1.929
Low,High,15,28,19,8,0.787,1.5519999999999998,1.726,6.893,-0.065,-0.081,-0.18100000000000002,-1.929
Low,High,15,29,19,9,0.787,1.5519999999999998,1.766,7.148,-0.065,-0.081,-0.18100000000000002,-1.929
Low,High,15,30,19,9,0.787,1.5519999999999998,1.766,7.148,-0.065,-0.081,-0.18100000000000002,-1.929
Low,High,16,17,17,0,0.21,0.433,0.5329999999999999,5.916,,,,
Low,High,16,18,19,2,0.21,0.534,0.624,5.916,-0.081,-0.6409999999999999,,-0.6409999999999999
Low,High,16,19,19,4,0.34600000000000003,0.685,0.787,5.916,-0.081,-0.187,-0.6409999999999999,-0.799
Low,High,16,20,19,5,0.34600000000000003,0.787,0.868,5.916,-0.081,-0.18100000000000002,-0.6409999999999999,-1.7169999999999999
Low,High,16,21,19,5,0.34600000000000003,0.787,0.932,5.916,-0.081,-0.18100000000000002,-0.6409999999999999,-1.7990000000000002
Low,High,16,22,19,5,0.34600000000000003,0.787,1.242,5.916,-0.081,-0.18100000000000002,-1.7169999999999999,-2.227
Low,High,16,23,19,6,0.59,0.787,1.242,5.916,-0.081,-0.18100000000000002,-1.04,-2.477
Low,High,16,24,19,6,0.59,0.787,1.242,5.916,-0.081,-0.18100000000000002,-1.04,-2.477
Low,High,16,25,19,6,0.59,0.787,1.242,5.916,-0.081,-0.18100000000000002,-1.04,-2.477
Low,High,16,26,19,6,0.787,1.242,1.5230000000000001,5.916,-0.081,-0.18100000000000002,-1.04,-2.477
Low,High,16,27,19,6,0.787,1.358,1.5230000000000001,5.916,-0.081,-0.18100000000000002,-1.04,-2.477
Low,High,16,28,19,6,0.787,1.358,1.5230000000000001,6.57,-0.081,-0.18100000000000002,-1.04,-2.477
Low,High,16,29,19,7,0.787,1.5519999999999998,1.702,6.57,-0.081,-0.18100000000000002,-1.04,-2.477
Low,High,16,30,19,7,0.787,1.5519999999999998,1.702,6.57,-0.081,-0.18100000000000002,-1.04,-2.477
Low,High,17,19,19,3,0.24600000000000002,0.332,0.685,4.18,-0.095,-0.374,-0.799,-0.799
Low,High,17,20,19,5,0.24600000000000002,0.332,0.787,4.18,-0.095,-0.18100000000000002,-0.387,-1.901
Low,High,17,21,19,6,0.24600000000000002,0.332,0.787,4.18,-0.095,-0.18100000000000002,-0.387,-1.901
Low,High,17,22,19,6,0.24600000000000002,0.332,0.787,4.18,-0.095,-0.18100000000000002,-0.44799999999999995,-1.901
Low,High,17,23,19,9,0.24600000000000002,0.5770000000000001,0.787,4.18,-0.095,-0.1,-0.153,-2.112
Low,High,17,24,19,9,0.24600000000000002,0.5770000000000001,0.787,4.18,-0.095,-0.1,-0.153,-2.112
Low,High,17,25,19,9,0.24600000000000002,0.5770000000000001,0.787,4.18,-0.095,-0.1,-0.153,-2.112
Low,High,17,26,19,9,0.24600000000000002,0.787,0.991,4.883,-0.095,-0.1,-0.153,-2.112
Low,High,17,29,19,10,0.787,1.129,1.5519999999999998,6.57,-0.095,-0.1,-0.153,-2.112
Low,High,17,30,19,10,0.787,1.129,1.5519999999999998,6.57,-0.095,-0.1,-0.153,-2.112
Low,High,18,19,17,0,0.24600000000000002,0.428,0.685,3.62,,,,
Low,High,18,20,19,3,0.24600000000000002,0.428,0.452,3.62,-0.387,-0.647,-0.7559999999999999,-0.7559999999999999
Low,High,18,21,19,5,0.24600000000000002,0.428,0.452,3.62,-0.114,-0.387,-0.647,-1.784
Low,High,18,22,19,7,0.24600000000000002,0.428,0.452,3.62,-0.036000000000000004,-0.114,-0.11699999999999999,-1.784
Low,High,18,23,19,8,0.24600000000000002,0.452,0.672,3.62,-0.114,-0.29100000000000004,-0.44799999999999995,-1.784
Low,High,18,24,19,8,0.24600000000000002,0.452,0.672,3.62,-0.114,-0.29100000000000004,-0.44799999999999995,-1.784
Low,High,18,25,19,8,0.24600000000000002,0.452,0.672,3.62,-0.114,-0.29100000000000004,-0.44799999999999995,-1.784
Low,High,18,26,19,8,0.24600000000000002,0.452,0.9440000000000001,4.275,-0.114,-0.29100000000000004,-0.44799999999999995,-1.784
Low,High,18,29,19,10,0.882,1.078,1.479,5.952000000000001,-0.114,-0.29100000000000004,-0.33899999999999997,-1.912
Low,High,18,30,19,10,0.882,1.078,1.732,5.952000000000001,-0.114,-0.29100000000000004,-0.44799999999999995,-1.912
Low,High,19,20,17,1,0.24600000000000002,0.38,0.41,3.188,-0.387,,,-0.387
Low,High,19,21,19,3,0.24600000000000002,0.38,0.41,3.188,-0.33,-0.387,-1.784,-1.784
Low,High,19,22,19,3,0.24600000000000002,0.38,0.41,3.188,-0.33,-0.44799999999999995,-1.784,-1.784
Low,High,19,23,19,4,0.24600000000000002,0.41,0.452,3.188,-0.33,-0.44799999999999995,-1.304,-1.784
Low,High,19,24,19,4,0.24600000000000002,0.41,0.452,3.188,-0.33,-0.44799999999999995,-1.304,-1.784
Low,High,19,25,19,4,0.24600000000000002,0.41,0.452,3.188,-0.33,-0.44799999999999995,-1.304,-1.784
Low,High,19,26,19,4,0.24600000000000002,0.41,0.452,4.692,-0.33,-0.44799999999999995,-1.304,-1.784
Low,High,20,23,19,2,0.452,0.46399999999999997,0.484,2.6039999999999996,-0.10099999999999999,-0.113,,-0.113
Low,High,20,24,19,2,0.452,0.484,0.529,2.6039999999999996,-0.10099999999999999,-0.113,,-0.113
Low,High,20,25,19,2,0.452,0.484,0.529,2.6039999999999996,-0.10099999999999999,-0.113,,-0.113
Low,High,20,26,19,2,0.452,0.852,0.879,4.117,-0.10099999999999999,-0.113,,-0.113
Low,High,20,29,19,4,0.882,1.514,1.775,5.792000000000001,-0.10099999999999999,-0.113,-0.33899999999999997,-2.324
Low,High,20,30,19,4,0.882,1.775,1.7819999999999998,5.792000000000001,-0.10099999999999999,-0.113,-0.679,-2.324
Low,High,21,22,16,0,0.45299999999999996,0.46399999999999997,0.47600000000000003,2.6319999999999997,,,,
Low,High,21,26,19,0,0.47600000000000003,0.54,0.579,3.365,,,,
Low,High,21,27,19,1,0.579,0.879,1.08,4.062,-0.578,,,-0.578
Low,High,21,29,19,2,1.088,1.514,1.66,5.55,-0.136,-3.0469999999999997,,-3.0469999999999997
Low,High,21,30,19,2,1.088,1.66,1.775,5.55,-0.47600000000000003,-3.0469999999999997,,-3.0469999999999997
Low,High,22,23,15,0,0.048,0.17600000000000002,0.325,2.3680000000000003,,,,
Low,High,22,24,15,0,0.048,0.17600000000000002,0.325,2.3680000000000003,,,,
Low,High,22,25,15,0,0.048,0.17600000000000002,0.325,2.3680000000000003,,,,
Low,High,22,28,19,3,0.68,0.737,0.8590000000000001,4.717,-0.057999999999999996,-0.647,-0.83,-0.83
Low,High,22,29,19,3,0.68,0.737,0.8590000000000001,4.717,-0.057999999999999996,-0.647,-2.659,-2.659
Low,High,22,30,19,4,0.68,0.737,0.8590000000000001,4.717,-0.057999999999999996,-0.335,-0.647,-2.659
Low,High,23,26,19,0,0.179,0.221,0.363,4.479,,,,
Low,Close,1,4,19,5,0.264,0.297,0.614,6.683,-0.022000000000000002,-0.287,-0.612,-1.172
Low,Close,1,5,19,8,0.264,0.297,0.614,6.683,-0.022000000000000002,-0.18600000000000003,-0.21899999999999997,-2.023
Low,Close,1,6,19,8,0.264,0.297,0.614,6.683,-0.022000000000000002,-0.381,-0.612,-2.023
Low,Close,1,7,19,8,0.264,0.297,0.614,6.683,-0.022000000000000002,-0.381,-0.865,-2.023
Low,Close,1,8,19,8,0.264,0.297,0.614,6.683,-0.865,-1.2890000000000001,-1.4240000000000002,-2.952
Low,Close,1,9,19,9,0.264,0.297,0.614,7.865,-0.052000000000000005,-0.865,-1.2890000000000001,-4.728
Low,Close,1,10,19,10,0.264,0.297,0.614,7.865,-0.052000000000000005,-0.475,-0.865,-4.728
Low,Close,1,11,19,10,0.264,0.297,0.614,7.865,-0.052000000000000005,-0.475,-0.865,-4.813
Low,Close,1,12,19,10,0.264,0.297,0.614,7.865,-0.052000000000000005,-0.475,-0.865,-4.813
Low,Close,1,13,19,10,0.264,0.297,0.614,7.865,-0.284,-0.475,-0.865,-4.813
Low,Close,1,14,19,10,0.264,0.297,0.614,7.865,-0.284,-0.475,-0.865,-8.66
Low,Close,1,15,19,10,0.264,0.297,0.614,9.06,-0.475,-0.865,-1.2890000000000001,-9.219
Low,Close,1,16,19,11,0.264,0.297,0.614,9.883,-0.475,-0.861,-0.865,-9.219
Low,Close,1,17,19,11,0.264,0.297,0.614,13.251,-0.475,-0.861,-1.185,-9.219
Low,Close,1,18,19,11,0.264,0.297,0.614,13.251,-0.475,-0.861,-1.185,-9.219
Low,Close,1,19,19,12,0.264,0.297,0.614,13.251,-0.475,-0.861,-1.185,-9.219
Low,Close,1,20,19,12,0.264,0.297,0.614,13.251,-0.475,-0.861,-1.185,-9.219
Low,Close,1,21,19,12,0.264,0.297,0.614,13.251,-0.475,-0.861,-1.185,-9.219
Low,Close,1,22,19,12,0.264,0.297,0.614,13.251,-0.475,-0.861,-1.185,-9.219
Low,Close,1,23,19,12,0.264,0.297,0.614,13.251,-0.475,-0.861,-1.185,-9.219
Low,Close,1,24,19,12,0.264,0.297,0.614,13.251,-0.475,-0.861,-1.185,-9.219
Low,Close,1,25,19,12,0.264,0.297,0.614,13.251,-0.475,-0.861,-1.185,-9.219
Low,Close,1,26,19,12,0.264,0.297,0.721,13.629000000000001,-0.475,-0.861,-1.185,-9.219
Low,Close,1,27,19,12,0.264,0.297,0.721,13.629000000000001,-0.475,-0.861,-1.185,-9.219
Low,Close,1,28,19,12,0.264,0.297,0.721,13.629000000000001,-0.475,-0.861,-1.185,-9.892999999999999
Low,Close,1,29,19,12,0.264,0.297,0.721,14.177999999999999,-0.475,-0.861,-1.185,-11.219000000000001
Low,Close,1,30,19,12,0.264,0.297,0.721,14.177999999999999,-0.475,-0.861,-1.185,-11.219000000000001
Low,Close,2,3,17,0,0.297,0.31,0.37,2.843,,,,
Low,Close,2,4,19,2,0.297,0.31,0.315,3.325,-1.172,-2.299,,-2.299
Low,Close,2,5,19,6,0.297,0.31,0.315,3.325,-0.10099999999999999,-0.626,-0.685,-2.299
Low,Close,2,6,19,7,0.297,0.31,0.315,3.423,-0.10099999999999999,-0.685,-0.787,-2.299
Low,Close,2,7,19,7,0.297,0.31,0.315,3.423,-0.10099999999999999,-0.787,-1.2109999999999999,-2.75
Low,Close,2,8,19,9,0.297,0.31,0.315,3.86,-0.057999999999999996,-0.10099999999999999,-1.2109999999999999,-4.4719999999999995
Low,Close,2,9,19,10,0.297,0.31,0.315,5.4,-0.057999999999999996,-0.10099999999999999,-0.6,-6.345
Low,Close,2,10,19,11,0.297,0.31,0.315,6.239,-0.057999999999999996,-0.10099999999999999,-0.475,-6.345
Low,Close,2,11,19,11,0.297,0.31,0.315,8.582,-0.057999999999999996,-0.10099999999999999,-0.475,-6.428
Low,Close,2,12,19,11,0.297,0.31,0.315,8.582,-0.057999999999999996,-0.10099999999999999,-0.475,-6.428
Low,Close,2,13,19,11,0.297,0.31,0.315,8.582,-0.057999999999999996,-0.10099999999999999,-0.475,-6.428
Low,Close,2,14,19,11,0.297,0.31,0.315,8.582,-0.057999999999999996,-0.10099999999999999,-0.475,-9.032
Low,Close,2,15,19,11,0.297,0.31,0.315,9.964,-0.057999999999999996,-0.10099999999999999,-0.475,-9.589
Low,Close,2,16,19,11,0.297,0.31,0.315,10.794,-0.10099999999999999,-0.475,-0.9329999999999999,-9.589
Low,Close,2,17,19,11,0.297,0.31,0.315,14.19,-0.10099999999999999,-0.475,-0.9329999999999999,-9.589
Low,Close,2,18,19,11,0.297,0.31,0.315,14.19,-0.10099999999999999,-0.475,-0.9329999999999999,-9.589
Low,Close,2,19,19,12,0.297,0.31,0.315,14.19,-0.10099999999999999,-0.475,-0.9329999999999999,-9.589
Low,Close,2,20,19,13,0.297,0.31,0.315,14.19,-0.10099999999999999,-0.475,-0.9329999999999999,-9.589
Low,Close,2,21,19,13,0.297,0.31,0.315,14.19,-0.10099999999999999,-0.475,-0.9329999999999999,-9.589
Low,Close,2,22,19,13,0.297,0.31,0.401,14.19,-0.475,-0.9329999999999999,-0.9740000000000001,-9.589
Low,Close,2,23,19,13,0.297,0.31,0.401,14.19,-0.475,-0.9329999999999999,-1.125,-9.589
Low,Close,2,24,19,13,0.297,0.31,0.401,14.19,-0.475,-0.9329999999999999,-1.125,-9.589
Low,Close,2,25,19,13,0.297,0.31,0.401,14.19,-0.475,-0.9329999999999999,-1.125,-9.589
Low,Close,2,26,19,13,0.297,0.31,0.7340000000000001,14.572000000000001,-0.475,-0.9329999999999999,-1.125,-9.589
Low,Close,2,27,19,13,0.297,0.31,0.7340000000000001,14.572000000000001,-0.475,-0.9329999999999999,-1.125,-9.589
Low,Close,2,28,19,13,0.297,0.31,0.7340000000000001,14.572000000000001,-0.475,-0.9329999999999999,-1.125,-10.261
Low,Close,2,29,19,13,0.297,0.31,0.7340000000000001,15.124,-0.475,-0.9329999999999999,-1.125,-11.581
Low,Close,2,30,19,13,0.297,0.31,0.7340000000000001,15.124,-0.475,-0.9329999999999999,-1.125,-11.581
Low,Close,3,4,16,2,0.297,0.315,0.598,3.661,-1.172,-2.972,,-2.972
Low,Close,3,5,19,5,0.297,0.315,0.698,3.661,-0.502,-0.685,-1.2890000000000001,-2.972
Low,Close,3,6,19,7,0.297,0.315,0.698,3.661,-0.027000000000000003,-0.502,-0.685,-2.972
Low,Close,3,7,19,7,0.297,0.315,0.7340000000000001,3.661,-0.027000000000000003,-0.502,-1.2890000000000001,-3.42
Low,Close,3,8,19,10,0.297,0.315,0.7340000000000001,3.661,-0.027000000000000003,-0.188,-0.502,-5.13
Low,Close,3,9,19,10,0.297,0.315,0.7340000000000001,4.667,-0.027000000000000003,-0.188,-0.502,-6.99
Low,Close,3,10,19,11,0.297,0.315,0.7340000000000001,5.794,-0.027000000000000003,-0.188,-0.475,-6.99
Low,Close,3,11,19,11,0.297,0.315,0.7340000000000001,8.127,-0.027000000000000003,-0.188,-0.475,-7.0729999999999995
Low,Close,3,12,19,11,0.297,0.315,0.7340000000000001,8.127,-0.027000000000000003,-0.188,-0.475,-7.0729999999999995
Low,Close,3,13,19,12,0.297,0.315,0.7340000000000001,8.127,-0.026000000000000002,-0.027000000000000003,-0.188,-7.0729999999999995
Low,Close,3,14,19,12,0.297,0.315,0.7340000000000001,8.127,-0.026000000000000002,-0.027000000000000003,-0.188,-7.82
Low,Close,3,15,19,12,0.297,0.315,0.7340000000000001,9.503,-0.027000000000000003,-0.188,-0.475,-8.384
Low,Close,3,16,19,13,0.297,0.315,0.7340000000000001,10.329,-0.02,-0.027000000000000003,-0.475,-8.384
Low,Close,3,17,19,13,0.297,0.315,0.7340000000000001,13.710999999999999,-0.02,-0.027000000000000003,-0.475,-8.384
Low,Close,3,18,19,13,0.297,0.315,0.7340000000000001,13.710999999999999,-0.02,-0.027000000000000003,-0.475,-8.384
Low,Close,3,19,19,14,0.297,0.315,0.7340000000000001,13.710999999999999,-0.02,-0.027000000000000003,-0.475,-8.384
Low,Close,3,20,19,14,0.297,0.315,0.7340000000000001,13.710999999999999,-0.027000000000000003,-0.475,-0.502,-8.384
Low,Close,3,21,19,14,0.297,0.315,0.7340000000000001,13.710999999999999,-0.027000000000000003,-0.475,-0.502,-9.065
Low,Close,3,22,19,14,0.297,0.401,0.7340000000000001,13.710999999999999,-0.027000000000000003,-0.475,-1.061,-9.846
Low,Close,3,23,19,14,0.297,0.401,0.7340000000000001,13.710999999999999,-0.027000000000000003,-0.475,-1.061,-9.846
Low,Close,3,24,19,14,0.297,0.401,0.7340000000000001,13.710999999999999,-0.027000000000000003,-0.475,-1.061,-9.846
Low,Close,3,25,19,14,0.297,0.401,0.7340000000000001,13.710999999999999,-0.027000000000000003,-0.475,-1.061,-9.846
Low,Close,3,26,19,14,0.297,0.7340000000000001,1.063,14.091,-0.027000000000000003,-0.475,-1.061,-9.846
Low,Close,3,27,19,14,0.297,0.7340000000000001,1.063,14.091,-0.027000000000000003,-0.475,-1.061,-9.846
Low,Close,3,28,19,14,0.297,0.7340000000000001,1.063,14.091,-0.027000000000000003,-0.475,-1.061,-9.846
Low,Close,3,29,19,14,0.297,0.7340000000000001,1.063,14.640999999999998,-0.027000000000000003,-0.475,-1.061,-10.402999999999999
Low,Close,3,30,19,14,0.297,0.7340000000000001,1.063,14.640999999999998,-0.027000000000000003,-0.475,-1.061,-10.402999999999999
Low,Close,4,5,17,4,0.145,0.166,0.276,2.91,-0.473,-0.685,-0.9570000000000001,-1.47
Low,Close,4,6,19,6,0.145,0.276,0.315,2.91,-0.473,-0.685,-0.8220000000000001,-1.561
Low,Close,4,7,19,7,0.145,0.276,0.315,2.91,-0.121,-0.473,-0.8220000000000001,-1.614
Low,Close,4,8,19,10,0.145,0.315,0.376,3.138,-0.366,-0.473,-0.518,-3.167
Low,Close,4,9,19,10,0.145,0.315,0.376,4.667,-0.473,-0.518,-0.8220000000000001,-3.477
Low,Close,4,10,19,10,0.145,0.315,0.376,5.96,-0.518,-0.8220000000000001,-0.9570000000000001,-3.898
Low,Close,4,11,19,10,0.145,0.315,0.376,8.297,-0.518,-0.8220000000000001,-0.9570000000000001,-3.898
Low,Close,4,12,19,10,0.145,0.315,0.376,8.297,-0.8220000000000001,-0.9570000000000001,-1.018,-3.898
Low,Close,4,13,19,11,0.145,0.315,0.376,8.297,-0.026000000000000002,-0.8220000000000001,-0.9570000000000001,-3.898
Low,Close,5,6,17,2,0.222,0.267,0.281,1.651,-0.897,-1.561,,-1.561
Low,Close,5,7,19,4,0.222,0.281,0.287,2.385,-0.121,-0.81,-0.897,-1.561
Low,Close,5,8,19,6,0.222,0.281,0.312,3.7030000000000003,-0.518,-0.897,-1.175,-3.167
Low,Close,5,9,19,7,0.222,0.281,0.312,4.667,-0.518,-0.897,-1.175,-3.477
Low,Close,5,10,19,8,0.222,0.281,0.312,9.068,-0.293,-0.518,-0.897,-3.898
Low,Close,5,11,19,8,0.222,0.281,0.312,11.472999999999999,-0.293,-0.518,-0.897,-3.898
Low,Close,5,12,19,8,0.222,0.281,0.312,11.472999999999999,-0.293,-0.897,-1.4869999999999999,-3.898
Low,Close,5,13,19,9,0.222,0.281,0.312,11.472999999999999,-0.026000000000000002,-0.293,-0.897,-3.898
Low,Close,5,14,19,10,0.222,0.281,0.312,11.472999999999999,-0.026000000000000002,-0.253,-0.293,-7.82
Low,Close,5,15,19,10,0.222,0.281,0.312,12.892000000000001,-0.293,-0.42200000000000004,-0.897,-8.384
Low,Close,5,16,19,11,0.222,0.281,0.312,13.743,-0.02,-0.293,-0.42200000000000004,-8.384
Low,Close,5,17,19,11,0.222,0.281,0.312,17.23,-0.02,-0.293,-0.897,-8.384
Low,Close,5,18,19,12,0.222,0.281,0.312,17.23,-0.02,-0.293,-0.897,-8.384
Low,Close,5,19,19,13,0.222,0.281,0.376,17.23,-0.02,-0.293,-0.897,-8.384
Low,Close,5,20,19,13,0.281,0.376,0.401,17.23,-0.293,-0.897,-1.555,-8.384
Low,Close,5,21,19,13,0.281,0.376,0.401,17.23,-0.293,-0.897,-1.555,-8.384
Low,Close,5,22,19,14,0.281,0.376,0.401,17.23,-0.293,-0.59,-0.897,-8.384
Low,Close,5,23,19,14,0.281,0.376,0.598,17.23,-0.293,-0.742,-0.897,-8.384
Low,Close,5,24,19,14,0.281,0.376,0.598,17.23,-0.293,-0.742,-0.897,-8.384
Low,Close,5,25,19,14,0.281,0.376,0.598,17.23,-0.293,-0.742,-0.897,-8.384
Low,Close,5,26,19,14,0.281,0.376,0.598,17.622,-0.293,-0.742,-0.897,-8.384
Low,Close,5,27,19,14,0.281,0.376,0.598,17.622,-0.293,-0.742,-0.897,-8.384
Low,Close,5,28,19,14,0.281,0.376,0.598,17.622,-0.293,-0.742,-0.897,-9.065
Low,Close,5,29,19,14,0.281,0.376,0.598,18.189,-0.293,-0.742,-0.897,-10.402999999999999
Low,Close,5,30,19,14,0.281,0.376,0.598,18.189,-0.293,-0.742,-0.897,-10.402999999999999
Low,Close,6,9,19,6,0.075,0.095,0.14300000000000002,4.46,-0.66,-0.777,-1.3,-3.477
Low,Close,6,10,19,8,0.095,0.14300000000000002,0.302,7.013999999999999,-0.247,-0.33,-0.66,-3.898
Low,Close,6,11,19,9,0.095,0.14300000000000002,0.376,9.374,-0.17300000000000001,-0.247,-0.33,-3.898
Low,Close,6,12,19,10,0.095,0.14300000000000002,0.376,9.374,-0.17300000000000001,-0.247,-0.33,-3.898
Low,Close,6,13,19,10,0.095,0.14300000000000002,0.376,9.374,-0.17300000000000001,-0.247,-0.33,-3.898
Low,Close,6,14,19,11,0.095,0.14300000000000002,0.376,9.374,-0.17300000000000001,-0.247,-0.253,-6.97
Low,Close,6,15,19,12,0.095,0.14300000000000002,0.376,10.765999999999998,-0.11900000000000001,-0.17300000000000001,-0.247,-7.54
Low,Close,6,16,19,12,0.095,0.14300000000000002,0.376,11.602,-0.17300000000000001,-0.218,-0.247,-7.54
Low,Close,6,17,19,12,0.095,0.14300000000000002,0.376,15.023,-0.17300000000000001,-0.218,-0.247,-7.54
Low,Close,6,18,19,13,0.095,0.14300000000000002,0.376,15.023,-0.17300000000000001,-0.218,-0.247,-7.54
Low,Close,6,19,19,14,0.095,0.14300000000000002,0.376,15.023,-0.17300000000000001,-0.218,-0.247,-7.54
Low,Close,9,10,17,2,0.161,0.27399999999999997,0.294,5.877000000000001,-0.07400000000000001,-0.4,,-0.4
Low,Close,9,11,19,2,0.161,0.294,0.306,8.212,-0.4,-0.467,,-0.467
Low,Close,9,12,19,5,0.217,0.306,0.41600000000000004,8.212,-0.113,-0.244,-0.4,-2.4330000000000003
Low,Close,9,13,19,7,0.217,0.41600000000000004,0.444,8.212,-0.038,-0.113,-0.244,-2.685
Low,Close,9,14,19,10,0.217,0.41600000000000004,0.649,8.212,-0.113,-0.244,-0.379,-7.117000000000001
Low,Close,9,15,19,12,0.217,0.41600000000000004,0.649,9.589,-0.113,-0.244,-0.379,-7.686
Low,Close,9,16,19,14,0.217,0.41600000000000004,0.649,10.415999999999999,-0.113,-0.244,-0.379,-7.686
Low,Close,9,17,19,15,0.41600000000000004,0.45899999999999996,0.649,13.8,-0.113,-0.244,-0.379,-7.686
Low,Close,9,18,19,15,0.41600000000000004,0.604,0.649,13.8,-0.113,-0.244,-0.379,-7.686
Low,Close,9,19,19,15,0.41600000000000004,0.649,0.691,13.8,-0.113,-0.379,-0.4,-7.686
Low,Close,9,20,19,15,0.41600000000000004,0.649,0.691,13.8,-0.113,-0.379,-0.4,-7.686
Low,Close,9,21,19,15,0.41600000000000004,0.649,0.728,13.8,-0.113,-0.379,-0.4,-7.686
Low,Close,9,22,19,15,0.41600000000000004,0.649,0.728,13.8,-0.113,-0.379,-0.4,-7.686
Low,Close,9,23,19,15,0.41600000000000004,0.649,0.728,13.8,-0.113,-0.379,-0.4,-7.686
Low,Close,9,24,19,15,0.41600000000000004,0.649,0.728,13.8,-0.113,-0.379,-0.4,-7.686
Low,Close,9,25,19,15,0.41600000000000004,0.649,0.728,13.8,-0.113,-0.379,-0.4,-7.686
Low,Close,9,26,19,15,0.41600000000000004,0.649,0.728,14.181,-0.113,-0.379,-0.4,-7.686
Low,Close,9,27,19,15,0.41600000000000004,0.649,0.728,14.181,-0.113,-0.379,-0.4,-7.686
Low,Close,9,28,19,15,0.41600000000000004,0.649,0.728,14.181,-0.113,-0.379,-0.4,-8.372
Low,Close,9,29,19,15,0.41600000000000004,0.649,0.728,14.732000000000001,-0.113,-0.379,-0.4,-9.72
Low,Close,9,30,19,15,0.41600000000000004,0.649,0.728,14.732000000000001,-0.113,-0.379,-0.4,-9.72
Low,Close,12,13,17,5,0.024,0.064,0.344,2.052,-0.08,-0.113,-0.726,-1.3090000000000002
Low,Close,12,14,19,7,0.024,0.064,0.344,2.052,-0.023,-0.14300000000000002,-0.5710000000000001,-4.474
Low,Close,12,15,19,9,0.024,0.064,0.344,2.654,-0.023,-0.5710000000000001,-0.726,-5.059
Low,Close,12,16,19,10,0.024,0.064,0.344,3.428,-0.023,-0.5710000000000001,-0.726,-5.059
Low,Close,13,17,19,10,0.192,0.42,0.511,5.279,-0.023,-0.322,-0.376,-3.28
Low,Close,13,18,19,11,0.192,0.42,0.511,5.279,-0.023,-0.322,-0.376,-3.28
Low,Close,13,19,19,12,0.192,0.42,0.511,5.279,-0.023,-0.322,-0.376,-3.28
Low,Close,13,20,19,12,0.192,0.42,0.511,5.279,-0.023,-0.322,-0.376,-4.885
Low,Close,13,21,19,12,0.192,0.42,0.511,5.279,-0.023,-0.322,-0.376,-5.192
Low,Close,13,22,19,12,0.192,0.42,0.511,5.279,-0.023,-0.322,-0.868,-5.192
Low,Close,13,23,19,12,0.192,0.42,0.511,5.279,-0.023,-0.322,-0.868,-5.192
Low,Close,13,24,19,12,0.192,0.42,0.511,5.279,-0.023,-0.322,-0.868,-5.192
Low,Close,13,25,19,12,0.192,0.42,0.511,5.279,-0.023,-0.322,-0.868,-5.192
Low,Close,13,26,19,12,0.192,0.42,0.511,5.631,-0.023,-0.322,-0.868,-5.192
Low,Close,13,27,19,12,0.192,0.42,0.511,5.722,-0.023,-0.322,-0.868,-5.192
Low,Close,13,28,19,12,0.192,0.42,0.511,5.916,-0.023,-0.322,-0.868,-5.192
Low,Close,13,29,19,12,0.192,0.42,0.511,6.141,-0.023,-0.322,-0.868,-5.412000000000001
Low,Close,13,30,19,12,0.192,0.42,0.511,6.141,-0.023,-0.322,-0.868,-5.412000000000001
Low,Close,14,28,19,11,0.153,0.7340000000000001,0.963,6.332000000000001,-0.081,-0.185,-0.868,-2.9210000000000003
Low,Close,14,29,19,11,0.153,0.7340000000000001,1.227,6.332000000000001,-0.081,-0.868,-1.2429999999999999,-2.9210000000000003
Low,Close,14,30,19,11,0.153,0.7340000000000001,1.227,6.332000000000001,-0.081,-0.868,-1.2429999999999999,-2.9210000000000003
Low,Close,15,16,15,2,0.081,0.096,0.326,2.148,-0.376,-0.66,,-0.66
Low,Close,15,17,19,4,0.081,0.096,0.253,5.279,-0.376,-0.45899999999999996,-0.66,-1.036
Low,Close,15,18,19,6,0.081,0.326,0.435,5.279,-0.081,-0.376,-0.45899999999999996,-1.1840000000000002
Low,Close,16,17,17,3,0.081,0.134,0.253,4.317,-0.023,-1.268,-1.39,-1.39
Low,Close,16,18,19,5,0.081,0.168,0.327,4.317,-0.023,-0.081,-1.1840000000000002,-1.39
Low,Close,16,19,19,7,0.268,0.299,0.444,4.317,-0.023,-0.081,-0.542,-2.759
Low,Close,16,20,19,8,0.268,0.299,0.444,4.317,-0.023,-0.081,-0.121,-2.759
Low,Close,16,21,19,8,0.268,0.299,0.444,4.317,-0.023,-0.081,-0.444,-2.759
Low,Close,16,22,19,9,0.268,0.299,0.444,4.317,-0.023,-0.081,-0.444,-3.2430000000000003
Low,Close,16,23,19,9,0.268,0.444,0.59,4.317,-0.023,-0.081,-0.444,-3.2430000000000003
Low,Close,16,24,19,9,0.268,0.444,0.59,4.317,-0.023,-0.081,-0.444,-3.2430000000000003
Low,Close,16,25,19,9,0.268,0.444,0.59,4.317,-0.023,-0.081,-0.444,-3.2430000000000003
Low,Close,16,26,19,9,0.268,0.444,1.167,4.9319999999999995,-0.023,-0.081,-0.444,-3.2430000000000003
Low,Close,16,27,19,9,0.268,0.444,1.167,5.099,-0.023,-0.081,-0.444,-3.2430000000000003
Low,Close,16,28,19,10,0.268,0.444,1.167,6.494,-0.023,-0.081,-0.444,-3.2430000000000003
Low,Close,16,29,19,10,0.268,0.444,1.167,6.494,-0.081,-0.22899999999999998,-0.444,-3.2430000000000003
Low,Close,17,27,19,9,0.228,0.39799999999999996,0.444,5.099,-0.095,-0.515,-0.542,-2.94
Low,Close,17,28,19,10,0.228,0.39799999999999996,0.444,6.494,-0.095,-0.515,-0.542,-2.94
Low,Close,18,27,19,9,0.228,0.512,0.521,4.489,-0.385,-0.8,-0.9690000000000001,-2.279
Low,Close,18,28,19,10,0.228,0.512,0.521,5.876,-0.385,-0.8,-0.9690000000000001,-2.279
Low,Close,19,30,19,9,0.114,0.36,0.7240000000000001,5.0680000000000005,-0.44,-0.584,-0.8,-3.133
Low,Close,20,23,19,6,0.09,0.145,0.261,2.191,-0.075,-0.242,-0.385,-0.8059999999999999
Low,Close,20,24,19,6,0.09,0.145,0.261,2.191,-0.075,-0.242,-0.385,-0.8059999999999999
Low,Close,20,25,19,6,0.09,0.145,0.261,2.191,-0.075,-0.242,-0.385,-0.8059999999999999
Low,Close,20,26,19,6,0.09,0.42200000000000004,0.479,4.004,-0.075,-0.242,-0.385,-0.8059999999999999
Low,Close,20,28,19,7,0.659,0.7240000000000001,1.093,5.716,-0.075,-0.242,-0.385,-2.0980000000000003
Low,Close,21,26,19,7,0.168,0.18100000000000002,0.22399999999999998,3.25,-0.075,-0.106,-0.109,-0.8059999999999999
Low,Close,24,27,18,1,0.1,0.264,0.345,2.908,-0.32299999999999995,,,-0.32299999999999995
Low,Close,24,28,19,3,0.1,0.345,0.39899999999999997,2.93,-0.27899999999999997,-0.647,-1.865,-1.865
Low,Close,24,29,19,5,0.1,0.373,0.39899999999999997,3.405,-0.27899999999999997,-0.526,-0.647,-3.3089999999999997
Low,Close,24,30,19,7,0.1,0.373,0.39899999999999997,3.405,-0.331,-0.647,-0.7509999999999999,-3.3089999999999997
Low,Close,25,27,16,1,0.1,0.264,0.395,2.908,-0.32299999999999995,,,-0.32299999999999995
Low,Close,25,29,19,4,0.1,0.39899999999999997,0.436,3.405,-0.526,-0.647,-1.58,-3.3089999999999997
Low,Close,25,30,19,7,0.1,0.39899999999999997,0.49,3.405,-0.331,-0.647,-0.7509999999999999,-3.3089999999999997
Low,Close,26,27,16,1,0.1,0.264,0.395,2.908,-0.32299999999999995,,,-0.32299999999999995
Low,Close,26,29,19,4,0.1,0.39899999999999997,0.436,3.405,-0.526,-0.647,-1.58,-3.3089999999999997
Low,Close,26,30,19,7,0.1,0.39899999999999997,0.49,3.405,-0.331,-0.647,-0.7509999999999999,-3.3089999999999997
Low,Open,4,7,19,3,0.401,0.428,0.5489999999999999,5.301,-0.327,-0.63,-1.905,-1.905
Low,Open,4,8,19,7,0.401,0.428,0.5489999999999999,5.301,-0.327,-0.532,-0.5539999999999999,-1.905
Low,Open,4,9,19,10,0.401,0.428,0.5489999999999999,5.301,-0.314,-0.327,-0.843,-3.1010000000000004
Low,Open,4,10,19,10,0.401,0.428,0.642,5.301,-0.314,-0.843,-0.88,-3.322
Low,Open,4,11,19,10,0.401,0.428,0.642,5.475,-0.314,-0.843,-0.88,-3.322
Low,Open,4,12,19,10,0.401,0.428,0.642,7.851,-0.652,-0.843,-0.88,-3.322
Low,Open,4,13,19,10,0.401,0.428,0.642,7.851,-0.843,-0.88,-0.909,-3.7239999999999998
Low,Open,4,14,19,10,0.401,0.428,0.642,7.851,-0.843,-0.88,-0.909,-4.783
Low,Open,4,15,19,11,0.401,0.428,0.642,8.704,-0.843,-0.88,-0.909,-8.57
Low,Open,4,16,19,11,0.401,0.428,0.642,10.148,-0.843,-0.88,-0.909,-8.57
Low,Open,4,17,19,12,0.401,0.428,0.642,12.17,-0.065,-0.843,-0.88,-8.57
Low,Open,4,18,19,13,0.401,0.428,0.642,13.22,-0.065,-0.47200000000000003,-0.843,-8.57
Low,Open,4,19,19,13,0.401,0.428,0.642,13.22,-0.47200000000000003,-0.843,-0.88,-8.57
Low,Open,4,20,19,14,0.401,0.428,0.642,13.22,-0.47200000000000003,-0.843,-0.88,-8.57
Low,Open,4,21,19,15,0.401,0.428,0.642,13.22,-0.47200000000000003,-0.843,-0.88,-8.57
Low,Open,4,22,19,15,0.401,0.428,0.642,13.22,-0.47200000000000003,-0.843,-0.88,-8.57
Low,Open,4,23,19,15,0.401,0.642,0.754,13.22,-0.47200000000000003,-0.843,-0.88,-8.57
Low,Open,4,24,19,15,0.401,0.642,0.754,13.22,-0.47200000000000003,-0.843,-0.88,-8.57
Low,Open,4,25,19,15,0.401,0.642,0.754,13.22,-0.47200000000000003,-0.843,-0.88,-8.57
Low,Open,4,26,19,15,0.642,0.953,1.028,13.22,-0.47200000000000003,-0.843,-0.88,-8.57
Low,Open,4,27,19,15,0.642,1.028,1.03,13.22,-0.47200000000000003,-0.843,-0.88,-8.57
Low,Open,4,28,19,15,0.642,1.028,1.03,13.22,-0.47200000000000003,-0.843,-0.88,-8.57
Low,Open,4,29,19,15,0.642,1.028,1.03,15.912,-0.47200000000000003,-0.843,-0.88,-9.274
Low,Open,4,30,19,15,0.642,1.028,1.03,15.912,-0.47200000000000003,-0.843,-0.88,-9.85
Low,Open,5,6,17,0,0.183,0.21899999999999997,0.284,3.3110000000000004,,,,
Low,Open,5,7,19,1,0.183,0.28300000000000003,0.593,3.3110000000000004,-1.905,,,-1.905
Low,Open,5,8,19,4,0.183,0.28300000000000003,0.593,3.3110000000000004,-0.532,-0.5539999999999999,-1.087,-1.905
Low,Open,5,9,19,7,0.183,0.28300000000000003,0.593,4.73,-0.314,-0.528,-0.917,-3.1010000000000004
Low,Open,5,10,19,8,0.183,0.593,0.642,5.959,-0.183,-0.314,-0.917,-3.322
Low,Open,5,11,19,8,0.183,0.593,0.642,8.568,-0.183,-0.314,-0.917,-3.322
Low,Open,5,12,19,8,0.19,0.593,0.642,11.014000000000001,-0.183,-0.652,-0.917,-3.322
Low,Open,5,13,19,8,0.19,0.593,0.642,11.014000000000001,-0.183,-0.917,-0.9329999999999999,-3.7239999999999998
Low,Open,5,14,19,8,0.19,0.593,0.642,11.014000000000001,-0.183,-0.917,-1.1440000000000001,-4.783
Low,Open,5,15,19,10,0.19,0.593,0.642,11.892000000000001,-0.183,-0.262,-0.917,-8.57
Low,Open,5,16,19,10,0.19,0.593,0.642,13.378,-0.183,-0.262,-0.917,-8.57
Low,Open,5,17,19,10,0.19,0.593,0.642,15.459000000000001,-0.183,-0.262,-0.917,-8.57
Low,Open,5,18,19,10,0.19,0.593,0.642,16.541,-0.183,-0.917,-1.2830000000000001,-8.57
Low,Open,5,23,19,14,0.593,0.642,0.679,16.541,-0.183,-0.624,-0.917,-8.57
Low,Open,5,24,19,14,0.593,0.642,0.679,16.541,-0.183,-0.624,-0.917,-8.57
Low,Open,5,25,19,14,0.593,0.642,0.679,16.541,-0.183,-0.624,-0.917,-8.57
Low,Open,5,26,19,14,0.593,0.642,1.028,16.541,-0.183,-0.8009999999999999,-0.917,-8.57
Low,Open,5,27,19,14,0.593,0.642,1.028,16.541,-0.183,-0.8009999999999999,-0.917,-8.57
Low,Open,5,28,19,14,0.593,0.642,1.028,16.541,-0.183,-0.8009999999999999,-0.917,-8.57
Low,Open,5,29,19,14,0.593,0.642,1.028,19.311,-0.183,-0.8009999999999999,-0.917,-9.274
Low,Open,5,30,19,14,0.593,0.642,1.028,19.311,-0.183,-0.8009999999999999,-0.917,-9.85
Low,Open,6,21,19,14,0.38,0.574,0.642,14.345999999999998,-0.22,-0.33899999999999997,-0.9129999999999999,-7.728
Low,Open,6,22,19,14,0.38,0.574,0.642,14.345999999999998,-0.22,-0.33899999999999997,-0.9129999999999999,-7.728
Low,Open,6,23,19,15,0.38,0.574,0.642,14.345999999999998,-0.22,-0.33899999999999997,-0.665,-7.728
Low,Open,6,24,19,15,0.38,0.574,0.642,14.345999999999998,-0.22,-0.33899999999999997,-0.665,-7.728
Low,Open,6,25,19,15,0.38,0.574,0.642,14.345999999999998,-0.22,-0.33899999999999997,-0.665,-7.728
Low,Open,6,26,19,15,0.574,0.642,1.028,14.345999999999998,-0.22,-0.33899999999999997,-0.8420000000000001,-7.728
Low,Open,6,27,19,15,0.574,0.642,1.028,14.345999999999998,-0.22,-0.33899999999999997,-0.8420000000000001,-7.728
Low,Open,6,28,19,15,0.574,0.642,1.028,14.345999999999998,-0.22,-0.33899999999999997,-0.8420000000000001,-7.728
Low,Open,6,29,19,15,0.574,0.642,1.028,17.064,-0.22,-0.33899999999999997,-0.8420000000000001,-8.437999999999999
Low,Open,6,30,19,15,0.574,0.642,1.028,17.064,-0.22,-0.33899999999999997,-0.8420000000000001,-9.019
Low,Open,7,14,19,10,0.332,0.622,0.634,8.923,-0.187,-0.209,-0.293,-4.855
Low,Open,7,15,19,13,0.332,0.622,0.634,9.785,-0.187,-0.209,-0.262,-8.64
Low,Open,7,16,19,13,0.332,0.622,0.634,11.244000000000002,-0.187,-0.209,-0.262,-8.64
Low,Open,7,17,19,13,0.332,0.634,0.97,13.286,-0.187,-0.209,-0.262,-8.64
Low,Open,7,18,19,13,0.332,0.634,0.97,14.345999999999998,-0.187,-0.209,-0.293,-8.64
Low,Open,7,19,19,14,0.332,0.634,1.186,14.345999999999998,-0.195,-0.209,-0.293,-8.64
Low,Open,7,20,19,14,0.332,0.634,1.2409999999999999,14.345999999999998,-0.209,-0.293,-0.493,-8.64
Low,Open,7,21,19,14,0.332,0.634,1.2409999999999999,14.345999999999998,-0.209,-0.293,-0.493,-8.64
Low,Open,7,22,19,14,0.332,0.634,1.2409999999999999,14.345999999999998,-0.209,-0.293,-0.493,-8.64
Low,Open,7,23,19,15,0.332,0.634,1.2790000000000001,14.345999999999998,-0.209,-0.293,-0.493,-8.64
Low,Open,7,24,19,15,0.332,0.634,1.2790000000000001,14.345999999999998,-0.209,-0.293,-0.493,-8.64
Low,Open,7,25,19,15,0.332,0.634,1.2790000000000001,14.345999999999998,-0.209,-0.293,-0.493,-8.64
Low,Open,7,26,19,15,0.332,0.634,1.2790000000000001,14.345999999999998,-0.209,-0.293,-0.493,-8.64
Low,Open,7,27,19,15,0.332,0.634,1.2790000000000001,14.345999999999998,-0.209,-0.293,-0.493,-8.64
Low,Open,7,28,19,15,0.332,0.634,1.2790000000000001,14.345999999999998,-0.209,-0.293,-0.493,-8.64
Low,Open,7,29,19,15,0.332,0.634,1.2790000000000001,17.064,-0.209,-0.293,-0.493,-9.343
Low,Open,7,30,19,15,0.332,0.634,1.2790000000000001,17.064,-0.209,-0.293,-0.493,-9.919
Low,Open,8,12,19,5,0.34600000000000003,0.402,0.514,8.923,-0.016,-0.168,-0.479,-0.924
Low,Open,8,13,19,7,0.34600000000000003,0.402,0.514,8.923,-0.016,-0.168,-0.187,-2.9730000000000003
Low,Open,8,14,19,9,0.34600000000000003,0.402,0.514,8.923,-0.016,-0.168,-0.17800000000000002,-4.04
Low,Open,8,15,19,11,0.34600000000000003,0.402,0.514,9.785,-0.016,-0.17800000000000002,-0.187,-7.857
Low,Open,8,16,19,11,0.34600000000000003,0.402,0.514,11.244000000000002,-0.016,-0.17800000000000002,-0.187,-7.857
Low,Open,8,17,19,13,0.34600000000000003,0.402,0.514,13.286,-0.016,-0.17800000000000002,-0.187,-7.857
Low,Open,8,18,19,13,0.34600000000000003,0.402,0.514,14.345999999999998,-0.016,-0.187,-0.193,-7.857
Low,Open,8,19,19,13,0.34600000000000003,0.402,0.514,14.345999999999998,-0.016,-0.193,-0.195,-7.857
Low,Open,8,20,19,13,0.34600000000000003,0.402,0.514,14.345999999999998,-0.016,-0.193,-0.493,-7.857
Low,Open,8,21,19,13,0.34600000000000003,0.402,0.514,14.345999999999998,-0.016,-0.193,-0.493,-7.857
Low,Open,8,22,19,13,0.34600000000000003,0.402,0.841,14.345999999999998,-0.016,-0.193,-0.493,-7.857
Low,Open,8,23,19,14,0.34600000000000003,0.402,0.841,14.345999999999998,-0.016,-0.193,-0.493,-7.857
Low,Open,8,24,19,14,0.34600000000000003,0.402,0.841,14.345999999999998,-0.016,-0.193,-0.493,-7.857
Low,Open,8,25,19,14,0.34600000000000003,0.402,0.841,14.345999999999998,-0.016,-0.193,-0.493,-7.857
Low,Open,8,26,19,14,0.34600000000000003,0.402,0.841,14.345999999999998,-0.016,-0.193,-0.493,-7.857
Low,Open,8,27,19,14,0.34600000000000003,0.402,0.841,14.345999999999998,-0.016,-0.193,-0.493,-7.857
Low,Open,8,28,19,14,0.34600000000000003,0.402,0.841,14.345999999999998,-0.016,-0.193,-0.493,-7.857
Low,Open,8,29,19,14,0.34600000000000003,0.402,0.888,17.064,-0.016,-0.193,-0.493,-8.567
Low,Open,8,30,19,14,0.34600000000000003,0.402,0.888,17.064,-0.016,-0.193,-0.493,-9.147
Low,Open,9,12,19,3,0.12300000000000001,0.34600000000000003,0.42,7.766,-0.172,-0.262,-0.493,-0.493
Low,Open,9,13,19,5,0.12300000000000001,0.34600000000000003,0.42,7.766,-0.172,-0.187,-0.262,-2.99
Low,Open,9,14,19,6,0.12300000000000001,0.34600000000000003,0.42,7.766,-0.172,-0.187,-0.262,-4.0569999999999995
Low,Open,9,15,19,8,0.12300000000000001,0.34600000000000003,0.42,8.619,-0.187,-0.34600000000000003,-0.493,-7.874
Low,Open,9,16,19,9,0.34600000000000003,0.42,0.446,10.062000000000001,-0.187,-0.34600000000000003,-0.39899999999999997,-7.874
Low,Open,9,17,19,12,0.34600000000000003,0.42,0.446,12.082,-0.187,-0.193,-0.297,-7.874
Low,Open,9,18,19,14,0.34600000000000003,0.42,0.446,13.130999999999998,-0.187,-0.193,-0.297,-7.874
Low,Open,9,19,19,14,0.34600000000000003,0.42,0.446,13.130999999999998,-0.193,-0.195,-0.297,-7.874
Low,Open,9,20,19,14,0.34600000000000003,0.42,0.446,13.130999999999998,-0.193,-0.297,-0.493,-7.874
Low,Open,9,21,19,14,0.34600000000000003,0.42,0.446,13.130999999999998,-0.193,-0.297,-0.493,-7.874
Low,Open,9,22,19,14,0.34600000000000003,0.446,0.747,13.130999999999998,-0.193,-0.297,-0.493,-7.874
Low,Open,9,23,19,14,0.34600000000000003,0.446,0.747,13.130999999999998,-0.193,-0.297,-0.493,-7.874
Low,Open,9,24,19,14,0.34600000000000003,0.446,0.747,13.130999999999998,-0.193,-0.297,-0.493,-7.874
Low,Open,9,25,19,14,0.34600000000000003,0.446,0.747,13.130999999999998,-0.193,-0.297,-0.493,-7.874
Low,Open,9,26,19,14,0.34600000000000003,0.446,0.747,13.130999999999998,-0.193,-0.297,-0.493,-7.874
Low,Open,9,27,19,14,0.34600000000000003,0.446,0.747,13.130999999999998,-0.193,-0.493,-0.507,-7.874
Low,Open,9,28,19,14,0.34600000000000003,0.446,0.747,13.130999999999998,-0.193,-0.493,-0.507,-7.874
Low,Open,9,29,19,14,0.34600000000000003,0.446,0.794,15.821,-0.193,-0.493,-0.507,-8.583
Low,Open,9,30,19,14,0.34600000000000003,0.446,0.794,15.821,-0.193,-0.493,-0.507,-9.163
Low,Open,10,11,16,1,0.096,0.121,0.16399999999999998,2.592,-0.364,,,-0.364
Low,Open,10,13,19,3,0.121,0.271,0.34600000000000003,4.904,-0.22899999999999998,-0.364,-0.993,-0.993
Low,Open,10,22,19,12,0.34600000000000003,0.361,0.375,10.126,-0.193,-0.7879999999999999,-1.035,-6.172999999999999
Low,Open,10,23,19,12,0.34600000000000003,0.361,0.375,10.126,-0.193,-0.7879999999999999,-1.035,-6.172999999999999
Low,Open,10,24,19,12,0.34600000000000003,0.361,0.375,10.126,-0.193,-0.7879999999999999,-1.035,-6.172999999999999
Low,Open,10,25,19,12,0.34600000000000003,0.361,0.375,10.126,-0.193,-0.7879999999999999,-1.035,-6.172999999999999
Low,Open,10,26,19,12,0.34600000000000003,0.361,0.375,10.126,-0.193,-0.7879999999999999,-1.035,-6.172999999999999
Low,Open,10,27,19,12,0.34600000000000003,0.361,0.375,10.126,-0.193,-0.7879999999999999,-1.035,-6.172999999999999
Low,Open,10,28,19,12,0.34600000000000003,0.361,0.375,10.126,-0.193,-0.7879999999999999,-1.035,-6.172999999999999
Low,Open,10,29,19,12,0.34600000000000003,0.361,0.375,12.744000000000002,-0.193,-0.7879999999999999,-1.035,-6.172999999999999
Low,Open,10,30,19,12,0.34600000000000003,0.361,0.375,12.744000000000002,-0.193,-0.7879999999999999,-1.035,-6.577999999999999
Low,Open,11,14,19,4,0.24600000000000002,0.34600000000000003,0.361,3.032,-0.446,-1.045,-1.3259999999999998,-2.029
Low,Open,11,15,19,7,0.24600000000000002,0.34600000000000003,0.361,3.3710000000000004,-0.069,-0.273,-0.446,-5.252000000000001
Low,Open,11,16,19,9,0.24600000000000002,0.34600000000000003,0.361,4.744,-0.069,-0.26,-0.273,-5.252000000000001
Low,Open,11,17,19,11,0.24600000000000002,0.34600000000000003,0.361,6.667000000000001,-0.069,-0.177,-0.273,-5.252000000000001
Low,Open,11,18,19,13,0.24600000000000002,0.361,0.54,7.665,-0.069,-0.177,-0.273,-5.252000000000001
Low,Open,11,19,19,13,0.24600000000000002,0.361,0.7829999999999999,7.665,-0.069,-0.177,-0.273,-5.252000000000001
Low,Open,11,20,19,13,0.24600000000000002,0.361,0.7829999999999999,7.665,-0.069,-0.177,-0.273,-5.252000000000001
Low,Open,11,21,19,14,0.24600000000000002,0.361,0.7829999999999999,7.665,-0.069,-0.177,-0.273,-5.888
Low,Open,11,22,19,14,0.24600000000000002,0.361,0.7829999999999999,7.665,-0.069,-0.177,-0.273,-6.172999999999999
Low,Open,11,23,19,14,0.24600000000000002,0.361,0.7829999999999999,7.665,-0.069,-0.177,-0.273,-6.172999999999999
Low,Open,11,24,19,14,0.24600000000000002,0.361,0.7829999999999999,7.665,-0.069,-0.177,-0.273,-6.172999999999999
Low,Open,11,25,19,14,0.24600000000000002,0.361,0.7829999999999999,7.665,-0.069,-0.177,-0.273,-6.172999999999999
Low,Open,11,26,19,14,0.24600000000000002,0.361,0.7829999999999999,7.665,-0.069,-0.177,-0.273,-6.172999999999999
Low,Open,11,27,19,14,0.24600000000000002,0.361,0.7829999999999999,7.921,-0.069,-0.177,-0.273,-6.172999999999999
Low,Open,11,28,19,14,0.24600000000000002,0.361,0.7829999999999999,7.921,-0.069,-0.177,-0.273,-6.172999999999999
Low,Open,11,29,19,14,0.24600000000000002,0.361,0.7829999999999999,10.225,-0.069,-0.177,-0.273,-6.172999999999999
Low,Open,11,30,19,14,0.24600000000000002,0.361,0.7829999999999999,10.225,-0.069,-0.177,-0.273,-6.577999999999999
Low,Open,12,16,19,12,0.086,0.096,0.12300000000000001,3.097,-0.040999999999999995,-0.069,-0.193,-5.252000000000001
Low,Open,12,17,19,12,0.086,0.096,0.12300000000000001,4.989,-0.040999999999999995,-0.069,-0.319,-5.252000000000001
Low,Open,12,18,19,14,0.086,0.12300000000000001,0.33,5.972,-0.040999999999999995,-0.069,-0.332,-5.252000000000001
Low,Open,12,19,19,14,0.086,0.12300000000000001,0.361,5.972,-0.040999999999999995,-0.069,-0.332,-5.252000000000001
Low,Open,12,20,19,15,0.086,0.12300000000000001,0.361,5.972,-0.040999999999999995,-0.069,-0.332,-5.252000000000001
Low,Open,12,21,19,15,0.086,0.12300000000000001,0.361,5.972,-0.040999999999999995,-0.069,-0.386,-5.888
Low,Open,12,22,19,15,0.086,0.12300000000000001,0.361,5.972,-0.040999999999999995,-0.069,-0.386,-6.172999999999999
Low,Open,12,23,19,15,0.086,0.12300000000000001,0.361,5.972,-0.040999999999999995,-0.069,-0.386,-6.172999999999999
Low,Open,12,24,19,15,0.086,0.12300000000000001,0.361,6.002999999999999,-0.040999999999999995,-0.069,-0.386,-6.172999999999999
Low,Open,12,25,19,15,0.086,0.12300000000000001,0.361,6.002999999999999,-0.040999999999999995,-0.069,-0.386,-6.172999999999999
Low,Open,13,16,19,6,0.201,0.5479999999999999,0.701,2.22,-0.069,-0.1,-0.26,-3.477
Low,Open,13,17,19,7,0.201,0.701,0.752,3.6889999999999996,-0.069,-0.1,-0.13699999999999998,-3.477
Low,Open,13,18,19,10,0.58,0.701,0.752,4.66,-0.069,-0.13699999999999998,-0.332,-3.477
Low,Open,13,19,19,11,0.701,0.875,1.024,4.66,-0.069,-0.13699999999999998,-0.332,-3.477
Low,Open,13,20,19,12,0.701,0.93,1.024,4.753,-0.069,-0.13699999999999998,-0.332,-3.477
Low,Open,13,21,19,12,0.701,0.93,1.024,4.753,-0.069,-0.13699999999999998,-0.585,-4.712
Low,Open,13,22,19,12,0.701,0.93,1.024,4.753,-0.069,-0.13699999999999998,-0.585,-5.0
Low,Open,13,23,19,12,0.701,1.024,1.2570000000000001,4.753,-0.069,-0.13699999999999998,-0.585,-5.0
Low,Open,13,24,19,12,0.701,1.024,1.2570000000000001,4.784,-0.069,-0.13699999999999998,-0.585,-5.0
Low,Open,13,25,19,12,0.701,1.024,1.2570000000000001,4.784,-0.069,-0.13699999999999998,-0.585,-5.0
Low,Open,13,26,19,12,0.701,1.024,1.2570000000000001,4.784,-0.069,-0.13699999999999998,-0.585,-5.0
Low,Open,13,27,19,12,0.701,1.024,1.2570000000000001,5.601,-0.069,-0.13699999999999998,-0.594,-5.0
Low,Open,13,28,19,12,0.701,1.024,1.2570000000000001,5.601,-0.069,-0.13699999999999998,-0.594,-5.0
Low,Open,13,29,19,12,0.701,1.024,1.325,7.148,-0.069,-0.13699999999999998,-0.594,-5.0
Low,Open,13,30,19,12,0.701,1.024,1.325,7.148,-0.069,-0.13699999999999998,-0.594,-5.0
Low,Open,14,17,19,6,0.02,0.08,0.22399999999999998,4.515,-0.1,-0.23,-0.319,-1.3219999999999998
Low,Open,14,18,19,9,0.02,0.08,0.413,4.66,-0.081,-0.23,-0.332,-2.151
Low,Open,14,29,19,11,0.413,0.773,0.833,7.148,-0.081,-0.415,-0.594,-3.092
Low,Open,14,30,19,11,0.413,0.773,1.227,7.148,-0.081,-0.594,-1.047,-3.092
Low,Open,15,18,19,5,0.02,0.247,0.647,4.66,-0.081,-0.099,-0.225,-0.763
Low,Open,15,19,19,7,0.142,0.638,0.7040000000000001,4.66,-0.081,-0.099,-0.187,-0.84
Low,Open,15,26,19,9,0.7040000000000001,0.773,1.051,4.66,-0.081,-0.225,-0.361,-3.092
Low,Open,15,27,19,9,0.7040000000000001,0.773,1.051,4.902,-0.081,-0.361,-0.435,-3.092
Low,Open,15,28,19,9,0.7040000000000001,0.773,1.051,4.902,-0.081,-0.361,-0.435,-3.092
Low,Open,15,29,19,10,0.7040000000000001,0.773,1.227,7.148,-0.081,-0.361,-0.402,-3.092
Low,Open,15,30,19,10,0.7040000000000001,0.773,1.227,7.148,-0.081,-0.361,-0.435,-3.092
Low,Open,16,19,19,7,0.142,0.43,0.461,3.7039999999999997,-0.046,-0.081,-0.187,-1.033
Low,Open,16,23,19,9,0.461,0.5770000000000001,0.7040000000000001,4.06,-0.046,-0.081,-0.242,-3.092
Low,Open,16,24,19,9,0.461,0.5770000000000001,0.7040000000000001,4.09,-0.046,-0.081,-0.242,-3.092
Low,Open,16,25,19,9,0.461,0.5770000000000001,0.7040000000000001,4.09,-0.046,-0.081,-0.242,-3.092
Low,Open,16,26,19,9,0.461,0.7040000000000001,0.773,4.09,-0.046,-0.081,-0.242,-3.092
Low,Open,16,27,19,9,0.461,0.7040000000000001,0.773,4.902,-0.046,-0.081,-0.242,-3.092
Low,Open,16,28,19,10,0.461,0.7040000000000001,0.773,4.902,-0.046,-0.069,-0.081,-3.092
Low,Open,16,29,19,10,0.461,0.7040000000000001,0.773,6.169,-0.046,-0.081,-0.242,-3.092
Low,Open,16,30,19,10,0.461,0.7040000000000001,0.773,6.169,-0.046,-0.081,-0.242,-3.092
Low,Open,17,28,19,10,0.29,0.47100000000000003,0.7040000000000001,4.845,-0.095,-0.21899999999999997,-0.302,-3.273
Low,Open,17,29,19,10,0.47100000000000003,0.519,0.7040000000000001,4.845,-0.095,-0.21899999999999997,-0.318,-3.273
Low,Open,17,30,19,10,0.47100000000000003,0.7040000000000001,1.199,4.845,-0.095,-0.318,-0.361,-3.273
Low,Open,18,28,19,12,0.29,0.698,0.755,4.237,-0.158,-0.193,-0.218,-2.145
Low,Open,19,20,17,2,0.05,0.113,0.132,3.188,-0.387,-0.711,,-0.711
Low,Open,20,23,19,3,0.18100000000000002,0.195,0.226,2.198,-0.113,-0.158,-0.40299999999999997,-0.40299999999999997
Low,Open,20,24,19,3,0.18100000000000002,0.226,0.27399999999999997,2.198,-0.113,-0.158,-0.40299999999999997,-0.40299999999999997
Low,Open,20,25,19,3,0.18100000000000002,0.226,0.27399999999999997,2.198,-0.113,-0.158,-0.40299999999999997,-0.40299999999999997
Low,Open,20,26,19,3,0.226,0.42200000000000004,0.46399999999999997,2.707,-0.113,-0.158,-0.40299999999999997,-0.40299999999999997
Low,Low,20,28,19,9,0.213,0.22,0.226,4.2139999999999995,-0.075,-0.11,-0.218,-2.199
Low,Low,20,29,19,9,0.226,0.682,0.733,4.2139999999999995,-0.075,-0.11,-0.218,-4.473
Low,Low,20,30,19,9,0.226,0.682,0.742,4.2139999999999995,-0.11,-0.218,-0.27399999999999997,-4.473
