start_time,end_time,D1,D2,up_times,down_times,min_up_change,sec_up_change,third_up_change,max_up_change,min_down_change,sec_down_change,third_down_change,max_down_change
Open,Low,1,8,9,19,0.008,0.055999999999999994,0.35200000000000004,2.98,-0.196,-0.27399999999999997,-0.758,-2.989
Open,Low,1,9,10,19,0.008,0.055999999999999994,0.505,3.005,-0.196,-0.27399999999999997,-0.758,-2.989
Open,Low,1,10,11,19,0.055999999999999994,0.098,0.223,3.005,-0.196,-0.27399999999999997,-0.758,-2.989
Open,Low,1,11,12,19,0.055999999999999994,0.48700000000000004,0.523,3.58,-0.196,-0.27399999999999997,-0.758,-2.989
Open,Low,1,12,12,19,0.055999999999999994,0.48700000000000004,0.523,3.58,-0.196,-0.27399999999999997,-0.758,-2.989
Open,Low,1,13,12,19,0.055999999999999994,0.48700000000000004,0.624,4.567,-0.196,-0.27399999999999997,-0.758,-2.989
Open,Low,1,14,12,19,0.055999999999999994,0.624,0.716,5.642,-0.196,-0.27399999999999997,-0.758,-2.989
Open,Low,1,15,13,19,0.055999999999999994,0.149,0.624,5.642,-0.196,-0.27399999999999997,-0.758,-2.989
Open,Low,1,16,14,19,0.055999999999999994,0.149,0.5920000000000001,5.642,-0.196,-0.27399999999999997,-0.758,-2.989
Open,Low,1,17,15,19,0.055999999999999994,0.149,0.5920000000000001,6.989,-0.196,-0.27399999999999997,-0.758,-3.657
Open,Low,1,18,16,19,0.055999999999999994,0.149,0.371,6.989,-0.196,-0.27399999999999997,-0.758,-3.657
Open,Low,1,19,16,19,0.055999999999999994,0.149,0.371,6.989,-0.196,-0.27399999999999997,-0.758,-3.657
Open,Low,1,20,16,19,0.055999999999999994,0.149,0.371,6.989,-0.27399999999999997,-0.68,-0.758,-6.649
Open,Low,1,21,16,19,0.055999999999999994,0.149,0.371,6.989,-0.27399999999999997,-0.758,-0.883,-6.649
Open,Low,1,22,16,19,0.055999999999999994,0.149,0.371,6.989,-0.27399999999999997,-0.758,-0.883,-7.425
Open,Low,1,23,16,19,0.055999999999999994,0.149,0.371,7.547999999999999,-0.27399999999999997,-0.883,-0.987,-7.425
Open,Low,1,24,17,19,0.055999999999999994,0.149,0.371,7.547999999999999,-0.27399999999999997,-0.883,-0.987,-8.056000000000001
Open,Low,1,25,17,19,0.055999999999999994,0.149,0.371,7.547999999999999,-0.27399999999999997,-0.883,-1.137,-8.056000000000001
Open,Low,1,26,17,19,0.149,0.371,0.624,7.547999999999999,-0.27399999999999997,-0.883,-1.137,-8.056000000000001
Open,Low,1,27,17,19,0.149,0.371,0.624,7.642,-0.27399999999999997,-0.883,-1.137,-8.056000000000001
Open,Low,1,28,17,19,0.149,0.371,0.624,7.642,-0.27399999999999997,-0.883,-1.137,-8.056000000000001
Open,Low,1,29,17,19,0.149,0.371,0.624,7.642,-0.27399999999999997,-0.883,-1.137,-8.056000000000001
Open,Low,1,30,17,19,0.149,0.371,0.624,7.642,-0.27399999999999997,-0.883,-1.137,-8.056000000000001
Open,Low,7,22,15,19,0.23399999999999999,0.6609999999999999,0.7929999999999999,8.057,-0.03,-0.113,-0.27899999999999997,-6.925
Open,Low,7,23,15,19,0.23399999999999999,0.6609999999999999,0.7929999999999999,8.951,-0.03,-0.113,-0.27899999999999997,-6.925
Open,Low,7,24,16,19,0.23399999999999999,0.6609999999999999,0.7929999999999999,8.951,-0.03,-0.113,-0.27899999999999997,-7.559
Open,Low,7,25,16,19,0.23399999999999999,0.6609999999999999,0.7929999999999999,8.951,-0.03,-0.113,-0.27899999999999997,-7.559
Open,Low,7,26,16,19,0.6609999999999999,0.7929999999999999,1.327,8.951,-0.03,-0.113,-0.27899999999999997,-7.559
Open,Low,8,18,17,19,0.07400000000000001,0.23399999999999999,0.425,6.685,-0.026000000000000002,-0.03,-0.113,-2.861
Open,Low,8,19,17,19,0.07400000000000001,0.23399999999999999,0.425,6.685,-0.026000000000000002,-0.03,-0.113,-3.696
Open,Low,8,20,17,19,0.07400000000000001,0.23399999999999999,0.425,6.685,-0.026000000000000002,-0.03,-0.113,-4.989
Open,Low,8,21,17,19,0.07400000000000001,0.23399999999999999,0.425,6.685,-0.026000000000000002,-0.03,-0.113,-4.989
Open,Low,8,22,17,19,0.07400000000000001,0.23399999999999999,0.425,8.057,-0.026000000000000002,-0.03,-0.113,-5.778
Open,Low,8,23,17,19,0.07400000000000001,0.23399999999999999,0.425,8.951,-0.026000000000000002,-0.03,-0.113,-5.778
Open,Low,8,24,17,19,0.07400000000000001,0.23399999999999999,0.425,8.951,-0.026000000000000002,-0.03,-0.113,-6.42
Open,Low,8,25,17,19,0.07400000000000001,0.23399999999999999,0.425,8.951,-0.026000000000000002,-0.03,-0.113,-6.42
Open,Low,8,26,17,19,0.07400000000000001,0.425,0.804,8.951,-0.026000000000000002,-0.03,-0.113,-6.42
Open,Low,8,27,17,19,0.07400000000000001,0.425,0.804,8.951,-0.026000000000000002,-0.076,-0.113,-6.42
Open,Low,8,28,17,19,0.07400000000000001,0.425,0.804,8.951,-0.026000000000000002,-0.076,-0.113,-6.42
Open,Low,8,29,17,19,0.07400000000000001,0.425,0.9690000000000001,8.992,-0.026000000000000002,-0.076,-0.113,-6.42
Open,Low,8,30,17,19,0.07400000000000001,0.425,0.9690000000000001,8.992,-0.026000000000000002,-0.182,-0.223,-6.42
Open,Low,12,26,14,19,0.147,0.8009999999999999,1.171,6.685,-0.071,-0.15,-0.287,-6.937
Open,Low,12,27,14,19,0.147,0.8009999999999999,1.171,6.685,-0.071,-0.15,-0.287,-6.937
Open,Low,12,28,14,19,0.147,0.8009999999999999,1.171,6.685,-0.071,-0.15,-0.287,-6.937
Open,Low,12,29,15,19,0.147,0.16399999999999998,0.8009999999999999,6.685,-0.071,-0.15,-0.287,-6.937
Open,Low,12,30,15,19,0.147,0.16399999999999998,0.8009999999999999,6.685,-0.071,-0.287,-0.34,-7.401
Open,Low,19,25,11,19,0.11800000000000001,0.18600000000000003,0.209,3.363,-0.071,-0.085,-0.132,-4.582
Open,Low,19,26,11,19,0.11800000000000001,0.18600000000000003,0.342,3.363,-0.071,-0.085,-0.132,-6.329
Open,Low,19,27,11,19,0.18600000000000003,0.342,0.5529999999999999,3.363,-0.071,-0.085,-0.132,-6.329
Open,Low,19,28,12,19,0.12,0.18600000000000003,0.342,3.363,-0.071,-0.085,-0.132,-6.329
Open,Low,19,29,12,19,0.12,0.18600000000000003,0.342,3.9610000000000003,-0.071,-0.085,-0.132,-7.132000000000001
Open,Low,19,30,12,19,0.12,0.18600000000000003,0.342,3.9610000000000003,-0.071,-0.085,-0.132,-7.382000000000001
Open,Close,1,20,16,19,0.371,0.58,0.6559999999999999,6.65,-0.07200000000000001,-0.43,-0.8590000000000001,-5.66
Open,Close,1,21,16,19,0.371,0.58,0.6559999999999999,6.65,-0.07200000000000001,-0.43,-0.8590000000000001,-5.942
Open,Close,1,22,16,19,0.371,0.58,0.6559999999999999,8.237,-0.07200000000000001,-0.43,-0.8590000000000001,-6.9639999999999995
Open,Close,1,23,17,19,0.371,0.58,0.6559999999999999,8.237,-0.07200000000000001,-0.43,-0.987,-6.9639999999999995
Open,Close,1,24,17,19,0.371,0.58,0.6559999999999999,8.237,-0.07200000000000001,-0.43,-0.987,-7.459
Open,Close,1,25,17,19,0.371,0.58,0.6559999999999999,8.237,-0.07200000000000001,-0.43,-1.137,-7.459
Open,Close,1,26,17,19,0.371,0.58,0.6559999999999999,8.237,-0.07200000000000001,-0.43,-1.137,-7.459
Open,Close,1,27,17,19,0.371,0.58,0.6559999999999999,8.237,-0.07200000000000001,-0.43,-1.137,-7.459
Open,Close,1,28,17,19,0.371,0.58,0.6559999999999999,8.237,-0.07200000000000001,-0.43,-1.137,-7.459
Open,Close,1,29,18,19,0.371,0.491,0.58,8.394,-0.07200000000000001,-0.43,-1.137,-7.459
Open,Close,1,30,18,19,0.371,0.491,0.58,8.394,-0.07200000000000001,-0.43,-1.137,-7.459
High,Low,1,23,14,19,0.361,0.371,0.624,6.989,-0.9309999999999999,-0.987,-1.109,-7.425
High,Low,1,24,15,19,0.361,0.371,0.624,6.989,-0.9309999999999999,-0.987,-1.263,-8.056000000000001
High,Low,1,25,15,19,0.361,0.371,0.624,7.176,-0.9309999999999999,-1.263,-1.2790000000000001,-8.056000000000001
High,Low,1,26,16,19,0.361,0.371,0.624,7.176,-0.9309999999999999,-1.2790000000000001,-1.339,-8.056000000000001
High,Low,1,27,16,19,0.361,0.371,0.624,7.642,-0.9309999999999999,-1.2790000000000001,-1.339,-8.056000000000001
High,Low,1,28,16,19,0.361,0.371,0.624,7.642,-0.9309999999999999,-1.2790000000000001,-1.339,-8.056000000000001
High,Low,1,29,16,19,0.361,0.371,0.624,7.642,-0.9309999999999999,-1.2790000000000001,-1.339,-8.056000000000001
High,Low,1,30,16,19,0.361,0.371,0.624,7.642,-0.9309999999999999,-1.2790000000000001,-1.339,-8.056000000000001
High,Low,2,14,11,19,0.162,0.413,0.603,5.642,-0.78,-0.8240000000000001,-1.057,-4.533
High,Low,2,15,11,19,0.162,0.413,0.624,5.642,-0.78,-0.8240000000000001,-1.057,-4.533
High,Low,2,16,11,19,0.162,0.413,0.624,5.642,-0.78,-0.9440000000000001,-1.057,-4.533
High,Low,2,17,12,19,0.162,0.4,0.413,6.989,-0.78,-1.057,-1.109,-4.533
High,Low,2,18,14,19,0.078,0.162,0.371,6.989,-0.78,-1.057,-1.109,-4.533
High,Low,2,19,14,19,0.162,0.371,0.413,6.989,-0.78,-1.057,-1.109,-4.533
High,Low,2,20,15,19,0.162,0.371,0.413,6.989,-0.78,-1.057,-1.109,-6.249
High,Low,2,21,15,19,0.162,0.371,0.413,6.989,-0.78,-1.057,-1.109,-6.249
High,Low,2,22,15,19,0.162,0.371,0.413,6.989,-0.78,-1.057,-1.109,-7.029
High,Low,2,23,15,19,0.162,0.371,0.413,6.989,-0.78,-1.109,-1.2790000000000001,-7.029
High,Low,2,24,16,19,0.162,0.371,0.413,6.989,-0.78,-1.2790000000000001,-1.339,-7.662000000000001
High,Low,2,25,16,19,0.162,0.371,0.413,6.989,-0.78,-1.2790000000000001,-1.339,-7.662000000000001
High,Low,2,26,17,19,0.162,0.371,0.413,6.989,-0.78,-1.2790000000000001,-1.339,-7.662000000000001
High,Low,2,27,17,19,0.162,0.371,0.413,6.989,-0.78,-1.2790000000000001,-1.339,-7.662000000000001
High,Low,2,28,17,19,0.162,0.371,0.413,6.989,-0.78,-1.2790000000000001,-1.339,-7.662000000000001
High,Low,2,29,17,19,0.162,0.371,0.413,6.989,-0.78,-1.2790000000000001,-1.339,-7.662000000000001
High,Low,2,30,17,19,0.162,0.371,0.413,6.989,-0.78,-1.2790000000000001,-1.339,-7.662000000000001
High,Low,7,22,14,19,0.6609999999999999,0.7929999999999999,1.204,6.622000000000001,-0.03,-0.113,-0.38299999999999995,-6.925
High,Low,7,23,14,19,0.6609999999999999,0.7929999999999999,1.204,7.505,-0.03,-0.113,-0.38299999999999995,-6.925
High,Low,7,24,15,19,0.6609999999999999,0.7929999999999999,1.204,7.505,-0.03,-0.113,-0.575,-7.559
High,Low,7,25,15,19,0.6609999999999999,0.7929999999999999,1.204,7.505,-0.03,-0.113,-0.6779999999999999,-7.559
High,Low,7,26,16,19,0.6609999999999999,0.7929999999999999,1.204,7.505,-0.03,-0.113,-0.6779999999999999,-7.559
High,Low,8,18,15,19,0.07400000000000001,0.39899999999999997,0.804,6.685,-0.03,-0.113,-0.281,-3.177
High,Low,8,19,15,19,0.07400000000000001,0.39899999999999997,0.804,6.685,-0.03,-0.113,-0.281,-4.0089999999999995
High,Low,8,20,15,19,0.07400000000000001,0.39899999999999997,0.804,6.685,-0.03,-0.113,-0.281,-5.8629999999999995
High,Low,8,21,15,19,0.07400000000000001,0.39899999999999997,0.804,6.685,-0.03,-0.113,-0.281,-5.8629999999999995
High,Low,8,22,15,19,0.07400000000000001,0.39899999999999997,0.804,6.685,-0.03,-0.113,-0.281,-6.645
High,Low,8,23,15,19,0.07400000000000001,0.39899999999999997,0.804,7.505,-0.03,-0.113,-0.281,-6.645
High,Low,8,24,15,19,0.07400000000000001,0.39899999999999997,0.804,7.505,-0.03,-0.113,-0.281,-7.281000000000001
High,Low,8,25,15,19,0.07400000000000001,0.39899999999999997,0.804,7.505,-0.03,-0.113,-0.281,-7.281000000000001
High,Low,8,26,16,19,0.07400000000000001,0.39899999999999997,0.804,7.505,-0.03,-0.113,-0.281,-7.281000000000001
High,Low,9,18,14,19,0.049,0.188,0.436,6.685,-0.03,-0.113,-0.281,-3.5789999999999997
High,Low,9,19,14,19,0.049,0.188,0.436,6.685,-0.03,-0.113,-0.281,-4.0089999999999995
High,Low,9,20,14,19,0.049,0.188,0.436,6.685,-0.03,-0.113,-0.281,-5.8870000000000005
High,Low,9,21,14,19,0.049,0.188,0.436,6.685,-0.03,-0.113,-0.281,-5.8870000000000005
High,Low,9,22,14,19,0.049,0.188,0.436,6.685,-0.03,-0.113,-0.281,-6.669
High,Low,9,23,14,19,0.049,0.188,0.436,6.685,-0.03,-0.113,-0.281,-6.669
High,Low,9,24,14,19,0.049,0.188,0.436,6.685,-0.03,-0.113,-0.281,-7.305
High,Low,9,25,14,19,0.049,0.188,0.436,6.685,-0.03,-0.113,-0.281,-7.305
High,Low,9,26,15,19,0.049,0.188,0.436,6.685,-0.03,-0.113,-0.281,-7.305
High,Low,11,27,15,19,0.077,0.147,0.188,6.685,-0.045,-0.51,-0.552,-6.937
High,Low,11,28,15,19,0.077,0.147,0.188,6.685,-0.045,-0.51,-0.552,-6.937
High,Low,11,29,15,19,0.077,0.147,0.353,6.685,-0.045,-0.51,-0.552,-6.937
High,Low,11,30,15,19,0.077,0.147,0.353,6.685,-0.151,-0.51,-0.552,-7.497000000000001
High,Low,12,26,14,19,0.14400000000000002,0.147,0.8009999999999999,6.685,-0.15,-0.376,-0.377,-6.937
High,Low,12,27,14,19,0.14400000000000002,0.147,0.8009999999999999,6.685,-0.15,-0.377,-0.39,-6.937
High,Low,12,28,14,19,0.14400000000000002,0.147,0.8009999999999999,6.685,-0.15,-0.377,-0.39,-6.937
High,Low,12,29,15,19,0.14400000000000002,0.147,0.16399999999999998,6.685,-0.15,-0.377,-0.39,-6.937
High,Low,12,30,15,19,0.14400000000000002,0.147,0.16399999999999998,6.685,-0.377,-0.39,-0.733,-8.342
High,Low,13,30,13,19,0.14400000000000002,0.7140000000000001,0.731,5.16,-0.54,-0.735,-0.9329999999999999,-8.342
High,Low,19,25,10,19,0.075,0.18600000000000003,0.27699999999999997,3.363,-0.071,-0.085,-0.18600000000000003,-4.6080000000000005
High,Low,19,26,11,19,0.075,0.18600000000000003,0.27699999999999997,3.363,-0.071,-0.085,-0.18600000000000003,-6.329
High,Low,19,27,11,19,0.18600000000000003,0.27699999999999997,0.51,3.363,-0.071,-0.085,-0.255,-6.329
High,Low,19,28,11,19,0.18600000000000003,0.27699999999999997,0.51,3.363,-0.071,-0.085,-0.255,-6.329
High,Low,19,29,11,19,0.18600000000000003,0.27699999999999997,0.51,3.9610000000000003,-0.071,-0.085,-0.255,-7.132000000000001
High,Low,19,30,11,19,0.18600000000000003,0.27699999999999997,0.51,3.9610000000000003,-0.071,-0.085,-0.255,-7.382000000000001
High,Low,21,26,9,19,0.071,0.179,0.335,3.363,-0.085,-0.163,-0.295,-6.242000000000001
High,Low,21,27,11,19,0.071,0.111,0.335,3.363,-0.085,-0.163,-0.295,-6.242000000000001
High,Low,21,28,11,19,0.071,0.111,0.335,3.363,-0.085,-0.163,-0.46299999999999997,-6.242000000000001
High,Low,21,29,11,19,0.111,0.335,0.376,3.9610000000000003,-0.085,-0.163,-0.46299999999999997,-7.046
High,Low,21,30,11,19,0.111,0.335,0.376,3.9610000000000003,-0.085,-0.46299999999999997,-0.47,-7.382000000000001
High,Low,22,26,8,19,0.071,0.218,0.32299999999999995,3.363,-0.085,-0.163,-0.46299999999999997,-6.242000000000001
High,Low,22,27,10,19,0.031,0.071,0.287,3.363,-0.085,-0.163,-0.46299999999999997,-6.242000000000001
High,Low,22,28,11,19,0.031,0.071,0.11900000000000001,3.363,-0.085,-0.163,-0.46299999999999997,-6.242000000000001
High,Low,22,29,11,19,0.031,0.11900000000000001,0.287,3.9610000000000003,-0.085,-0.163,-0.46299999999999997,-7.046
High,Low,22,30,11,19,0.031,0.11900000000000001,0.287,3.9610000000000003,-0.085,-0.46299999999999997,-0.47,-8.37
High,Close,2,14,15,19,0.131,0.14,0.41100000000000003,5.642,-0.17800000000000002,-0.78,-0.8240000000000001,-4.217
High,Close,2,15,15,19,0.131,0.14,0.41100000000000003,5.642,-0.17800000000000002,-0.78,-0.8240000000000001,-4.217
High,Close,2,16,15,19,0.131,0.14,0.41100000000000003,5.642,-0.17800000000000002,-0.78,-0.9440000000000001,-4.217
High,Close,2,17,16,19,0.14,0.204,0.41100000000000003,5.642,-0.17800000000000002,-0.78,-1.094,-4.217
High,Close,2,18,17,19,0.14,0.371,0.41100000000000003,5.749,-0.17800000000000002,-0.78,-1.094,-4.217
High,Close,2,19,17,19,0.14,0.371,0.41100000000000003,5.749,-0.17800000000000002,-0.78,-1.094,-4.217
High,Close,2,20,18,19,0.14,0.371,0.41100000000000003,5.749,-0.17800000000000002,-0.78,-1.094,-5.256
High,Close,2,21,18,19,0.14,0.371,0.41100000000000003,5.749,-0.17800000000000002,-0.78,-1.158,-5.539
High,Close,2,22,18,19,0.14,0.371,0.41100000000000003,5.749,-0.17800000000000002,-0.78,-1.158,-6.566
High,Close,2,23,19,19,0.14,0.371,0.41100000000000003,5.749,-0.17800000000000002,-0.78,-1.2790000000000001,-6.566
High,Close,2,24,19,19,0.14,0.371,0.41100000000000003,5.749,-0.17800000000000002,-0.78,-1.2790000000000001,-7.063
High,Close,2,25,19,19,0.14,0.371,0.41100000000000003,6.403,-0.17800000000000002,-0.78,-1.2790000000000001,-7.063
High,Close,2,26,19,19,0.14,0.371,0.41100000000000003,6.706,-0.17800000000000002,-0.78,-1.2790000000000001,-7.063
High,Close,2,27,19,19,0.14,0.371,0.41100000000000003,6.706,-0.17800000000000002,-0.78,-1.2790000000000001,-7.063
High,Close,2,28,19,19,0.14,0.371,0.41100000000000003,6.706,-0.17800000000000002,-0.78,-1.2790000000000001,-7.063
High,Close,2,29,19,19,0.14,0.371,0.41100000000000003,7.479,-0.17800000000000002,-0.78,-1.2790000000000001,-7.063
High,Close,2,30,19,19,0.14,0.371,0.41100000000000003,7.479,-0.17800000000000002,-0.78,-1.2790000000000001,-7.063
High,Close,21,25,9,19,0.071,0.084,0.335,3.363,-0.008,-0.07,-0.085,-4.406000000000001
High,Close,21,26,9,19,0.071,0.084,0.335,3.363,-0.008,-0.07,-0.085,-6.242000000000001
High,Close,22,25,8,19,0.071,0.157,0.335,3.363,-0.008,-0.021,-0.07,-5.426
High,Close,22,26,9,19,0.071,0.157,0.32299999999999995,3.363,-0.008,-0.021,-0.07,-6.242000000000001
High,Open,1,22,15,19,0.371,0.488,0.664,7.05,-0.20199999999999999,-0.659,-0.7859999999999999,-6.827999999999999
High,Open,1,23,15,19,0.371,0.488,0.664,7.05,-0.20199999999999999,-0.659,-0.7859999999999999,-6.827999999999999
High,Open,1,24,16,19,0.371,0.488,0.664,7.05,-0.20199999999999999,-0.659,-0.7859999999999999,-8.056000000000001
High,Open,1,25,16,19,0.371,0.488,0.664,7.176,-0.20199999999999999,-0.659,-0.7859999999999999,-8.056000000000001
High,Open,1,26,16,19,0.371,0.488,0.664,7.176,-0.659,-0.7859999999999999,-1.2790000000000001,-8.056000000000001
High,Open,1,27,16,19,0.371,0.488,0.664,7.822,-0.659,-0.7859999999999999,-1.2790000000000001,-8.056000000000001
High,Open,1,28,16,19,0.371,0.488,0.664,7.822,-0.659,-0.7859999999999999,-1.2790000000000001,-8.056000000000001
High,Open,1,29,16,19,0.371,0.488,0.664,7.822,-0.659,-0.7859999999999999,-1.2790000000000001,-8.056000000000001
High,Open,1,30,16,19,0.371,0.488,0.664,7.822,-0.659,-0.7859999999999999,-1.2790000000000001,-8.056000000000001
High,Open,2,14,16,19,0.008,0.14,0.257,5.642,-0.302,-0.72,-0.78,-3.7510000000000003
High,Open,2,15,16,19,0.008,0.14,0.257,5.642,-0.302,-0.72,-0.78,-3.7510000000000003
High,Open,2,16,16,19,0.008,0.14,0.257,5.642,-0.302,-0.72,-0.78,-3.7510000000000003
High,Open,2,17,16,19,0.14,0.257,0.395,6.989,-0.302,-0.78,-1.109,-3.7510000000000003
High,Open,2,18,17,19,0.14,0.257,0.371,6.989,-0.302,-0.78,-1.109,-3.7510000000000003
High,Open,2,19,17,19,0.14,0.257,0.371,6.989,-0.302,-0.78,-1.109,-3.7510000000000003
High,Open,2,20,18,19,0.14,0.257,0.371,6.989,-0.302,-0.78,-1.109,-3.7510000000000003
High,Open,2,21,18,19,0.14,0.257,0.371,6.989,-0.302,-0.78,-1.109,-6.077999999999999
High,Open,2,26,19,19,0.14,0.257,0.371,6.989,-0.78,-1.2790000000000001,-1.331,-7.662000000000001
High,Open,2,27,19,19,0.14,0.257,0.371,6.989,-0.78,-1.2790000000000001,-1.331,-7.662000000000001
High,Open,2,28,19,19,0.14,0.257,0.371,6.989,-0.78,-1.2790000000000001,-1.331,-7.662000000000001
High,Open,2,29,19,19,0.14,0.257,0.371,6.989,-0.78,-1.2790000000000001,-1.331,-7.662000000000001
High,Open,2,30,19,19,0.14,0.257,0.371,6.989,-0.78,-1.2790000000000001,-1.331,-7.662000000000001
High,Open,7,23,16,19,0.22699999999999998,0.6609999999999999,0.667,8.062999999999999,-0.03,-0.113,-0.179,-6.325
High,Open,7,24,17,19,0.22699999999999998,0.6609999999999999,0.667,8.663,-0.03,-0.113,-0.179,-7.559
High,Open,7,25,17,19,0.22699999999999998,0.6609999999999999,0.667,8.663,-0.03,-0.113,-0.179,-7.559
High,Open,7,26,17,19,0.22699999999999998,0.6609999999999999,1.226,8.663,-0.03,-0.113,-0.179,-7.559
High,Open,8,23,17,19,0.07400000000000001,0.43200000000000005,0.667,8.062999999999999,-0.03,-0.113,-0.179,-6.042999999999999
High,Open,8,24,17,19,0.07400000000000001,0.43200000000000005,0.667,8.663,-0.03,-0.113,-0.179,-7.281000000000001
High,Open,8,25,17,19,0.07400000000000001,0.43200000000000005,0.667,8.663,-0.03,-0.113,-0.179,-7.281000000000001
High,Open,8,26,17,19,0.07400000000000001,0.43200000000000005,0.804,8.663,-0.03,-0.113,-0.179,-7.281000000000001
High,Open,9,18,16,19,0.025,0.049,0.188,6.685,-0.03,-0.113,-0.215,-3.2289999999999996
High,Open,9,19,16,19,0.025,0.049,0.188,6.685,-0.03,-0.113,-0.215,-3.2289999999999996
High,Open,9,20,16,19,0.025,0.049,0.188,6.685,-0.03,-0.113,-0.215,-3.2289999999999996
High,Open,9,21,16,19,0.025,0.049,0.188,6.685,-0.03,-0.113,-0.215,-5.715
High,Open,9,22,16,19,0.025,0.049,0.188,6.685,-0.03,-0.113,-0.215,-6.067
High,Open,9,23,16,19,0.025,0.049,0.188,6.685,-0.03,-0.113,-0.215,-6.067
High,Open,9,24,16,19,0.025,0.049,0.188,6.9910000000000005,-0.03,-0.113,-0.215,-7.305
High,Open,9,25,16,19,0.025,0.049,0.188,6.9910000000000005,-0.03,-0.113,-0.215,-7.305
High,Open,9,26,16,19,0.025,0.049,0.188,6.9910000000000005,-0.03,-0.113,-0.215,-7.305
High,Open,11,27,15,19,0.147,0.188,0.7829999999999999,6.685,-0.045,-0.45,-0.51,-6.937
High,Open,11,28,15,19,0.147,0.188,0.7829999999999999,6.685,-0.045,-0.45,-0.51,-6.937
High,Open,11,29,15,19,0.147,0.517,0.7829999999999999,6.685,-0.045,-0.45,-0.51,-6.937
High,Open,12,26,14,19,0.147,0.9129999999999999,1.235,6.685,-0.15,-0.369,-0.376,-6.937
High,Open,12,27,14,19,0.147,0.9129999999999999,1.235,6.685,-0.15,-0.369,-0.39,-6.937
High,Open,12,28,14,19,0.147,0.9129999999999999,1.235,6.685,-0.15,-0.369,-0.39,-6.937
High,Open,12,29,15,19,0.147,0.32799999999999996,0.9129999999999999,6.685,-0.15,-0.369,-0.39,-6.937
High,Open,12,30,15,19,0.147,0.32799999999999996,0.9129999999999999,6.685,-0.15,-0.369,-0.39,-6.937
High,Open,18,26,12,19,0.312,0.38299999999999995,1.125,5.343999999999999,-0.042,-0.16699999999999998,-0.23199999999999998,-4.6080000000000005
High,Open,19,25,10,19,0.075,0.18600000000000003,0.27699999999999997,3.781,-0.042,-0.071,-0.085,-4.6080000000000005
High,Open,19,26,11,19,0.075,0.18600000000000003,0.27699999999999997,3.781,-0.042,-0.071,-0.085,-6.329
High,Open,19,27,12,19,0.063,0.18600000000000003,0.27699999999999997,3.781,-0.071,-0.085,-0.124,-6.329
High,Open,19,28,13,19,0.063,0.18600000000000003,0.27699999999999997,3.781,-0.071,-0.085,-0.124,-6.329
High,Open,19,29,13,19,0.063,0.18600000000000003,0.27699999999999997,3.9330000000000003,-0.071,-0.085,-0.124,-6.607
High,Open,19,30,13,19,0.063,0.18600000000000003,0.27699999999999997,3.9330000000000003,-0.071,-0.085,-0.124,-6.916
High,Open,21,29,14,19,0.084,0.127,0.335,3.9330000000000003,-0.085,-0.163,-0.342,-6.52
High,Open,21,30,15,19,0.07,0.084,0.127,3.9330000000000003,-0.085,-0.163,-0.342,-6.829
High,Open,22,26,11,19,0.071,0.126,0.218,3.363,-0.085,-0.163,-0.342,-6.242000000000001
High,Open,22,27,12,19,0.071,0.22,0.287,3.363,-0.085,-0.163,-0.342,-6.242000000000001
High,Open,22,28,14,19,0.071,0.1,0.22,3.363,-0.085,-0.163,-0.342,-6.242000000000001
High,Open,22,29,14,19,0.22,0.287,0.335,3.9330000000000003,-0.085,-0.163,-0.342,-6.52
High,Open,22,30,15,19,0.07,0.22,0.287,3.9330000000000003,-0.085,-0.163,-0.342,-6.829
Close,Low,1,13,13,19,0.05,0.147,0.605,5.97,-0.016,-0.155,-0.20199999999999999,-3.762
Close,Low,1,14,13,19,0.05,0.147,0.7390000000000001,6.834,-0.016,-0.155,-0.20199999999999999,-3.762
Close,Low,1,15,14,19,0.05,0.147,0.149,6.834,-0.016,-0.155,-0.20199999999999999,-3.762
Close,Low,1,16,14,19,0.05,0.147,0.149,6.834,-0.13699999999999998,-0.155,-0.20199999999999999,-3.762
Close,Low,1,17,14,19,0.05,0.149,0.7390000000000001,7.62,-0.155,-0.20199999999999999,-0.526,-3.762
Close,Low,1,18,15,19,0.05,0.149,0.371,7.62,-0.155,-0.20199999999999999,-0.526,-3.762
Close,Low,1,19,15,19,0.05,0.149,0.371,7.62,-0.155,-0.20199999999999999,-0.526,-3.762
Close,Low,1,20,16,19,0.05,0.149,0.371,7.62,-0.155,-0.20199999999999999,-0.526,-6.322
Close,Low,1,21,16,19,0.05,0.149,0.371,7.62,-0.155,-0.20199999999999999,-0.526,-6.322
Close,Low,1,22,16,19,0.05,0.149,0.371,7.62,-0.155,-0.20199999999999999,-0.526,-7.1
Close,Low,1,23,16,19,0.05,0.149,0.371,7.62,-0.155,-0.20199999999999999,-0.526,-7.1
Close,Low,1,24,17,19,0.05,0.149,0.371,7.62,-0.155,-0.20199999999999999,-0.9670000000000001,-7.733
Close,Low,1,25,17,19,0.05,0.149,0.371,8.615,-0.155,-0.20199999999999999,-0.9670000000000001,-7.733
Close,Low,1,26,17,19,0.149,0.371,0.7390000000000001,8.615,-0.155,-0.20199999999999999,-0.9670000000000001,-7.733
Close,Low,1,27,17,19,0.149,0.371,0.7390000000000001,9.087,-0.155,-0.20199999999999999,-0.9670000000000001,-7.733
Close,Low,1,28,17,19,0.149,0.371,0.7390000000000001,9.087,-0.155,-0.20199999999999999,-0.9670000000000001,-7.733
Close,Low,1,29,17,19,0.149,0.371,0.7390000000000001,9.087,-0.155,-0.20199999999999999,-0.9670000000000001,-7.733
Close,Low,1,30,17,19,0.149,0.371,0.7390000000000001,9.087,-0.155,-0.20199999999999999,-0.9670000000000001,-7.733
Close,Low,2,14,15,19,0.027999999999999997,0.05,0.147,6.265,-0.016,-0.526,-0.607,-3.112
Close,Low,2,15,16,19,0.027999999999999997,0.05,0.057999999999999996,6.265,-0.016,-0.526,-0.607,-3.112
Close,Low,2,16,17,19,0.027999999999999997,0.05,0.057999999999999996,6.265,-0.13699999999999998,-0.526,-0.607,-3.112
Close,Low,2,17,17,19,0.027999999999999997,0.05,0.057999999999999996,7.62,-0.526,-0.607,-0.78,-3.112
Close,Low,2,18,18,19,0.027999999999999997,0.05,0.057999999999999996,7.62,-0.526,-0.607,-0.78,-3.112
Close,Low,2,19,18,19,0.027999999999999997,0.05,0.057999999999999996,7.62,-0.526,-0.607,-0.78,-3.112
Close,Low,2,20,18,19,0.027999999999999997,0.05,0.057999999999999996,7.62,-0.526,-0.607,-0.78,-5.837999999999999
Close,Low,2,21,18,19,0.027999999999999997,0.05,0.057999999999999996,7.62,-0.526,-0.607,-0.78,-5.837999999999999
Close,Low,2,22,18,19,0.027999999999999997,0.05,0.057999999999999996,7.62,-0.526,-0.607,-0.78,-6.621
Close,Low,2,23,18,19,0.027999999999999997,0.05,0.057999999999999996,7.62,-0.526,-0.607,-0.78,-6.621
Close,Low,2,24,18,19,0.05,0.057999999999999996,0.192,7.62,-0.607,-0.78,-0.9670000000000001,-7.257000000000001
Close,Low,2,25,18,19,0.05,0.057999999999999996,0.192,7.62,-0.78,-0.9590000000000001,-0.9670000000000001,-7.257000000000001
Close,Low,2,26,18,19,0.057999999999999996,0.192,0.371,7.62,-0.78,-0.9670000000000001,-1.234,-7.257000000000001
Close,Low,2,27,18,19,0.057999999999999996,0.192,0.371,7.62,-0.78,-0.9670000000000001,-1.234,-7.257000000000001
Close,Low,2,28,18,19,0.057999999999999996,0.192,0.371,7.62,-0.78,-0.9670000000000001,-1.234,-7.257000000000001
Close,Low,2,29,18,19,0.057999999999999996,0.192,0.371,7.62,-0.78,-0.9670000000000001,-1.234,-7.257000000000001
Close,Low,2,30,18,19,0.057999999999999996,0.192,0.371,7.62,-0.78,-0.9670000000000001,-1.234,-7.257000000000001
Close,Low,8,24,15,19,0.07400000000000001,0.804,1.0290000000000001,8.172,-0.03,-0.113,-0.192,-7.281000000000001
Close,Low,8,25,15,19,0.07400000000000001,0.804,1.0290000000000001,8.172,-0.03,-0.113,-0.281,-7.281000000000001
Close,Low,8,26,16,19,0.07400000000000001,0.804,1.0290000000000001,8.172,-0.03,-0.113,-0.281,-7.281000000000001
Close,Low,9,24,14,19,0.147,0.188,0.937,8.172,-0.03,-0.113,-0.281,-6.937
Close,Low,9,25,14,19,0.147,0.188,0.937,8.172,-0.03,-0.113,-0.281,-6.937
Close,Low,9,26,15,19,0.147,0.188,0.937,8.172,-0.03,-0.113,-0.281,-6.937
Close,Low,10,30,14,19,0.353,0.8009999999999999,1.064,8.172,-0.22399999999999998,-0.281,-0.41100000000000003,-6.832999999999999
Close,Low,12,26,15,19,0.195,0.33899999999999997,0.36,4.314,-0.15,-0.271,-0.376,-6.631
Close,Low,12,27,15,19,0.195,0.33899999999999997,0.36,4.314,-0.15,-0.271,-0.376,-6.631
Close,Low,12,28,15,19,0.195,0.33899999999999997,0.36,4.314,-0.15,-0.271,-0.376,-6.631
Close,Low,12,29,16,19,0.16399999999999998,0.195,0.33899999999999997,4.918,-0.15,-0.271,-0.376,-6.631
Close,Low,13,26,15,19,0.33899999999999997,0.36,0.425,4.314,-0.12300000000000001,-0.337,-0.48200000000000004,-6.631
Close,Low,13,27,15,19,0.33899999999999997,0.36,0.425,4.314,-0.12300000000000001,-0.337,-0.48200000000000004,-6.631
Close,Low,13,28,15,19,0.33899999999999997,0.36,0.425,4.314,-0.12300000000000001,-0.337,-0.48200000000000004,-6.631
Close,Low,13,29,15,19,0.33899999999999997,0.36,0.731,4.918,-0.12300000000000001,-0.337,-0.48200000000000004,-6.631
Close,Low,13,30,15,19,0.33899999999999997,0.36,0.731,4.918,-0.12300000000000001,-0.48200000000000004,-0.8490000000000001,-8.163
Close,Low,16,26,15,19,0.493,0.539,0.877,5.712999999999999,-0.19,-0.235,-0.262,-5.825
Close,Low,16,27,15,19,0.539,0.877,0.93,5.712999999999999,-0.19,-0.235,-0.262,-5.825
Close,Low,16,28,16,19,0.128,0.539,0.877,5.712999999999999,-0.19,-0.235,-0.262,-5.825
Close,Low,16,29,16,19,0.128,0.539,0.877,6.325,-0.19,-0.235,-0.262,-5.825
Close,Low,16,30,16,19,0.128,0.539,0.877,6.325,-0.19,-0.235,-0.29100000000000004,-7.122000000000001
Close,Low,17,27,16,19,0.247,0.267,0.309,5.375,-0.19,-0.235,-0.32,-5.825
Close,Low,17,28,17,19,0.128,0.247,0.267,5.375,-0.19,-0.235,-0.32,-5.825
Close,Low,17,29,17,19,0.128,0.247,0.267,5.985,-0.19,-0.235,-0.32,-5.825
Close,Low,17,30,17,19,0.128,0.247,0.267,5.985,-0.19,-0.235,-0.32,-7.907
Close,Low,18,26,15,19,0.13699999999999998,0.247,0.253,4.4639999999999995,-0.038,-0.14400000000000002,-0.19,-4.29
Close,Low,18,27,15,19,0.13699999999999998,0.247,0.41600000000000004,4.4639999999999995,-0.038,-0.19,-0.285,-4.29
Close,Low,18,28,16,19,0.128,0.13699999999999998,0.247,4.4639999999999995,-0.038,-0.19,-0.395,-4.586
Close,Low,18,29,16,19,0.128,0.13699999999999998,0.247,5.069,-0.038,-0.19,-0.395,-5.11
Close,Low,18,30,16,19,0.128,0.13699999999999998,0.247,5.069,-0.038,-0.19,-0.395,-6.685
Close,Low,20,24,10,19,0.044000000000000004,0.121,0.243,2.2230000000000003,-0.085,-0.285,-0.408,-4.382
Close,Low,20,25,13,19,0.044000000000000004,0.051,0.121,3.363,-0.085,-0.285,-0.455,-4.382
Close,Low,20,26,13,19,0.044000000000000004,0.121,0.155,3.363,-0.085,-0.285,-0.455,-6.242000000000001
Close,Low,20,27,13,19,0.044000000000000004,0.155,0.243,3.363,-0.085,-0.285,-0.455,-6.242000000000001
Close,Low,20,28,13,19,0.044000000000000004,0.155,0.243,3.363,-0.085,-0.455,-0.474,-6.242000000000001
Close,Low,20,29,13,19,0.044000000000000004,0.155,0.243,3.9610000000000003,-0.085,-0.455,-0.474,-7.046
Close,Low,20,30,13,19,0.044000000000000004,0.155,0.243,3.9610000000000003,-0.085,-0.455,-0.474,-7.247000000000001
Close,Open,2,17,18,19,0.027999999999999997,0.489,0.541,7.62,-0.526,-0.575,-0.5770000000000001,-2.6460000000000004
Close,Open,2,18,19,19,0.027999999999999997,0.371,0.489,7.62,-0.526,-0.575,-0.5770000000000001,-2.6460000000000004
Close,Open,2,19,19,19,0.027999999999999997,0.371,0.489,7.62,-0.526,-0.575,-0.5770000000000001,-2.6460000000000004
Close,Open,2,20,19,19,0.027999999999999997,0.371,0.489,7.62,-0.526,-0.575,-0.5770000000000001,-2.803
Close,Open,2,21,19,19,0.027999999999999997,0.371,0.489,7.62,-0.526,-0.575,-0.5770000000000001,-5.666
Close,Open,2,22,19,19,0.027999999999999997,0.371,0.489,7.62,-0.526,-0.575,-0.778,-6.019
Close,Open,2,23,19,19,0.027999999999999997,0.371,0.489,7.62,-0.526,-0.575,-0.778,-6.019
Close,Open,2,24,19,19,0.371,0.489,0.541,7.928999999999999,-0.575,-0.778,-0.78,-7.257000000000001
Close,Open,2,25,19,19,0.371,0.489,0.541,7.928999999999999,-0.778,-0.78,-0.9590000000000001,-7.257000000000001
Close,Open,2,26,19,19,0.371,0.489,0.541,7.928999999999999,-0.78,-0.9590000000000001,-0.961,-7.257000000000001
Close,Open,2,27,19,19,0.371,0.489,0.541,7.928999999999999,-0.78,-0.9590000000000001,-0.961,-7.257000000000001
Close,Open,2,28,19,19,0.371,0.489,0.541,7.928999999999999,-0.78,-0.9590000000000001,-0.961,-7.257000000000001
Close,Open,2,29,19,19,0.371,0.489,0.541,7.928999999999999,-0.78,-0.9590000000000001,-0.961,-7.257000000000001
Close,Open,2,30,19,19,0.371,0.489,0.541,7.928999999999999,-0.78,-0.9590000000000001,-0.961,-7.257000000000001
Close,Open,8,24,18,19,0.008,0.07400000000000001,0.667,8.689,-0.03,-0.113,-0.179,-7.281000000000001
Close,Open,8,25,18,19,0.008,0.07400000000000001,0.667,8.689,-0.03,-0.113,-0.179,-7.281000000000001
Close,Open,8,26,18,19,0.008,0.07400000000000001,0.804,8.689,-0.03,-0.113,-0.179,-7.281000000000001
Close,Open,9,24,19,19,0.008,0.095,0.147,8.172,-0.03,-0.039,-0.113,-6.937
Close,Open,9,25,19,19,0.008,0.095,0.147,8.172,-0.03,-0.039,-0.113,-6.937
Close,Open,9,26,19,19,0.008,0.095,0.147,8.172,-0.03,-0.039,-0.113,-6.937
Close,Open,13,26,17,19,0.32899999999999996,0.41100000000000003,0.425,4.5489999999999995,-0.115,-0.337,-0.48200000000000004,-6.631
Close,Open,13,27,17,19,0.32899999999999996,0.41100000000000003,0.425,4.5489999999999995,-0.115,-0.337,-0.48200000000000004,-6.631
Close,Open,13,28,17,19,0.32899999999999996,0.41100000000000003,0.425,4.5489999999999995,-0.115,-0.337,-0.48200000000000004,-6.631
Close,Open,13,29,17,19,0.32899999999999996,0.41100000000000003,0.8959999999999999,4.888999999999999,-0.115,-0.337,-0.48200000000000004,-6.631
Close,Open,13,30,17,19,0.32899999999999996,0.41100000000000003,0.8959999999999999,4.888999999999999,-0.115,-0.337,-0.48200000000000004,-6.631
Close,Open,16,29,18,19,0.21,0.37200000000000005,0.631,6.296,-0.19,-0.235,-0.262,-5.825
Close,Open,16,30,18,19,0.21,0.37200000000000005,0.631,6.296,-0.19,-0.235,-0.262,-5.825
Close,Open,17,27,19,19,0.196,0.247,0.309,5.375,-0.032,-0.19,-0.203,-5.825
Close,Open,17,28,19,19,0.247,0.309,0.456,5.375,-0.032,-0.19,-0.203,-5.825
Close,Open,17,29,19,19,0.247,0.309,0.456,5.956,-0.19,-0.203,-0.235,-5.825
Close,Open,17,30,19,19,0.247,0.309,0.456,5.956,-0.19,-0.203,-0.235,-5.825
Close,Open,20,29,15,19,0.044000000000000004,0.155,0.336,3.9330000000000003,-0.085,-0.455,-0.474,-6.52
Close,Open,20,30,16,19,0.044000000000000004,0.07,0.155,3.9330000000000003,-0.085,-0.455,-0.474,-6.829
