start_time,end_time,D1,D2,up_times,down_times,min_up_change,sec_up_change,third_up_change,max_up_change,min_down_change,sec_down_change,third_down_change,max_down_change
High,Low,29,30,0,15,,,,,-0.255,-0.58,-0.613,-6.9639999999999995
Close,Low,28,30,2,19,0.048,2.085,,2.085,-0.15,-0.203,-0.255,-3.738
