start_time,end_time,D1,D2,up_times,down_times,min_up_change,sec_up_change,third_up_change,max_up_change,min_down_change,sec_down_change,third_down_change,max_down_change
Open,Open,12,27,12,19,0.19699999999999998,0.8009999999999999,1.318,7.149,-0.038,-0.134,-0.33799999999999997,-13.665999999999999
Open,Open,12,28,13,19,0.19699999999999998,0.8009999999999999,0.835,9.124,-0.038,-0.134,-0.33799999999999997,-13.665999999999999
Open,Open,12,29,15,19,0.19699999999999998,0.257,0.579,9.124,-0.038,-0.134,-0.33799999999999997,-13.665999999999999
Open,Open,12,30,15,19,0.19699999999999998,0.257,0.579,9.124,-0.038,-0.134,-0.33799999999999997,-13.665999999999999
Open,Low,12,18,9,19,0.12300000000000001,0.154,0.6970000000000001,2.8960000000000004,-0.235,-0.423,-0.5760000000000001,-15.235999999999999
Open,Low,12,19,9,19,0.12300000000000001,0.6970000000000001,0.725,3.884,-0.235,-0.423,-0.5760000000000001,-15.235999999999999
Open,Low,12,20,10,19,0.12300000000000001,0.6970000000000001,0.725,3.884,-0.235,-0.423,-0.5760000000000001,-15.235999999999999
Open,Low,12,21,10,19,0.6970000000000001,0.725,0.7290000000000001,3.884,-0.235,-0.423,-0.5760000000000001,-15.235999999999999
Open,Low,12,22,10,19,0.6970000000000001,0.725,0.7290000000000001,3.884,-0.235,-0.423,-0.5760000000000001,-15.235999999999999
Open,Low,12,23,10,19,0.6970000000000001,0.7290000000000001,1.1440000000000001,3.884,-0.235,-0.423,-0.5760000000000001,-15.235999999999999
Open,Low,13,26,12,19,0.008,0.026000000000000002,0.569,6.454,-0.158,-0.384,-0.754,-10.499
Open,Low,13,27,12,19,0.008,0.026000000000000002,0.569,6.706,-0.158,-0.384,-0.754,-10.499
Open,Low,13,28,12,19,0.008,0.569,1.055,9.271,-0.158,-0.384,-0.754,-10.499
Open,Low,13,29,13,19,0.008,0.569,0.852,9.271,-0.158,-0.384,-0.754,-10.499
Open,Low,13,30,13,19,0.008,0.569,0.852,9.271,-0.158,-0.384,-0.754,-10.499
Open,Low,22,28,15,19,0.008,0.05,0.152,3.17,-0.011000000000000001,-0.071,-0.185,-4.617
Open,Low,22,29,15,19,0.152,0.23399999999999999,0.3,3.945,-0.011000000000000001,-0.071,-0.185,-5.54
Open,Low,22,30,15,19,0.152,0.23399999999999999,0.35700000000000004,3.945,-0.071,-0.185,-0.204,-6.257000000000001
High,Low,1,2,0,17,,,,,-0.823,-0.825,-0.88,-5.218999999999999
High,Low,2,4,2,18,0.048,0.078,,0.078,-0.597,-0.703,-0.716,-4.192
High,Low,2,5,3,19,0.048,0.078,0.902,0.902,-0.597,-0.716,-0.7509999999999999,-4.192
High,Low,2,6,5,19,0.048,0.078,0.348,0.902,-0.597,-0.716,-0.7509999999999999,-7.007999999999999
High,Low,2,7,9,19,0.047,0.048,0.078,1.028,-0.597,-0.716,-0.7509999999999999,-7.007999999999999
High,Low,2,8,11,19,0.047,0.048,0.07,1.2790000000000001,-0.597,-0.716,-0.7509999999999999,-7.007999999999999
High,Low,2,9,11,19,0.047,0.048,0.078,1.518,-0.597,-0.716,-0.7509999999999999,-7.007999999999999
High,Low,2,10,11,19,0.047,0.048,0.078,1.754,-0.597,-0.716,-0.7509999999999999,-7.007999999999999
High,Low,2,11,12,19,0.047,0.078,0.168,1.754,-0.597,-0.716,-0.7509999999999999,-7.007999999999999
High,Low,2,12,12,19,0.047,0.348,0.465,2.569,-0.597,-0.716,-0.7509999999999999,-7.638
High,Low,2,13,12,19,0.281,0.348,0.465,2.569,-0.597,-0.716,-0.7509999999999999,-7.638
High,Low,2,14,12,19,0.281,0.348,0.465,2.569,-0.597,-0.716,-0.7509999999999999,-7.638
High,Low,2,15,12,19,0.281,0.348,0.465,2.569,-0.597,-0.716,-0.7509999999999999,-16.511
High,Low,2,16,12,19,0.281,0.348,0.821,2.945,-0.597,-0.716,-0.7509999999999999,-17.447
High,Low,2,17,12,19,0.281,0.348,0.821,3.552,-0.597,-0.716,-0.7509999999999999,-17.447
High,Low,2,18,12,19,0.281,0.348,0.821,3.818,-0.597,-0.716,-0.7509999999999999,-17.447
High,Low,2,19,12,19,0.281,0.348,0.821,4.814,-0.597,-0.716,-0.7509999999999999,-17.447
High,Low,2,20,12,19,0.348,0.821,1.431,4.814,-0.597,-0.716,-0.7509999999999999,-17.447
High,Low,2,21,12,19,0.348,0.821,1.431,4.814,-0.597,-0.716,-0.7509999999999999,-17.447
High,Low,2,22,12,19,0.348,0.821,1.689,4.814,-0.597,-0.716,-0.7509999999999999,-17.447
High,Low,2,23,12,19,0.348,0.821,1.689,4.814,-0.597,-0.716,-0.7509999999999999,-17.447
High,Low,2,24,12,19,0.348,0.821,1.689,4.814,-0.597,-0.716,-0.7509999999999999,-17.447
High,Low,2,25,12,19,0.348,0.821,1.689,4.831,-0.597,-0.716,-0.7509999999999999,-17.447
High,Low,2,26,12,19,0.348,0.821,1.879,7.263999999999999,-0.597,-0.716,-0.7509999999999999,-17.447
High,Low,2,27,12,19,0.348,0.821,1.879,7.517,-0.597,-0.716,-0.7509999999999999,-17.447
High,Low,2,28,12,19,0.348,0.821,2.009,10.101,-0.597,-0.716,-0.7509999999999999,-17.447
High,Low,2,29,13,19,0.348,0.821,1.4340000000000002,10.101,-0.597,-0.716,-0.7509999999999999,-17.447
High,Low,2,30,14,19,0.348,0.387,0.821,10.101,-0.597,-0.716,-0.7509999999999999,-17.447
High,Low,3,4,1,16,0.048,,,0.048,-0.597,-0.703,-0.716,-4.001
High,Low,3,5,2,18,0.048,0.629,,0.629,-0.597,-0.716,-0.7509999999999999,-4.001
High,Low,3,6,3,19,0.048,0.629,0.8959999999999999,0.8959999999999999,-0.597,-0.716,-0.7509999999999999,-4.965
High,Low,3,7,7,19,0.047,0.048,0.188,1.028,-0.597,-0.716,-0.7509999999999999,-4.965
High,Low,3,8,8,19,0.047,0.048,0.24,1.2790000000000001,-0.597,-0.716,-0.7509999999999999,-4.965
High,Low,3,9,9,19,0.047,0.048,0.418,1.518,-0.597,-0.716,-0.7509999999999999,-4.965
High,Low,3,10,9,19,0.047,0.048,0.65,1.642,-0.597,-0.716,-0.7509999999999999,-4.965
High,Low,3,11,10,19,0.047,0.168,0.507,1.7630000000000001,-0.597,-0.716,-0.7509999999999999,-4.965
High,Low,3,12,11,19,0.047,0.155,0.65,2.569,-0.597,-0.716,-0.7509999999999999,-6.103
High,Low,3,13,11,19,0.155,0.281,0.65,2.569,-0.597,-0.716,-0.7509999999999999,-6.103
High,Low,3,14,11,19,0.155,0.281,0.65,2.569,-0.597,-0.716,-0.7509999999999999,-6.103
High,Low,3,15,11,19,0.155,0.281,0.65,2.569,-0.597,-0.716,-0.7509999999999999,-15.123
High,Low,3,16,11,19,0.281,0.65,0.657,2.667,-0.597,-0.716,-0.7509999999999999,-16.075
High,Low,3,17,11,19,0.281,0.65,0.735,3.438,-0.597,-0.716,-0.7509999999999999,-16.075
High,Low,3,18,12,19,0.149,0.281,0.65,3.818,-0.597,-0.716,-0.7509999999999999,-16.075
High,Low,3,19,12,19,0.149,0.281,0.65,4.814,-0.597,-0.716,-0.7509999999999999,-16.075
High,Low,3,20,12,19,0.149,0.65,1.431,4.814,-0.597,-0.716,-0.7509999999999999,-16.075
High,Low,3,21,12,19,0.149,0.65,1.431,4.814,-0.597,-0.716,-0.7509999999999999,-16.075
High,Low,3,22,13,19,0.149,0.65,1.062,4.814,-0.597,-0.716,-0.7509999999999999,-16.075
High,Low,3,23,13,19,0.149,0.65,1.062,4.814,-0.597,-0.716,-0.7509999999999999,-16.075
High,Low,3,24,13,19,0.149,0.65,1.062,4.814,-0.597,-0.716,-0.7509999999999999,-16.075
High,Low,3,25,13,19,0.149,0.65,1.092,4.831,-0.597,-0.716,-0.7509999999999999,-16.075
High,Low,3,26,14,19,0.149,0.163,0.65,7.263999999999999,-0.597,-0.716,-0.7509999999999999,-16.075
High,Low,3,27,14,19,0.149,0.163,0.65,7.517,-0.597,-0.716,-0.7509999999999999,-16.075
High,Low,3,28,14,19,0.149,0.163,0.65,10.101,-0.597,-0.716,-0.7509999999999999,-16.075
High,Low,3,29,14,19,0.149,0.65,1.456,10.101,-0.597,-0.716,-0.7509999999999999,-16.075
High,Low,3,30,14,19,0.149,0.65,1.699,10.101,-0.597,-0.716,-0.7509999999999999,-16.075
High,Low,4,5,0,17,,,,,-0.597,-0.716,-0.768,-2.1069999999999998
High,Low,4,6,1,19,0.8959999999999999,,,0.8959999999999999,-0.597,-0.716,-0.768,-3.341
High,Low,4,7,3,19,0.047,0.188,1.028,1.028,-0.597,-0.716,-0.8440000000000001,-3.341
High,Low,4,8,5,19,0.047,0.674,0.794,1.2790000000000001,-0.597,-0.716,-0.8440000000000001,-3.341
High,Low,4,9,6,19,0.047,0.456,0.794,1.518,-0.597,-0.716,-0.8440000000000001,-3.341
High,Low,4,10,8,19,0.047,0.39,0.6890000000000001,1.518,-0.597,-0.716,-0.8440000000000001,-3.341
High,Low,4,11,10,19,0.047,0.46799999999999997,0.6890000000000001,1.571,-0.597,-0.716,-0.8440000000000001,-3.341
High,Low,4,12,11,19,0.047,0.46799999999999997,0.6890000000000001,2.569,-0.597,-0.716,-0.8440000000000001,-4.9510000000000005
High,Low,4,13,12,19,0.281,0.46799999999999997,0.6890000000000001,2.569,-0.597,-0.716,-0.8440000000000001,-4.9510000000000005
High,Low,4,14,12,19,0.281,0.46799999999999997,0.6890000000000001,2.569,-0.597,-0.716,-0.8440000000000001,-5.361000000000001
High,Low,4,15,12,19,0.281,0.46799999999999997,0.6890000000000001,2.569,-0.597,-0.716,-0.8440000000000001,-14.082
High,Low,4,16,12,19,0.281,0.46799999999999997,0.6890000000000001,2.569,-0.597,-0.716,-0.8440000000000001,-15.045
High,Low,4,17,13,19,0.154,0.281,0.46799999999999997,2.6010000000000004,-0.597,-0.716,-0.8440000000000001,-15.045
High,Low,4,18,14,19,0.154,0.281,0.33,4.081,-0.597,-0.716,-0.8440000000000001,-15.045
High,Low,4,19,15,19,0.154,0.281,0.33,5.08,-0.597,-0.716,-0.8440000000000001,-15.045
High,Low,4,20,15,19,0.154,0.33,0.46799999999999997,5.08,-0.597,-0.716,-0.8440000000000001,-15.045
High,Low,4,21,15,19,0.33,0.46799999999999997,0.6890000000000001,5.08,-0.597,-0.716,-0.8440000000000001,-15.045
High,Low,4,22,15,19,0.33,0.46799999999999997,0.6890000000000001,5.08,-0.597,-0.716,-0.8440000000000001,-15.045
High,Low,4,23,15,19,0.33,0.46799999999999997,0.6890000000000001,5.08,-0.597,-0.716,-0.8440000000000001,-15.045
High,Low,4,24,16,19,0.46799999999999997,0.562,0.6890000000000001,5.08,-0.597,-0.716,-0.8440000000000001,-15.045
High,Low,4,25,16,19,0.46799999999999997,0.6890000000000001,0.816,5.0969999999999995,-0.597,-0.716,-0.8440000000000001,-15.045
High,Low,4,26,16,19,0.6859999999999999,0.6890000000000001,0.816,7.5360000000000005,-0.597,-0.716,-0.8440000000000001,-15.045
High,Low,4,27,16,19,0.6859999999999999,0.6890000000000001,0.816,7.79,-0.597,-0.716,-0.8440000000000001,-15.045
High,Low,4,28,16,19,0.6859999999999999,0.6890000000000001,0.816,10.380999999999998,-0.597,-0.716,-0.8440000000000001,-15.045
High,Low,4,29,16,19,0.6859999999999999,0.6890000000000001,0.816,10.380999999999998,-0.597,-0.716,-0.8440000000000001,-15.045
High,Low,4,30,16,19,0.6859999999999999,0.6890000000000001,0.816,10.380999999999998,-0.597,-0.716,-0.8440000000000001,-15.045
High,Low,5,14,12,19,0.14400000000000002,0.278,0.47,2.119,-0.47,-0.59,-0.65,-6.352
High,Low,6,8,2,17,0.13,0.483,,0.483,-0.59,-0.634,-0.6759999999999999,-3.341
High,Low,6,9,2,19,0.13,1.054,,1.054,-0.59,-0.601,-0.634,-3.341
High,Low,6,10,4,19,0.13,0.278,0.552,1.054,-0.59,-0.62,-0.7040000000000001,-3.341
High,Low,6,11,6,19,0.278,0.504,0.5329999999999999,1.054,-0.59,-0.62,-0.7040000000000001,-3.341
High,Low,6,12,8,19,0.278,0.285,0.504,1.8940000000000001,-0.59,-0.62,-0.8420000000000001,-6.186
High,Low,6,13,9,19,0.278,0.285,0.39899999999999997,1.9480000000000002,-0.59,-0.62,-0.8420000000000001,-6.186
High,Low,6,14,9,19,0.278,0.285,0.39899999999999997,1.9480000000000002,-0.59,-0.62,-0.851,-6.186
High,Low,7,8,0,15,,,,,-0.588,-0.59,-0.634,-2.1390000000000002
High,Low,7,9,0,19,,,,,-0.588,-0.59,-0.601,-2.491
High,Low,7,10,2,19,0.278,0.552,,0.552,-0.588,-0.59,-0.62,-2.491
High,Low,7,11,4,19,0.19399999999999998,0.278,0.504,0.943,-0.588,-0.59,-0.62,-2.491
High,Low,7,12,7,19,0.139,0.19399999999999998,0.22899999999999998,0.943,-0.59,-0.62,-0.785,-6.186
High,Low,7,13,8,19,0.139,0.19399999999999998,0.278,1.016,-0.59,-0.62,-0.785,-6.186
High,Low,7,14,9,19,0.139,0.19399999999999998,0.278,1.235,-0.59,-0.62,-0.785,-6.186
High,Low,7,19,14,19,0.139,0.449,0.475,3.7110000000000003,-0.785,-0.875,-0.945,-16.149
High,Low,7,20,15,19,0.139,0.449,0.475,3.7110000000000003,-0.785,-0.875,-0.945,-16.149
High,Low,7,21,15,19,0.139,0.449,0.475,3.7110000000000003,-0.785,-0.875,-0.945,-16.149
High,Low,7,22,15,19,0.139,0.449,0.475,3.7110000000000003,-0.785,-0.875,-0.945,-16.149
High,Low,8,9,0,17,,,,,-0.585,-0.601,-0.634,-2.291
High,Low,8,10,1,19,0.154,,,0.154,-0.585,-0.62,-0.669,-2.291
High,Low,8,11,4,19,0.154,0.16699999999999998,0.19399999999999998,0.504,-0.585,-0.62,-0.669,-2.291
High,Low,8,12,7,19,0.154,0.16699999999999998,0.19399999999999998,1.338,-0.585,-0.62,-0.669,-6.186
High,Low,8,13,9,19,0.047,0.154,0.16699999999999998,2.135,-0.585,-0.62,-0.669,-6.186
High,Low,8,19,14,19,0.047,0.2,0.449,3.589,-0.669,-0.741,-0.785,-16.149
High,Low,8,20,14,19,0.2,0.449,0.457,3.589,-0.669,-0.741,-0.785,-16.149
High,Low,8,21,14,19,0.2,0.449,0.457,3.589,-0.669,-0.741,-0.785,-16.149
High,Low,8,22,14,19,0.2,0.449,0.457,3.589,-0.669,-0.741,-0.785,-16.149
High,Low,8,23,15,19,0.2,0.39399999999999996,0.449,3.589,-0.669,-0.741,-0.945,-16.149
High,Low,8,24,15,19,0.2,0.449,0.457,3.589,-0.669,-0.741,-0.945,-16.149
High,Low,8,25,15,19,0.2,0.449,0.457,3.6060000000000003,-0.669,-0.741,-0.945,-16.149
High,Low,8,26,15,19,0.2,0.449,0.457,6.01,-0.669,-0.741,-0.945,-16.149
High,Low,8,27,15,19,0.2,0.449,0.457,6.26,-0.669,-0.741,-0.945,-16.149
High,Low,8,28,15,19,0.449,0.457,0.723,8.815,-0.669,-0.741,-0.945,-16.149
High,Low,8,29,15,19,0.449,0.457,0.723,8.815,-0.669,-0.741,-0.945,-16.149
High,Low,8,30,15,19,0.449,0.457,0.723,8.815,-0.669,-0.741,-0.945,-16.149
High,Low,9,10,0,15,,,,,-0.49,-0.62,-0.669,-3.3560000000000003
High,Low,9,19,11,19,0.316,0.342,0.449,3.589,-0.669,-0.785,-0.833,-16.756
High,Low,9,20,12,19,0.316,0.342,0.449,3.589,-0.669,-0.785,-0.833,-16.756
High,Low,9,21,13,19,0.316,0.342,0.449,3.589,-0.669,-0.785,-0.833,-16.756
High,Low,9,22,13,19,0.316,0.342,0.449,3.589,-0.669,-0.785,-0.833,-16.756
High,Low,9,23,13,19,0.342,0.449,0.495,3.589,-0.669,-0.833,-0.945,-16.756
High,Low,9,24,13,19,0.342,0.449,0.495,3.589,-0.669,-0.833,-0.945,-16.756
High,Low,9,25,13,19,0.342,0.449,0.495,3.6060000000000003,-0.669,-0.833,-0.945,-16.756
High,Low,9,26,13,19,0.342,0.449,0.495,6.01,-0.669,-0.833,-0.945,-16.756
High,Low,9,27,13,19,0.342,0.449,0.495,6.26,-0.669,-0.833,-0.945,-16.756
High,Low,9,28,14,19,0.342,0.449,0.495,8.815,-0.669,-0.833,-0.945,-16.756
High,Low,9,29,15,19,0.342,0.449,0.495,8.815,-0.669,-0.833,-0.945,-16.756
High,Low,9,30,15,19,0.342,0.449,0.495,8.815,-0.669,-0.833,-0.945,-16.756
High,Low,10,11,0,16,,,,,-0.669,-0.6709999999999999,-0.6970000000000001,-2.0869999999999997
High,Low,10,12,2,18,0.271,1.338,,1.338,-0.669,-0.6709999999999999,-0.6970000000000001,-6.671
High,Low,10,13,2,19,0.271,2.135,,2.135,-0.669,-0.6709999999999999,-0.6970000000000001,-6.671
High,Low,10,14,2,19,0.271,2.135,,2.135,-0.669,-0.6709999999999999,-0.6970000000000001,-6.671
High,Low,10,15,2,19,0.271,2.135,,2.135,-0.669,-0.6709999999999999,-0.6970000000000001,-15.637
High,Low,10,16,3,19,0.528,0.774,2.135,2.135,-0.669,-0.6709999999999999,-0.6970000000000001,-16.583
High,Low,10,17,4,19,0.836,0.852,1.002,2.318,-0.669,-0.6709999999999999,-0.6970000000000001,-16.583
High,Low,10,18,7,19,0.102,0.11199999999999999,0.364,2.6039999999999996,-0.669,-0.6709999999999999,-0.6970000000000001,-16.583
High,Low,10,19,7,19,0.11199999999999999,0.364,0.836,3.589,-0.669,-0.6709999999999999,-0.6970000000000001,-16.583
High,Low,10,20,8,19,0.11199999999999999,0.364,0.605,3.589,-0.669,-0.6709999999999999,-0.6970000000000001,-16.583
High,Low,10,21,9,19,0.11199999999999999,0.364,0.605,3.589,-0.669,-0.6709999999999999,-0.6970000000000001,-16.583
High,Low,10,22,9,19,0.11199999999999999,0.364,0.861,3.589,-0.669,-0.6709999999999999,-0.6970000000000001,-16.583
High,Low,10,23,9,19,0.11199999999999999,0.364,0.861,3.589,-0.669,-0.6970000000000001,-1.2329999999999999,-16.583
High,Low,10,24,10,19,0.11199999999999999,0.595,0.812,3.589,-0.669,-0.6970000000000001,-1.2329999999999999,-16.583
High,Low,10,25,10,19,0.11199999999999999,0.812,0.861,3.6060000000000003,-0.669,-0.6970000000000001,-1.2329999999999999,-16.583
High,Low,10,26,10,19,0.11199999999999999,0.812,1.262,6.01,-0.669,-0.6970000000000001,-1.2329999999999999,-16.583
High,Low,10,27,10,19,0.11199999999999999,0.812,1.262,6.26,-0.669,-0.6970000000000001,-1.247,-16.583
High,Low,10,28,11,19,0.11199999999999999,0.19699999999999998,0.812,8.815,-0.669,-0.6970000000000001,-1.247,-16.583
High,Low,10,29,12,19,0.11199999999999999,0.19699999999999998,0.675,8.815,-0.669,-0.6970000000000001,-1.247,-16.583
High,Low,10,30,12,19,0.11199999999999999,0.19699999999999998,0.675,8.815,-0.669,-0.6970000000000001,-1.247,-16.583
High,Low,11,12,0,17,,,,,-0.491,-0.584,-0.884,-5.521
High,Low,11,13,1,19,0.667,,,0.667,-0.491,-0.584,-0.8109999999999999,-5.521
High,Low,11,14,1,19,0.667,,,0.667,-0.491,-0.584,-0.8909999999999999,-5.521
High,Low,11,15,1,19,0.667,,,0.667,-0.584,-1.058,-1.088,-14.597999999999999
High,Low,11,16,3,19,0.115,0.667,0.706,0.706,-1.058,-1.115,-1.3459999999999999,-15.555
High,Low,11,17,5,19,0.166,0.192,0.805,1.014,-1.058,-1.3459999999999999,-1.368,-15.555
High,Low,11,18,7,19,0.102,0.132,0.192,1.755,-1.058,-1.3459999999999999,-1.368,-15.555
High,Low,11,19,7,19,0.132,0.805,0.848,2.7319999999999998,-1.058,-1.3459999999999999,-1.492,-15.555
High,Low,11,20,8,19,0.132,0.605,0.805,2.7319999999999998,-1.058,-1.3459999999999999,-1.492,-15.555
High,Low,11,21,9,19,0.132,0.488,0.605,2.7319999999999998,-1.058,-1.3459999999999999,-1.492,-15.555
High,Low,11,22,9,19,0.132,0.805,0.848,2.7319999999999998,-1.058,-1.3459999999999999,-1.492,-15.555
High,Low,11,23,9,19,0.132,0.805,0.848,2.7319999999999998,-1.058,-1.3459999999999999,-1.492,-15.555
High,Low,11,24,10,19,0.363,0.805,0.812,2.7319999999999998,-1.058,-1.3459999999999999,-1.492,-15.555
High,Low,11,25,10,19,0.726,0.805,0.812,2.748,-1.058,-1.3459999999999999,-1.492,-15.555
High,Low,11,26,10,19,0.805,0.812,0.848,5.132000000000001,-1.058,-1.3459999999999999,-1.492,-15.555
High,Low,11,27,10,19,0.805,0.812,0.848,5.381,-1.073,-1.3459999999999999,-1.492,-15.555
High,Low,11,28,11,19,0.19699999999999998,0.805,0.812,7.914,-1.073,-1.3459999999999999,-1.492,-15.555
High,Low,11,29,12,19,0.19699999999999998,0.675,0.805,7.914,-1.073,-1.3459999999999999,-1.492,-15.555
High,Low,11,30,12,19,0.19699999999999998,0.675,0.805,7.914,-1.073,-1.3459999999999999,-1.492,-15.555
High,Low,12,15,2,19,0.39899999999999997,0.409,,0.409,-0.649,-0.728,-0.7659999999999999,-14.275
High,Low,12,16,2,19,0.409,1.122,,1.122,-0.649,-0.7659999999999999,-1.0190000000000001,-15.235999999999999
High,Low,12,17,4,19,0.409,0.833,1.001,1.432,-0.649,-0.7659999999999999,-1.0190000000000001,-15.235999999999999
High,Low,12,18,5,19,0.49700000000000005,0.7020000000000001,1.001,2.4330000000000003,-0.649,-0.7659999999999999,-1.0190000000000001,-15.235999999999999
High,Low,12,19,6,19,0.49700000000000005,0.498,1.001,3.417,-0.649,-0.7659999999999999,-1.0190000000000001,-15.235999999999999
High,Low,12,20,7,19,0.49700000000000005,0.511,0.958,3.417,-0.649,-0.7659999999999999,-1.0190000000000001,-15.235999999999999
High,Low,12,21,8,19,0.49700000000000005,0.511,0.958,3.417,-0.649,-0.7659999999999999,-1.0190000000000001,-15.235999999999999
High,Low,12,22,8,19,0.49700000000000005,0.767,0.958,3.417,-0.649,-0.7659999999999999,-1.0190000000000001,-15.235999999999999
High,Low,12,23,8,19,0.49700000000000005,0.767,0.958,3.417,-0.649,-0.7659999999999999,-1.0190000000000001,-15.235999999999999
High,Low,12,24,9,19,0.728,0.767,0.812,3.417,-0.649,-0.7659999999999999,-1.074,-15.235999999999999
High,Low,12,25,9,19,0.767,0.812,1.001,3.4330000000000003,-0.649,-0.7659999999999999,-1.074,-15.235999999999999
High,Low,12,26,9,19,0.812,1.001,1.149,5.832999999999999,-0.649,-0.7659999999999999,-1.074,-15.235999999999999
High,Low,12,27,9,19,0.812,1.001,1.149,6.082999999999999,-0.664,-0.7659999999999999,-1.074,-15.235999999999999
High,Low,12,28,10,19,0.19699999999999998,0.812,1.001,8.633,-0.664,-0.7659999999999999,-1.074,-15.235999999999999
High,Low,12,29,11,19,0.19699999999999998,0.436,0.812,8.633,-0.664,-0.7659999999999999,-1.074,-15.235999999999999
High,Low,12,30,11,19,0.19699999999999998,0.436,0.812,8.633,-0.664,-0.7659999999999999,-1.074,-15.235999999999999
High,Low,13,15,1,18,0.7659999999999999,,,0.7659999999999999,-0.38799999999999996,-0.435,-0.49700000000000005,-10.044
High,Low,13,18,5,19,0.099,0.527,1.001,2.862,-0.49700000000000005,-0.636,-0.6990000000000001,-11.052999999999999
High,Low,13,19,5,19,0.099,0.527,1.001,3.8489999999999998,-0.49700000000000005,-0.636,-0.75,-11.052999999999999
High,Low,13,20,6,19,0.099,0.5579999999999999,0.951,3.8489999999999998,-0.49700000000000005,-0.636,-0.795,-11.052999999999999
High,Low,13,21,7,19,0.099,0.5579999999999999,0.951,3.8489999999999998,-0.49700000000000005,-0.636,-0.795,-11.052999999999999
High,Low,13,22,7,19,0.099,0.8140000000000001,0.951,3.8489999999999998,-0.49700000000000005,-0.636,-0.795,-11.052999999999999
High,Low,13,23,7,19,0.099,0.8140000000000001,0.951,3.8489999999999998,-0.49700000000000005,-0.636,-0.9209999999999999,-11.052999999999999
High,Low,13,24,9,19,0.076,0.33,0.812,3.8489999999999998,-0.49700000000000005,-0.636,-0.9209999999999999,-11.052999999999999
High,Low,13,25,9,19,0.076,0.6920000000000001,0.812,3.866,-0.49700000000000005,-0.636,-0.9209999999999999,-11.052999999999999
High,Low,13,26,9,19,0.076,0.812,0.951,6.276,-0.636,-0.9209999999999999,-1.074,-11.052999999999999
High,Low,13,27,9,19,0.076,0.812,0.951,6.527,-0.636,-0.9209999999999999,-1.074,-11.052999999999999
High,Low,13,28,10,19,0.076,0.812,0.951,9.088,-0.636,-0.9209999999999999,-1.074,-11.052999999999999
High,Low,13,29,11,19,0.076,0.812,0.8190000000000001,9.088,-0.636,-0.9209999999999999,-1.074,-11.052999999999999
High,Low,13,30,11,19,0.076,0.812,0.8190000000000001,9.088,-0.636,-0.9209999999999999,-1.074,-11.052999999999999
High,Low,14,16,0,17,,,,,-0.578,-0.725,-0.9420000000000001,-11.052999999999999
High,Low,16,17,1,16,0.061,,,0.061,-0.568,-0.706,-0.725,-5.567
High,Low,16,18,2,19,0.061,1.4709999999999999,,1.4709999999999999,-0.568,-0.706,-0.7170000000000001,-5.567
High,Low,16,19,3,19,0.061,0.649,1.4709999999999999,1.4709999999999999,-0.568,-0.706,-0.727,-5.567
High,Low,16,20,5,19,0.061,0.153,0.649,1.4709999999999999,-0.568,-0.706,-0.8440000000000001,-5.567
High,Low,16,21,6,19,0.294,0.524,0.649,1.4709999999999999,-0.568,-0.706,-0.912,-5.567
High,Low,16,22,7,19,0.294,0.414,0.524,2.271,-0.568,-0.706,-0.912,-5.567
High,Low,16,23,7,19,0.294,0.414,0.524,2.271,-0.568,-0.706,-0.912,-5.567
High,Low,16,24,9,19,0.076,0.294,0.524,2.271,-0.568,-0.706,-0.912,-6.704
High,Low,16,25,9,19,0.076,0.36700000000000005,0.524,2.302,-0.568,-0.706,-0.912,-7.442
High,Low,16,26,10,19,0.076,0.091,0.36700000000000005,3.597,-0.568,-0.706,-0.912,-7.442
High,Low,16,27,10,19,0.076,0.091,0.528,3.597,-0.568,-0.706,-0.912,-7.442
High,Low,16,28,11,19,0.076,0.091,0.604,5.726,-0.568,-0.706,-0.912,-7.442
High,Low,16,29,11,19,0.076,0.091,0.9740000000000001,5.726,-0.568,-0.706,-0.912,-8.338
High,Low,16,30,11,19,0.076,0.091,0.9740000000000001,5.726,-0.568,-0.706,-0.912,-9.033
High,Low,19,20,1,15,0.642,,,0.642,-0.198,-0.5539999999999999,-0.7,-3.323
High,Low,19,21,3,18,0.114,0.147,0.642,0.642,-0.198,-0.5539999999999999,-0.7,-3.609
High,Low,19,23,6,19,0.115,0.147,0.165,1.4069999999999998,-0.198,-0.5539999999999999,-0.589,-3.609
High,Low,19,24,7,19,0.006999999999999999,0.115,0.147,1.9909999999999999,-0.198,-0.5539999999999999,-0.589,-4.272
High,Low,19,25,8,19,0.115,0.18100000000000002,0.22,1.9909999999999999,-0.198,-0.5539999999999999,-0.589,-5.029
High,Low,19,26,10,19,0.22,0.315,0.475,2.19,-0.198,-0.589,-0.7,-5.029
High,Low,19,27,10,19,0.315,0.38,0.642,2.19,-0.198,-0.589,-0.7,-5.029
High,Low,19,28,11,19,0.3,0.315,0.642,3.133,-0.198,-0.589,-0.7,-5.067
High,Low,19,29,12,19,0.3,0.315,0.642,3.133,-0.198,-0.589,-0.7,-6.08
High,Low,19,30,12,19,0.315,0.642,0.67,3.133,-0.198,-0.589,-0.7,-6.662000000000001
High,Low,20,23,2,19,0.405,0.637,,0.637,-0.42700000000000005,-0.445,-0.589,-4.829
High,Low,20,24,3,19,0.066,0.637,1.9909999999999999,1.9909999999999999,-0.42700000000000005,-0.589,-0.7509999999999999,-4.829
High,Low,20,25,4,19,0.18100000000000002,0.42700000000000005,0.637,1.9909999999999999,-0.42700000000000005,-0.589,-0.7509999999999999,-5.029
High,Low,20,26,7,19,0.023,0.637,0.772,1.9909999999999999,-0.42700000000000005,-0.589,-0.7509999999999999,-5.029
High,Low,20,27,7,19,0.023,0.637,0.772,1.9909999999999999,-0.42700000000000005,-0.589,-0.7509999999999999,-5.029
High,Low,20,28,10,19,0.023,0.3,0.772,2.226,-0.42700000000000005,-0.589,-0.7509999999999999,-5.029
High,Low,20,29,11,19,0.023,0.3,0.772,2.335,-0.42700000000000005,-0.589,-0.7509999999999999,-5.949
High,Low,20,30,11,19,0.023,0.772,0.884,2.335,-0.42700000000000005,-0.589,-0.7509999999999999,-6.662000000000001
High,Low,21,23,1,19,0.27,,,0.27,-0.145,-0.41700000000000004,-0.42700000000000005,-4.05
High,Low,21,24,4,19,0.066,0.114,0.27,1.296,-0.41700000000000004,-0.42700000000000005,-0.43799999999999994,-4.272
High,Low,21,25,5,19,0.114,0.18100000000000002,0.27,1.296,-0.42700000000000005,-0.43799999999999994,-0.589,-5.029
High,Low,21,26,9,19,0.114,0.207,0.27,1.296,-0.42700000000000005,-0.589,-0.621,-5.029
High,Low,21,27,9,19,0.114,0.207,0.27,1.296,-0.42700000000000005,-0.589,-0.621,-5.029
High,Low,21,28,12,19,0.114,0.207,0.3,2.323,-0.42700000000000005,-0.589,-0.621,-5.029
High,Low,21,29,12,19,0.114,0.207,0.3,2.335,-0.42700000000000005,-0.589,-0.621,-5.949
High,Low,21,30,12,19,0.114,0.207,0.32899999999999996,2.335,-0.42700000000000005,-0.589,-0.621,-6.662000000000001
High,Low,22,23,1,16,0.795,,,0.795,-0.145,-0.41700000000000004,-0.42700000000000005,-2.6010000000000004
High,Low,22,24,4,18,0.066,0.114,0.795,1.534,-0.41700000000000004,-0.42700000000000005,-0.528,-4.085
High,Low,22,25,6,19,0.114,0.17,0.18100000000000002,1.534,-0.42700000000000005,-0.589,-0.645,-4.843999999999999
High,Low,22,26,11,19,0.023,0.114,0.158,1.534,-0.42700000000000005,-0.589,-0.645,-4.843999999999999
High,Low,22,27,12,19,0.008,0.023,0.114,1.534,-0.42700000000000005,-0.589,-0.645,-4.843999999999999
High,Low,22,28,13,19,0.008,0.023,0.114,2.8080000000000003,-0.42700000000000005,-0.589,-0.645,-4.843999999999999
High,Low,22,29,13,19,0.023,0.114,0.17,2.8080000000000003,-0.42700000000000005,-0.589,-0.645,-5.765
High,Low,22,30,14,19,0.023,0.114,0.149,2.8080000000000003,-0.42700000000000005,-0.589,-0.645,-6.48
High,Low,23,26,8,19,0.114,0.158,0.345,1.5319999999999998,-0.147,-0.299,-0.391,-4.71
High,Low,23,27,9,19,0.114,0.345,0.39399999999999996,1.5319999999999998,-0.299,-0.39,-0.391,-4.71
High,Low,23,28,12,19,0.114,0.226,0.345,2.8080000000000003,-0.299,-0.39,-0.391,-4.71
High,Low,23,29,12,19,0.114,0.345,0.409,2.8080000000000003,-0.299,-0.39,-0.391,-5.632000000000001
High,Low,23,30,13,19,0.114,0.345,0.409,2.8080000000000003,-0.299,-0.39,-0.391,-6.348
High,Low,24,25,2,17,0.024,0.203,,0.203,-0.391,-0.45799999999999996,-0.604,-2.951
High,Low,24,28,10,19,0.262,0.345,0.419,2.8080000000000003,-0.391,-0.45799999999999996,-0.604,-3.176
High,Low,24,29,10,19,0.345,0.588,0.603,2.8080000000000003,-0.391,-0.45799999999999996,-0.604,-4.21
High,Low,24,30,11,19,0.345,0.537,0.588,2.8080000000000003,-0.391,-0.45799999999999996,-0.604,-4.62
High,Low,25,29,9,19,0.034,0.32,0.345,3.133,-0.39,-0.391,-0.44799999999999995,-4.21
High,Low,25,30,10,19,0.034,0.32,0.345,3.133,-0.39,-0.391,-0.44799999999999995,-4.21
High,Low,26,30,5,19,0.597,0.965,1.849,2.0580000000000003,-0.308,-0.34,-0.39799999999999996,-4.21
High,Close,1,5,7,19,0.20800000000000002,0.233,0.461,1.307,-0.225,-0.231,-0.5589999999999999,-4.189
High,Close,1,6,9,19,0.20800000000000002,0.541,0.6559999999999999,1.476,-0.225,-0.231,-0.5589999999999999,-6.542000000000001
High,Close,1,7,11,19,0.081,0.20800000000000002,0.315,2.181,-0.225,-0.231,-0.5589999999999999,-6.542000000000001
High,Close,1,8,12,19,0.09300000000000001,0.20800000000000002,0.315,2.569,-0.225,-0.231,-0.5589999999999999,-6.542000000000001
High,Close,1,9,12,19,0.20800000000000002,0.541,0.586,2.9619999999999997,-0.225,-0.231,-0.5589999999999999,-6.542000000000001
High,Close,1,10,12,19,0.20800000000000002,0.591,0.853,2.9619999999999997,-0.225,-0.231,-0.5589999999999999,-6.542000000000001
High,Close,1,11,14,19,0.023,0.853,0.861,2.9619999999999997,-0.225,-0.231,-0.5589999999999999,-6.542000000000001
High,Close,1,12,14,19,0.023,0.861,0.89,3.0060000000000002,-0.225,-0.231,-0.5589999999999999,-6.542000000000001
High,Close,1,13,14,19,0.187,0.861,0.89,3.0060000000000002,-0.225,-0.231,-0.5589999999999999,-6.542000000000001
High,Close,1,14,14,19,0.187,0.861,0.89,3.051,-0.225,-0.231,-0.5589999999999999,-7.454
High,Close,1,15,14,19,0.187,0.861,0.89,3.397,-0.225,-0.231,-0.5589999999999999,-14.989
High,Close,1,16,14,19,0.187,0.861,0.89,3.696,-0.225,-0.231,-0.5589999999999999,-14.989
High,Close,1,17,14,19,0.187,0.861,0.89,3.9530000000000003,-0.225,-0.231,-0.5589999999999999,-14.989
High,Close,1,18,14,19,0.187,0.861,0.89,4.73,-0.225,-0.231,-0.5589999999999999,-14.989
High,Close,1,19,14,19,0.861,0.89,0.915,6.858,-0.225,-0.231,-0.5589999999999999,-14.989
High,Close,1,20,14,19,0.861,0.89,0.915,6.858,-0.225,-0.231,-0.5589999999999999,-14.989
High,Close,1,21,14,19,0.861,0.89,0.915,6.858,-0.225,-0.231,-0.5589999999999999,-14.989
High,Close,1,22,14,19,0.861,0.89,0.915,6.858,-0.225,-0.231,-0.5589999999999999,-14.989
High,Close,1,23,14,19,0.861,0.89,0.915,6.858,-0.225,-0.231,-0.5589999999999999,-14.989
High,Close,1,24,14,19,0.861,0.89,0.915,6.858,-0.225,-0.231,-0.5589999999999999,-14.989
High,Close,1,25,14,19,0.861,0.915,1.0190000000000001,6.858,-0.225,-0.231,-0.5589999999999999,-14.989
High,Close,1,26,14,19,0.861,0.915,1.0190000000000001,7.905,-0.225,-0.231,-0.5589999999999999,-14.989
High,Close,1,27,14,19,0.861,0.915,1.0190000000000001,7.905,-0.225,-0.231,-0.5589999999999999,-14.989
High,Close,1,28,14,19,0.861,0.915,1.0190000000000001,10.101,-0.225,-0.231,-0.5589999999999999,-14.989
High,Close,1,29,14,19,0.861,0.915,1.0190000000000001,10.101,-0.225,-0.231,-0.5589999999999999,-14.989
High,Close,1,30,15,19,0.207,0.861,0.915,10.101,-0.225,-0.231,-0.5589999999999999,-14.989
High,Close,2,3,1,15,0.03,,,0.03,-0.077,-0.128,-0.225,-3.73
High,Close,2,5,7,19,0.20800000000000002,0.233,0.276,1.307,-0.035,-0.147,-0.225,-4.189
High,Close,2,6,11,19,0.159,0.188,0.20800000000000002,1.307,-0.035,-0.147,-0.225,-6.321000000000001
High,Close,2,7,11,19,0.188,0.20800000000000002,0.541,1.787,-0.035,-0.147,-0.225,-6.321000000000001
High,Close,2,8,12,19,0.188,0.20800000000000002,0.48,2.383,-0.035,-0.147,-0.225,-6.321000000000001
High,Close,2,9,12,19,0.188,0.20800000000000002,0.541,2.99,-0.035,-0.147,-0.225,-6.321000000000001
High,Close,2,10,12,19,0.188,0.20800000000000002,0.853,2.99,-0.035,-0.147,-0.225,-6.321000000000001
High,Close,2,11,13,19,0.54,0.853,0.915,2.99,-0.035,-0.17800000000000002,-0.225,-6.321000000000001
High,Close,2,12,13,19,0.54,0.892,0.915,3.035,-0.035,-0.17800000000000002,-0.225,-6.34
High,Close,2,13,13,19,0.7040000000000001,0.892,0.915,3.035,-0.035,-0.17800000000000002,-0.225,-6.34
High,Close,2,14,13,19,0.7040000000000001,0.892,0.915,3.035,-0.035,-0.17800000000000002,-0.225,-6.807
High,Close,2,15,13,19,0.7040000000000001,0.892,0.915,3.21,-0.035,-0.225,-0.318,-15.1
High,Close,2,16,13,19,0.7040000000000001,0.915,0.946,4.258,-0.035,-0.225,-0.35200000000000004,-15.1
High,Close,2,17,13,19,0.7040000000000001,0.915,1.07,4.258,-0.035,-0.225,-0.35200000000000004,-15.1
High,Close,2,18,13,19,0.7040000000000001,0.915,1.07,4.73,-0.035,-0.225,-0.35200000000000004,-15.1
High,Close,2,19,13,19,0.915,1.07,1.41,6.858,-0.035,-0.225,-0.35200000000000004,-15.1
High,Close,2,20,13,19,0.915,1.07,1.41,6.858,-0.035,-0.225,-0.35200000000000004,-15.1
High,Close,2,21,13,19,0.915,1.07,1.41,6.858,-0.035,-0.225,-0.35200000000000004,-15.1
High,Close,2,22,13,19,0.915,1.07,1.41,6.858,-0.035,-0.225,-0.35200000000000004,-15.1
High,Close,2,23,13,19,0.915,1.07,1.41,6.858,-0.035,-0.225,-0.35200000000000004,-15.1
High,Close,2,24,13,19,0.915,1.07,1.41,6.858,-0.035,-0.225,-0.35200000000000004,-15.1
High,Close,2,25,14,19,0.424,0.915,1.07,6.858,-0.035,-0.225,-0.35200000000000004,-15.1
High,Close,2,26,14,19,0.915,1.07,1.41,7.905,-0.035,-0.225,-0.35200000000000004,-15.1
High,Close,2,27,14,19,0.915,1.07,1.41,7.905,-0.035,-0.225,-0.35200000000000004,-15.1
High,Close,2,28,14,19,0.915,1.07,1.41,10.101,-0.035,-0.225,-0.35200000000000004,-15.1
High,Close,2,29,14,19,0.915,1.07,1.41,10.101,-0.035,-0.225,-0.35200000000000004,-15.1
High,Close,2,30,15,19,0.915,1.013,1.07,10.101,-0.035,-0.225,-0.35200000000000004,-15.1
High,Close,3,5,6,18,0.165,0.20800000000000002,0.499,1.034,-0.035,-0.275,-0.317,-4.001
High,Close,3,6,10,19,0.159,0.165,0.188,1.2919999999999998,-0.035,-0.275,-0.317,-4.262
High,Close,3,7,11,19,0.188,0.20800000000000002,0.285,1.6769999999999998,-0.035,-0.275,-0.317,-4.262
High,Close,3,8,12,19,0.188,0.20800000000000002,0.285,2.383,-0.035,-0.275,-0.317,-4.262
High,Close,3,9,13,19,0.188,0.20800000000000002,0.285,2.8760000000000003,-0.035,-0.275,-0.317,-4.262
High,Close,3,10,14,19,0.037000000000000005,0.188,0.20800000000000002,2.8760000000000003,-0.035,-0.275,-0.317,-4.262
High,Close,3,11,14,19,0.285,0.54,0.541,2.8760000000000003,-0.035,-0.275,-0.348,-4.262
High,Close,3,12,14,19,0.285,0.54,0.58,3.035,-0.035,-0.275,-0.348,-4.783
High,Close,3,13,14,19,0.285,0.58,0.622,3.035,-0.035,-0.275,-0.348,-4.783
High,Close,3,14,14,19,0.285,0.58,0.622,3.035,-0.035,-0.275,-0.348,-5.171
High,Close,3,15,14,19,0.285,0.58,0.622,3.21,-0.035,-0.275,-0.35200000000000004,-13.689
High,Close,3,16,14,19,0.285,0.622,0.7040000000000001,4.143,-0.035,-0.275,-0.35200000000000004,-13.689
High,Close,3,17,14,19,0.285,0.622,0.7040000000000001,4.143,-0.035,-0.275,-0.35200000000000004,-13.689
High,Close,3,18,14,19,0.285,0.622,0.7040000000000001,4.73,-0.035,-0.275,-0.35200000000000004,-13.689
High,Close,3,19,14,19,0.285,0.622,1.1179999999999999,6.858,-0.035,-0.275,-0.35200000000000004,-13.689
High,Close,3,20,14,19,0.285,0.622,1.1179999999999999,6.858,-0.035,-0.275,-0.35200000000000004,-13.689
High,Close,3,21,15,19,0.285,0.622,1.1179999999999999,6.858,-0.035,-0.275,-0.35200000000000004,-13.689
High,Close,3,22,15,19,0.285,0.622,1.1179999999999999,6.858,-0.035,-0.275,-0.35200000000000004,-13.689
High,Close,3,23,15,19,0.285,0.622,1.1179999999999999,6.858,-0.035,-0.275,-0.35200000000000004,-13.689
High,Close,3,24,16,19,0.285,0.363,0.622,6.858,-0.035,-0.35200000000000004,-0.479,-13.689
High,Close,3,25,17,19,0.285,0.363,0.622,6.858,-0.035,-0.35200000000000004,-0.479,-13.689
High,Close,3,26,17,19,0.285,0.363,0.622,7.905,-0.035,-0.35200000000000004,-0.479,-13.689
High,Close,3,27,17,19,0.285,0.363,0.622,7.905,-0.035,-0.35200000000000004,-0.479,-13.689
High,Close,3,28,17,19,0.285,0.363,0.622,10.101,-0.035,-0.35200000000000004,-0.479,-13.689
High,Close,3,29,17,19,0.285,0.363,0.622,10.101,-0.035,-0.35200000000000004,-0.479,-13.689
High,Close,3,30,17,19,0.285,0.363,0.622,10.101,-0.035,-0.35200000000000004,-0.479,-13.689
High,Close,4,5,3,17,0.499,0.883,1.162,1.162,-0.035,-0.061,-0.222,-2.1069999999999998
High,Close,4,6,6,19,0.159,0.188,0.499,1.2919999999999998,-0.035,-0.061,-0.222,-2.6260000000000003
High,Close,4,7,8,19,0.188,0.285,0.7959999999999999,1.6769999999999998,-0.035,-0.27899999999999997,-0.35200000000000004,-2.6260000000000003
High,Close,4,8,10,19,0.188,0.19899999999999998,0.285,2.383,-0.035,-0.27899999999999997,-0.35200000000000004,-2.6260000000000003
High,Close,4,9,11,19,0.031,0.188,0.19899999999999998,2.4530000000000003,-0.035,-0.27899999999999997,-0.35200000000000004,-2.6260000000000003
High,Close,4,10,13,19,0.188,0.222,0.285,2.4530000000000003,-0.035,-0.27899999999999997,-0.35200000000000004,-2.6260000000000003
High,Close,4,11,15,19,0.267,0.285,0.54,2.8139999999999996,-0.035,-0.309,-0.35200000000000004,-2.6260000000000003
High,Close,4,12,15,19,0.267,0.285,0.54,3.035,-0.035,-0.309,-0.35200000000000004,-3.615
High,Close,4,13,15,19,0.285,0.6829999999999999,0.7040000000000001,3.035,-0.035,-0.309,-0.35200000000000004,-3.615
High,Close,4,14,15,19,0.285,0.6829999999999999,0.7040000000000001,3.035,-0.035,-0.309,-0.35200000000000004,-5.171
High,Close,4,15,15,19,0.285,0.6829999999999999,0.7040000000000001,3.21,-0.035,-0.35200000000000004,-0.449,-12.630999999999998
High,Close,4,16,16,19,0.285,0.6829999999999999,0.7040000000000001,3.301,-0.035,-0.35200000000000004,-0.45899999999999996,-12.630999999999998
High,Close,4,17,16,19,0.285,0.6829999999999999,0.7040000000000001,4.217,-0.035,-0.35200000000000004,-0.45899999999999996,-12.630999999999998
High,Close,4,18,17,19,0.285,0.628,0.6829999999999999,4.996,-0.035,-0.35200000000000004,-0.45899999999999996,-12.630999999999998
High,Close,4,19,17,19,0.285,0.628,0.6829999999999999,7.13,-0.035,-0.35200000000000004,-0.45899999999999996,-12.630999999999998
High,Close,4,20,17,19,0.285,0.628,0.6829999999999999,7.13,-0.035,-0.35200000000000004,-0.45899999999999996,-12.630999999999998
High,Close,4,21,17,19,0.285,0.628,0.6829999999999999,7.13,-0.035,-0.35200000000000004,-0.45899999999999996,-12.630999999999998
High,Close,4,22,17,19,0.285,0.628,0.6829999999999999,7.13,-0.035,-0.35200000000000004,-0.45899999999999996,-12.630999999999998
High,Close,4,23,18,19,0.285,0.628,0.6829999999999999,7.13,-0.035,-0.35200000000000004,-0.45899999999999996,-12.630999999999998
High,Close,4,24,18,19,0.285,0.628,0.6829999999999999,7.13,-0.035,-0.35200000000000004,-0.45899999999999996,-12.630999999999998
High,Close,4,25,18,19,0.285,0.6829999999999999,1.276,7.13,-0.035,-0.35200000000000004,-0.45899999999999996,-12.630999999999998
High,Close,4,26,18,19,0.285,0.6829999999999999,1.276,8.18,-0.035,-0.35200000000000004,-0.45899999999999996,-12.630999999999998
High,Close,4,27,18,19,0.285,0.6829999999999999,1.276,8.18,-0.035,-0.35200000000000004,-0.45899999999999996,-12.630999999999998
High,Close,4,28,18,19,0.285,0.6829999999999999,1.276,10.380999999999998,-0.035,-0.35200000000000004,-0.45899999999999996,-12.630999999999998
High,Close,4,29,18,19,0.285,0.6829999999999999,1.276,10.380999999999998,-0.035,-0.35200000000000004,-0.45899999999999996,-12.630999999999998
High,Close,4,30,18,19,0.285,0.6829999999999999,1.276,10.380999999999998,-0.035,-0.35200000000000004,-0.45899999999999996,-12.630999999999998
High,Close,5,6,5,16,0.006999999999999999,0.159,0.34700000000000003,0.745,-0.035,-0.124,-0.235,-2.6260000000000003
High,Close,5,7,6,19,0.062,0.285,0.34700000000000003,1.6769999999999998,-0.035,-0.124,-0.235,-2.6260000000000003
High,Close,5,8,9,19,0.285,0.34700000000000003,0.36,1.6769999999999998,-0.035,-0.124,-0.235,-2.6260000000000003
High,Close,5,9,14,19,0.195,0.285,0.34700000000000003,2.4530000000000003,-0.035,-0.124,-0.235,-2.6260000000000003
High,Close,5,10,15,19,0.07400000000000001,0.285,0.34700000000000003,2.4530000000000003,-0.035,-0.124,-0.235,-2.6260000000000003
High,Close,5,11,16,19,0.11800000000000001,0.285,0.34700000000000003,2.4530000000000003,-0.035,-0.235,-0.263,-2.6260000000000003
High,Close,5,12,16,19,0.11800000000000001,0.285,0.354,2.835,-0.035,-0.235,-0.263,-5.0360000000000005
High,Close,5,13,16,19,0.285,0.354,0.386,2.835,-0.035,-0.235,-0.263,-5.0360000000000005
High,Close,5,14,16,19,0.285,0.354,0.386,2.835,-0.035,-0.263,-0.28800000000000003,-5.171
High,Close,5,15,16,19,0.285,0.354,0.386,2.835,-0.035,-0.28800000000000003,-0.353,-13.919
High,Close,5,16,16,19,0.285,0.354,0.893,2.835,-0.035,-0.28800000000000003,-0.353,-13.919
High,Close,5,17,16,19,0.285,0.354,0.893,4.164,-0.035,-0.28800000000000003,-0.353,-13.919
High,Close,5,18,17,19,0.285,0.354,0.6609999999999999,4.942,-0.035,-0.28800000000000003,-0.353,-13.919
High,Close,5,19,17,19,0.285,0.354,0.6609999999999999,7.075,-0.035,-0.28800000000000003,-0.353,-13.919
High,Close,5,20,17,19,0.285,0.354,0.6609999999999999,7.075,-0.035,-0.28800000000000003,-0.353,-13.919
High,Close,5,21,17,19,0.285,0.354,0.6609999999999999,7.075,-0.035,-0.28800000000000003,-0.353,-13.919
High,Close,5,22,17,19,0.285,0.354,0.6609999999999999,7.075,-0.035,-0.28800000000000003,-0.353,-13.919
High,Close,5,23,18,19,0.285,0.354,0.6609999999999999,7.075,-0.035,-0.28800000000000003,-0.353,-13.919
High,Close,5,24,18,19,0.285,0.354,0.6609999999999999,7.075,-0.035,-0.28800000000000003,-0.353,-13.919
High,Close,5,25,18,19,0.285,0.354,1.324,7.075,-0.035,-0.28800000000000003,-0.353,-13.919
High,Close,5,26,18,19,0.285,0.354,1.324,8.125,-0.035,-0.28800000000000003,-0.353,-13.919
High,Close,5,27,18,19,0.285,0.354,1.324,8.125,-0.035,-0.28800000000000003,-0.353,-13.919
High,Close,5,28,18,19,0.285,0.354,1.324,10.325,-0.035,-0.28800000000000003,-0.353,-13.919
High,Close,5,29,18,19,0.285,0.354,1.324,10.325,-0.035,-0.28800000000000003,-0.353,-13.919
High,Close,5,30,18,19,0.285,0.354,1.324,10.325,-0.035,-0.28800000000000003,-0.353,-13.919
High,Close,7,8,3,15,0.011000000000000001,0.36,0.745,0.745,-0.069,-0.27399999999999997,-0.28300000000000003,-1.655
High,Close,7,9,8,19,0.011000000000000001,0.10800000000000001,0.36,0.745,-0.069,-0.09,-0.237,-1.745
High,Close,7,10,11,19,0.011000000000000001,0.066,0.336,1.235,-0.069,-0.09,-0.237,-1.745
High,Close,7,11,14,19,0.011000000000000001,0.023,0.165,1.421,-0.069,-0.09,-0.237,-1.745
High,Close,7,12,14,19,0.011000000000000001,0.023,0.23199999999999998,2.01,-0.069,-0.09,-0.237,-4.868
High,Close,7,13,15,19,0.187,0.23199999999999998,0.532,2.01,-0.069,-0.09,-0.237,-4.868
High,Close,7,14,15,19,0.187,0.23199999999999998,0.532,2.01,-0.069,-0.09,-0.237,-5.619
High,Close,7,15,15,19,0.187,0.23199999999999998,0.532,2.01,-0.069,-0.09,-0.237,-13.765999999999998
High,Close,7,23,17,19,0.532,0.5379999999999999,0.746,5.733,-0.618,-0.6559999999999999,-0.8270000000000001,-13.765999999999998
High,Close,7,24,17,19,0.532,0.5379999999999999,0.746,5.733,-0.618,-0.6559999999999999,-0.8270000000000001,-13.765999999999998
High,Close,7,25,17,19,0.532,0.5379999999999999,0.746,5.733,-0.618,-0.6559999999999999,-0.8270000000000001,-13.765999999999998
High,Close,7,26,17,19,0.532,0.5379999999999999,0.746,6.769,-0.618,-0.6559999999999999,-0.8270000000000001,-13.765999999999998
High,Close,7,27,17,19,0.532,0.5379999999999999,0.755,6.769,-0.618,-0.6559999999999999,-0.8270000000000001,-13.765999999999998
High,Close,7,28,17,19,0.532,0.5379999999999999,1.421,8.942,-0.618,-0.6559999999999999,-0.8270000000000001,-13.765999999999998
High,Close,7,29,17,19,0.532,0.5379999999999999,1.421,8.942,-0.618,-0.6559999999999999,-0.8270000000000001,-13.765999999999998
High,Close,7,30,17,19,0.532,0.5379999999999999,1.421,8.942,-0.618,-0.6559999999999999,-0.8270000000000001,-13.765999999999998
High,Close,10,13,7,19,0.055999999999999994,0.183,0.5720000000000001,2.4459999999999997,-0.162,-0.183,-0.264,-5.359
High,Close,10,14,8,19,0.055999999999999994,0.183,0.257,2.4459999999999997,-0.162,-0.264,-0.268,-5.359
High,Close,10,15,9,19,0.055999999999999994,0.183,0.257,2.4459999999999997,-0.162,-0.268,-0.327,-14.212
High,Close,10,16,10,19,0.055999999999999994,0.183,0.257,2.4459999999999997,-0.268,-0.327,-0.387,-14.212
High,Close,10,17,11,19,0.055999999999999994,0.183,0.257,2.738,-0.268,-0.327,-0.387,-14.212
High,Close,10,18,12,19,0.055999999999999994,0.183,0.257,3.5060000000000002,-0.268,-0.327,-0.387,-14.212
High,Close,10,19,13,19,0.055999999999999994,0.183,0.257,5.609,-0.268,-0.327,-0.387,-14.212
High,Close,11,14,6,19,0.038,0.055999999999999994,0.33299999999999996,1.193,-0.042,-0.18100000000000002,-0.31,-5.2829999999999995
High,Close,11,15,7,19,0.038,0.055999999999999994,0.33299999999999996,1.193,-0.042,-0.18100000000000002,-0.5,-13.155
High,Close,13,26,12,19,0.233,0.318,0.386,6.912000000000001,-0.16699999999999998,-0.486,-0.552,-8.525
High,Close,13,27,12,19,0.318,0.386,0.406,6.912000000000001,-0.16699999999999998,-0.486,-0.552,-8.525
High,Close,13,28,14,19,0.318,0.386,0.488,9.088,-0.16699999999999998,-0.486,-0.552,-8.525
High,Close,13,29,14,19,0.318,0.386,0.488,9.088,-0.16699999999999998,-0.486,-0.552,-8.525
High,Close,13,30,14,19,0.318,0.386,0.488,9.088,-0.16699999999999998,-0.486,-0.552,-8.525
High,Close,14,19,10,19,0.17800000000000002,0.192,0.368,2.612,-0.14800000000000002,-0.17800000000000002,-0.29100000000000004,-8.525
High,Close,14,20,11,19,0.17800000000000002,0.192,0.275,2.612,-0.17800000000000002,-0.29100000000000004,-0.552,-8.525
High,Close,14,21,11,19,0.17800000000000002,0.192,0.275,2.612,-0.17800000000000002,-0.29100000000000004,-0.552,-8.525
High,Close,14,22,11,19,0.17800000000000002,0.192,0.275,2.612,-0.17800000000000002,-0.29100000000000004,-0.552,-8.525
High,Close,14,23,12,19,0.17800000000000002,0.192,0.275,2.612,-0.17800000000000002,-0.29100000000000004,-0.552,-8.525
High,Close,14,24,12,19,0.17800000000000002,0.192,0.275,2.699,-0.17800000000000002,-0.29100000000000004,-0.552,-8.525
High,Close,14,25,12,19,0.17800000000000002,0.192,0.275,2.699,-0.17800000000000002,-0.29100000000000004,-0.552,-8.525
High,Close,14,26,13,19,0.16899999999999998,0.17800000000000002,0.192,3.617,-0.17800000000000002,-0.29100000000000004,-0.552,-8.525
High,Close,14,27,14,19,0.095,0.17800000000000002,0.225,3.617,-0.17800000000000002,-0.29100000000000004,-0.552,-8.525
High,Close,14,28,14,19,0.17800000000000002,0.275,0.435,5.726,-0.17800000000000002,-0.29100000000000004,-0.552,-8.525
High,Close,14,29,14,19,0.17800000000000002,0.275,0.435,5.726,-0.17800000000000002,-0.29100000000000004,-0.552,-8.525
High,Close,14,30,14,19,0.17800000000000002,0.275,0.435,5.726,-0.17800000000000002,-0.29100000000000004,-0.552,-8.525
High,Close,19,20,4,15,0.095,0.132,0.531,0.919,-0.023,-0.066,-0.16699999999999998,-1.93
High,Close,19,23,9,19,0.049,0.095,0.247,1.901,-0.023,-0.066,-0.16699999999999998,-3.411
High,Close,19,24,10,19,0.095,0.157,0.218,2.767,-0.023,-0.066,-0.16699999999999998,-4.088
High,Close,19,25,11,19,0.095,0.115,0.18100000000000002,2.9219999999999997,-0.023,-0.066,-0.16699999999999998,-4.088
High,Close,19,26,12,19,0.115,0.39,0.39299999999999996,3.008,-0.023,-0.066,-0.16699999999999998,-4.088
High,Close,19,27,12,19,0.115,0.39,0.659,3.008,-0.023,-0.066,-0.16699999999999998,-4.088
High,Close,19,28,14,19,0.115,0.39,0.588,3.133,-0.023,-0.066,-0.16699999999999998,-4.745
High,Close,19,29,14,19,0.115,0.39,0.588,3.7680000000000002,-0.023,-0.066,-0.16699999999999998,-5.4510000000000005
High,Close,19,30,14,19,0.115,0.588,0.659,3.782,-0.023,-0.066,-0.16699999999999998,-6.684
High,Close,22,28,15,19,0.23199999999999998,0.265,0.48200000000000004,2.8080000000000003,-0.134,-0.149,-0.33,-3.9010000000000002
High,Close,22,29,15,19,0.23199999999999998,0.265,0.48200000000000004,3.26,-0.134,-0.149,-0.33,-5.267
High,Close,25,27,8,19,0.138,0.32,0.479,1.229,-0.146,-0.158,-0.161,-1.69
High,Close,25,28,10,19,0.32,0.479,0.605,3.133,-0.146,-0.158,-0.161,-2.8489999999999998
High,Close,25,29,11,19,0.32,0.38299999999999995,0.479,3.892,-0.146,-0.158,-0.161,-2.8489999999999998
High,Close,25,30,12,19,0.32,0.479,0.605,3.892,-0.146,-0.158,-0.161,-3.447
High,Open,2,4,3,18,0.039,0.055999999999999994,0.19399999999999998,0.19399999999999998,-0.049,-0.07,-0.141,-3.2769999999999997
High,Open,2,10,12,19,0.047,0.295,0.591,2.736,-0.35600000000000004,-0.361,-0.391,-6.245
High,Open,2,11,12,19,0.047,0.295,0.755,2.736,-0.35600000000000004,-0.361,-0.391,-6.245
High,Open,2,12,13,19,0.42200000000000004,0.521,0.755,3.0839999999999996,-0.35600000000000004,-0.361,-0.391,-6.245
High,Open,2,13,13,19,0.42200000000000004,0.521,0.755,3.0839999999999996,-0.35600000000000004,-0.361,-0.391,-6.245
High,Open,2,14,13,19,0.521,0.7509999999999999,0.755,3.0839999999999996,-0.35600000000000004,-0.361,-0.391,-6.245
High,Open,3,4,1,16,0.055999999999999994,,,0.055999999999999994,-0.049,-0.07,-0.193,-1.965
High,Open,3,6,5,19,0.295,0.348,0.6629999999999999,1.237,-0.193,-0.391,-0.565,-3.495
High,Open,3,7,10,19,0.047,0.295,0.348,1.6769999999999998,-0.193,-0.391,-0.565,-4.185
High,Open,3,8,11,19,0.047,0.295,0.348,1.84,-0.193,-0.391,-0.565,-4.185
High,Open,3,9,12,19,0.047,0.295,0.40299999999999997,2.4530000000000003,-0.193,-0.391,-0.565,-4.185
High,Open,3,10,13,19,0.047,0.295,0.40299999999999997,2.623,-0.193,-0.391,-0.565,-4.185
High,Open,3,11,13,19,0.047,0.295,0.40299999999999997,2.623,-0.193,-0.391,-0.565,-4.185
High,Open,3,12,14,19,0.40299999999999997,0.42200000000000004,0.507,3.0839999999999996,-0.193,-0.391,-0.565,-4.185
High,Open,3,13,14,19,0.40299999999999997,0.42200000000000004,0.507,3.0839999999999996,-0.193,-0.391,-0.565,-4.185
High,Open,3,14,14,19,0.40299999999999997,0.507,0.723,3.0839999999999996,-0.193,-0.391,-0.565,-4.185
High,Open,3,15,14,19,0.40299999999999997,0.507,0.723,3.0839999999999996,-0.391,-0.565,-0.618,-6.229
High,Open,3,16,14,19,0.40299999999999997,0.507,0.723,3.0839999999999996,-0.391,-0.565,-0.618,-13.854000000000001
High,Open,3,17,14,19,0.40299999999999997,0.507,0.723,3.252,-0.391,-0.565,-0.618,-13.854000000000001
High,Open,3,18,14,19,0.40299999999999997,0.507,0.723,3.818,-0.391,-0.565,-0.618,-14.52
High,Open,3,19,14,19,0.40299999999999997,0.507,0.723,4.814,-0.391,-0.565,-0.618,-14.52
High,Open,3,20,14,19,0.40299999999999997,0.507,0.723,8.107999999999999,-0.391,-0.565,-0.618,-14.52
High,Open,3,21,14,19,0.40299999999999997,0.507,0.723,8.107999999999999,-0.391,-0.565,-0.618,-14.52
High,Open,3,22,15,19,0.40299999999999997,0.507,0.723,8.107999999999999,-0.391,-0.565,-0.618,-14.52
High,Open,3,23,15,19,0.40299999999999997,0.507,0.723,8.107999999999999,-0.391,-0.565,-0.629,-14.52
High,Open,3,24,16,19,0.099,0.40299999999999997,0.507,8.107999999999999,-0.391,-0.565,-0.629,-14.52
High,Open,3,25,16,19,0.099,0.40299999999999997,0.507,8.107999999999999,-0.391,-0.565,-0.629,-14.52
High,Open,3,26,17,19,0.099,0.40299999999999997,0.507,8.107999999999999,-0.391,-0.565,-0.629,-14.52
High,Open,3,27,17,19,0.40299999999999997,0.507,0.723,8.107999999999999,-0.391,-0.565,-0.629,-14.52
High,Open,3,28,17,19,0.40299999999999997,0.507,0.723,10.101,-0.391,-0.565,-0.629,-14.52
High,Open,3,29,17,19,0.40299999999999997,0.507,0.723,10.101,-0.391,-0.565,-0.629,-14.52
High,Open,3,30,17,19,0.40299999999999997,0.507,0.723,10.101,-0.391,-0.565,-0.629,-14.52
High,Open,6,19,18,19,0.12300000000000001,0.376,0.418,4.181,-0.261,-0.455,-0.488,-14.595999999999998
High,Open,6,20,18,19,0.12300000000000001,0.376,0.418,7.455,-0.285,-0.455,-0.488,-14.595999999999998
High,Open,6,21,18,19,0.12300000000000001,0.376,0.418,7.455,-0.285,-0.455,-0.488,-14.595999999999998
High,Open,6,22,18,19,0.12300000000000001,0.376,0.418,7.455,-0.285,-0.455,-0.488,-14.595999999999998
High,Open,6,23,18,19,0.12300000000000001,0.376,0.418,7.455,-0.285,-0.455,-0.488,-14.595999999999998
High,Open,6,24,18,19,0.376,0.418,0.8340000000000001,7.455,-0.455,-0.495,-0.499,-14.595999999999998
High,Open,6,25,18,19,0.376,0.418,0.8340000000000001,7.455,-0.455,-0.499,-0.636,-14.595999999999998
High,Open,6,26,18,19,0.376,0.418,0.8340000000000001,7.455,-0.455,-0.499,-0.636,-14.595999999999998
High,Open,6,27,18,19,0.376,0.418,0.8340000000000001,7.455,-0.455,-0.499,-0.636,-14.595999999999998
High,Open,6,28,18,19,0.376,0.418,0.8340000000000001,9.436,-0.455,-0.499,-0.636,-14.595999999999998
High,Open,6,29,18,19,0.376,0.418,0.8340000000000001,9.436,-0.455,-0.499,-0.636,-14.595999999999998
High,Open,6,30,18,19,0.376,0.418,0.8340000000000001,9.436,-0.455,-0.499,-0.636,-14.595999999999998
High,Open,7,8,0,15,,,,,-0.069,-0.127,-0.335,-1.544
High,Open,7,19,17,19,0.233,0.376,0.418,3.7110000000000003,-0.261,-0.336,-0.513,-14.595999999999998
High,Open,7,20,17,19,0.376,0.418,0.6970000000000001,6.97,-0.285,-0.336,-0.513,-14.595999999999998
High,Open,7,21,17,19,0.376,0.418,0.6970000000000001,6.97,-0.285,-0.336,-0.513,-14.595999999999998
High,Open,7,22,17,19,0.376,0.418,0.746,6.97,-0.285,-0.336,-0.513,-14.595999999999998
High,Open,7,23,17,19,0.376,0.418,0.746,6.97,-0.285,-0.336,-0.513,-14.595999999999998
High,Open,8,19,17,19,0.376,0.418,0.515,3.589,-0.19899999999999998,-0.261,-0.336,-14.595999999999998
High,Open,8,20,17,19,0.376,0.418,0.654,6.845,-0.19899999999999998,-0.285,-0.336,-14.595999999999998
High,Open,8,21,17,19,0.376,0.418,0.654,6.845,-0.19899999999999998,-0.285,-0.336,-14.595999999999998
High,Open,8,22,17,19,0.376,0.418,0.654,6.845,-0.19899999999999998,-0.285,-0.336,-14.595999999999998
High,Open,8,23,17,19,0.376,0.418,0.654,6.845,-0.19899999999999998,-0.285,-0.336,-14.595999999999998
High,Open,8,24,17,19,0.376,0.418,0.654,6.845,-0.19899999999999998,-0.494,-0.7290000000000001,-14.595999999999998
High,Open,8,25,17,19,0.376,0.418,0.654,6.845,-0.19899999999999998,-0.494,-0.7290000000000001,-14.595999999999998
High,Open,8,26,17,19,0.376,0.418,0.654,6.845,-0.19899999999999998,-0.494,-0.7290000000000001,-14.595999999999998
High,Open,8,27,17,19,0.376,0.418,0.654,6.845,-0.19899999999999998,-0.494,-0.7290000000000001,-14.595999999999998
High,Open,8,28,17,19,0.376,0.418,0.654,8.815,-0.19899999999999998,-0.494,-0.7290000000000001,-14.595999999999998
High,Open,8,29,17,19,0.376,0.418,0.654,8.815,-0.19899999999999998,-0.494,-0.7290000000000001,-14.595999999999998
High,Open,8,30,17,19,0.376,0.418,0.654,8.815,-0.19899999999999998,-0.494,-0.7290000000000001,-14.595999999999998
High,Open,9,19,14,19,0.053,0.10300000000000001,0.161,3.589,-0.19899999999999998,-0.261,-0.336,-15.214
High,Open,9,20,15,19,0.053,0.10300000000000001,0.161,6.845,-0.19899999999999998,-0.285,-0.336,-15.214
High,Open,9,21,16,19,0.053,0.10300000000000001,0.161,6.845,-0.19899999999999998,-0.285,-0.336,-15.214
High,Open,9,22,16,19,0.053,0.10300000000000001,0.161,6.845,-0.19899999999999998,-0.285,-0.336,-15.214
High,Open,9,23,16,19,0.053,0.10300000000000001,0.161,6.845,-0.19899999999999998,-0.285,-0.336,-15.214
High,Open,9,24,16,19,0.053,0.10300000000000001,0.161,6.845,-0.19899999999999998,-0.667,-0.7290000000000001,-15.214
High,Open,9,25,16,19,0.053,0.10300000000000001,0.161,6.845,-0.19899999999999998,-0.667,-0.7290000000000001,-15.214
High,Open,9,26,16,19,0.053,0.10300000000000001,0.161,6.845,-0.19899999999999998,-0.667,-0.7290000000000001,-15.214
High,Open,9,27,16,19,0.053,0.10300000000000001,0.161,6.845,-0.19899999999999998,-0.667,-0.7290000000000001,-15.214
High,Open,9,28,17,19,0.053,0.10300000000000001,0.161,8.815,-0.19899999999999998,-0.667,-0.7290000000000001,-15.214
High,Open,9,29,17,19,0.053,0.161,0.5579999999999999,8.815,-0.19899999999999998,-0.667,-0.7290000000000001,-15.214
High,Open,9,30,17,19,0.053,0.161,0.6829999999999999,8.815,-0.19899999999999998,-0.667,-0.7290000000000001,-15.214
High,Open,10,12,5,18,0.10300000000000001,0.501,0.6859999999999999,1.577,-0.19899999999999998,-0.23199999999999998,-0.237,-2.0869999999999997
High,Open,10,13,6,19,0.10300000000000001,0.501,0.6859999999999999,2.398,-0.19899999999999998,-0.23199999999999998,-0.244,-2.0869999999999997
High,Open,10,14,6,19,0.10300000000000001,0.501,0.6859999999999999,2.398,-0.19899999999999998,-0.23199999999999998,-0.507,-3.5060000000000002
High,Open,10,15,8,19,0.10300000000000001,0.10800000000000001,0.264,2.398,-0.19899999999999998,-0.23199999999999998,-0.507,-6.797000000000001
High,Open,10,16,9,19,0.10300000000000001,0.10800000000000001,0.264,2.398,-0.19899999999999998,-0.23199999999999998,-0.507,-14.376
High,Open,10,17,9,19,0.10300000000000001,0.10800000000000001,0.264,2.9160000000000004,-0.19899999999999998,-0.23199999999999998,-0.507,-14.376
High,Open,10,18,9,19,0.10300000000000001,0.364,0.6859999999999999,2.9160000000000004,-0.19899999999999998,-0.23199999999999998,-0.507,-15.038
High,Open,10,19,9,19,0.10300000000000001,0.364,0.6859999999999999,3.589,-0.19899999999999998,-0.23199999999999998,-0.507,-15.038
High,Open,10,20,10,19,0.10300000000000001,0.364,0.6859999999999999,6.845,-0.19899999999999998,-0.23199999999999998,-0.507,-15.038
High,Open,10,21,11,19,0.10300000000000001,0.364,0.6859999999999999,6.845,-0.19899999999999998,-0.23199999999999998,-0.507,-15.038
High,Open,10,22,11,19,0.10300000000000001,0.529,0.6859999999999999,6.845,-0.19899999999999998,-0.23199999999999998,-0.507,-15.038
High,Open,10,23,11,19,0.10300000000000001,0.529,0.6859999999999999,6.845,-0.19899999999999998,-0.23199999999999998,-0.596,-15.038
High,Open,10,24,12,19,0.10300000000000001,0.6859999999999999,0.698,6.845,-0.19899999999999998,-0.23199999999999998,-0.855,-15.038
High,Open,10,25,12,19,0.10300000000000001,0.6859999999999999,0.698,6.845,-0.19899999999999998,-0.23199999999999998,-0.855,-15.038
High,Open,10,26,12,19,0.10300000000000001,0.6859999999999999,0.698,6.845,-0.19899999999999998,-0.23199999999999998,-0.855,-15.038
High,Open,10,27,12,19,0.10300000000000001,0.6859999999999999,0.698,6.845,-0.19899999999999998,-0.23199999999999998,-0.855,-15.038
High,Open,10,28,13,19,0.10300000000000001,0.19699999999999998,0.6859999999999999,8.815,-0.19899999999999998,-0.23199999999999998,-0.855,-15.038
High,Open,10,29,14,19,0.132,0.19699999999999998,0.6829999999999999,8.815,-0.19899999999999998,-0.23199999999999998,-0.855,-15.038
High,Open,10,30,14,19,0.132,0.6829999999999999,0.6859999999999999,8.815,-0.19899999999999998,-0.23199999999999998,-0.855,-15.038
High,Open,11,14,4,19,0.038,0.10300000000000001,0.8190000000000001,0.927,-0.287,-0.295,-0.485,-3.5060000000000002
High,Open,11,15,6,19,0.033,0.038,0.10300000000000001,0.927,-0.287,-0.295,-0.485,-5.649
High,Open,11,16,7,19,0.033,0.10300000000000001,0.10800000000000001,0.927,-0.485,-0.536,-0.885,-13.321
High,Open,11,17,8,19,0.033,0.10300000000000001,0.10800000000000001,1.4369999999999998,-0.485,-0.536,-0.885,-13.321
High,Open,11,18,9,19,0.10300000000000001,0.132,0.192,1.755,-0.485,-0.536,-0.885,-13.991
High,Open,11,19,9,19,0.10300000000000001,0.132,0.515,2.7319999999999998,-0.485,-0.885,-1.037,-13.991
High,Open,11,20,10,19,0.10300000000000001,0.132,0.515,5.96,-0.485,-0.885,-1.037,-13.991
High,Open,11,21,11,19,0.10300000000000001,0.132,0.515,5.96,-0.485,-0.885,-1.037,-13.991
High,Open,11,22,11,19,0.10300000000000001,0.297,0.515,5.96,-0.485,-0.885,-1.037,-13.991
High,Open,11,23,11,19,0.10300000000000001,0.297,0.515,5.96,-0.485,-0.885,-1.037,-13.991
High,Open,11,24,12,19,0.10300000000000001,0.515,0.594,5.96,-0.485,-0.885,-1.037,-13.991
High,Open,11,25,12,19,0.10300000000000001,0.515,0.726,5.96,-0.485,-0.885,-1.037,-13.991
High,Open,11,26,12,19,0.10300000000000001,0.515,0.8190000000000001,5.96,-0.485,-0.885,-1.037,-13.991
High,Open,12,27,10,19,0.521,0.71,1.5330000000000001,6.667000000000001,-0.38299999999999995,-0.46,-0.583,-13.665999999999999
High,Open,12,28,11,19,0.19699999999999998,0.521,0.71,8.633,-0.38299999999999995,-0.46,-0.583,-13.665999999999999
High,Open,12,29,13,19,0.19699999999999998,0.257,0.444,8.633,-0.38299999999999995,-0.46,-0.583,-13.665999999999999
High,Open,12,30,13,19,0.257,0.444,0.521,8.633,-0.38299999999999995,-0.46,-0.583,-13.665999999999999
High,Open,13,16,3,19,0.17300000000000001,0.21899999999999997,1.067,1.067,-0.16699999999999998,-0.179,-0.19399999999999998,-8.7
High,Open,13,17,6,19,0.149,0.17300000000000001,0.326,1.255,-0.16699999999999998,-0.179,-0.46,-8.7
High,Open,13,18,8,19,0.099,0.149,0.17300000000000001,2.862,-0.16699999999999998,-0.287,-0.46,-9.406
High,Open,13,19,8,19,0.099,0.17300000000000001,0.193,3.8489999999999998,-0.16699999999999998,-0.287,-0.46,-9.406
High,Open,13,20,10,19,0.099,0.17300000000000001,0.193,7.1129999999999995,-0.16699999999999998,-0.46,-0.479,-9.406
High,Open,13,21,11,19,0.099,0.17300000000000001,0.193,7.1129999999999995,-0.16699999999999998,-0.46,-0.479,-9.406
High,Open,13,22,11,19,0.17300000000000001,0.193,0.264,7.1129999999999995,-0.16699999999999998,-0.46,-0.479,-9.406
High,Open,13,23,11,19,0.17300000000000001,0.193,0.264,7.1129999999999995,-0.16699999999999998,-0.46,-0.479,-9.406
High,Open,13,24,12,19,0.17300000000000001,0.193,0.326,7.1129999999999995,-0.16699999999999998,-0.46,-0.479,-9.406
High,Open,13,25,12,19,0.17300000000000001,0.193,0.326,7.1129999999999995,-0.16699999999999998,-0.46,-0.479,-9.406
High,Open,13,26,12,19,0.193,0.268,0.326,7.1129999999999995,-0.16699999999999998,-0.46,-0.479,-9.406
High,Open,13,27,12,19,0.193,0.268,0.326,7.1129999999999995,-0.16699999999999998,-0.46,-0.479,-9.406
High,Open,13,28,12,19,0.193,0.326,0.455,9.088,-0.16699999999999998,-0.46,-0.479,-9.406
High,Open,13,29,14,19,0.193,0.257,0.326,9.088,-0.16699999999999998,-0.46,-0.479,-9.406
High,Open,13,30,14,19,0.193,0.257,0.326,9.088,-0.16699999999999998,-0.46,-0.479,-9.406
High,Open,14,16,2,17,0.10800000000000001,0.308,,0.308,-0.19399999999999998,-0.36200000000000004,-0.46,-8.7
High,Open,14,18,4,19,0.099,0.308,0.698,0.71,-0.36200000000000004,-0.46,-0.5,-9.406
High,Open,14,19,5,19,0.099,0.308,0.649,1.172,-0.46,-0.5,-0.578,-9.406
High,Open,14,20,8,19,0.099,0.341,0.425,3.812,-0.46,-0.5,-0.578,-9.406
High,Open,14,21,9,19,0.099,0.341,0.425,3.812,-0.46,-0.578,-0.616,-9.406
High,Open,14,22,9,19,0.264,0.341,0.425,3.812,-0.46,-0.578,-0.616,-9.406
High,Open,14,23,9,19,0.264,0.341,0.425,3.812,-0.46,-0.9109999999999999,-1.097,-9.406
High,Open,14,24,10,19,0.425,0.455,0.561,3.812,-0.46,-1.1159999999999999,-1.188,-9.406
High,Open,14,25,10,19,0.425,0.455,0.6920000000000001,3.812,-0.46,-1.1159999999999999,-1.188,-9.406
High,Open,14,26,11,19,0.091,0.425,0.455,3.812,-0.46,-1.1159999999999999,-1.188,-9.406
High,Open,14,27,11,19,0.091,0.425,0.455,3.812,-0.46,-1.301,-1.3519999999999999,-9.406
High,Open,14,28,12,19,0.091,0.425,0.455,5.726,-0.46,-1.301,-1.3519999999999999,-9.406
High,Open,14,29,12,19,0.091,0.455,0.71,5.726,-0.46,-1.301,-1.3519999999999999,-9.406
High,Open,14,30,12,19,0.374,0.455,0.71,5.726,-0.46,-1.301,-1.3519999999999999,-9.406
High,Open,15,16,1,17,0.1,,,0.1,-0.19399999999999998,-0.349,-0.36200000000000004,-8.7
High,Open,15,18,4,19,0.031,0.099,0.1,0.3,-0.349,-0.36200000000000004,-0.43,-9.406
High,Open,15,19,8,19,0.031,0.099,0.1,0.898,-0.349,-0.43,-0.564,-9.406
High,Open,15,20,9,19,0.031,0.099,0.21600000000000003,3.812,-0.349,-0.43,-0.564,-9.406
High,Open,16,17,1,16,0.061,,,0.061,-0.092,-0.134,-0.23199999999999998,-3.069
High,Open,16,18,2,19,0.061,1.4709999999999999,,1.4709999999999999,-0.092,-0.134,-0.193,-3.819
High,Open,16,19,5,19,0.061,0.597,0.649,1.4709999999999999,-0.092,-0.134,-0.261,-3.819
High,Open,16,20,8,19,0.061,0.341,0.597,3.812,-0.092,-0.134,-0.261,-3.819
High,Open,16,21,9,19,0.341,0.42700000000000005,0.597,3.812,-0.092,-0.134,-0.578,-3.819
High,Open,16,22,9,19,0.341,0.42700000000000005,0.597,3.812,-0.092,-0.134,-0.578,-3.819
High,Open,16,23,10,19,0.022000000000000002,0.341,0.42700000000000005,3.812,-0.092,-0.134,-0.735,-3.819
High,Open,16,24,10,19,0.42700000000000005,0.455,0.597,3.812,-0.092,-0.134,-0.735,-4.88
High,Open,16,25,10,19,0.455,0.597,1.069,3.812,-0.092,-0.134,-0.735,-7.431
High,Open,16,26,12,19,0.009000000000000001,0.091,0.455,4.739,-0.092,-0.134,-0.735,-7.431
High,Open,16,27,12,19,0.009000000000000001,0.091,0.455,4.739,-0.092,-0.134,-0.735,-7.431
High,Open,16,28,13,19,0.091,0.146,0.455,5.726,-0.092,-0.134,-0.735,-7.431
High,Open,16,29,14,19,0.091,0.146,0.223,5.726,-0.092,-0.134,-0.735,-7.431
High,Open,16,30,14,19,0.146,0.223,0.374,5.726,-0.092,-0.134,-0.735,-8.433
High,Open,17,18,2,17,0.018000000000000002,0.099,,0.099,-0.054000000000000006,-0.057999999999999996,-0.193,-3.35
High,Open,17,20,10,19,0.018000000000000002,0.037000000000000005,0.099,3.812,-0.16699999999999998,-0.212,-0.223,-3.35
High,Open,17,21,13,19,0.018000000000000002,0.037000000000000005,0.099,3.812,-0.16699999999999998,-0.212,-0.415,-3.35
High,Open,17,22,13,19,0.018000000000000002,0.037000000000000005,0.102,3.812,-0.16699999999999998,-0.212,-0.415,-3.485
High,Open,17,23,13,19,0.018000000000000002,0.037000000000000005,0.102,3.812,-0.16699999999999998,-0.5579999999999999,-0.6779999999999999,-3.485
High,Open,17,24,13,19,0.018000000000000002,0.037000000000000005,0.102,4.053999999999999,-0.16699999999999998,-0.5579999999999999,-0.701,-4.8
High,Open,17,25,14,19,0.018000000000000002,0.037000000000000005,0.102,4.053999999999999,-0.16699999999999998,-0.5579999999999999,-0.701,-7.353
High,Open,17,26,14,19,0.037000000000000005,0.102,0.327,5.25,-0.16699999999999998,-0.5579999999999999,-0.701,-7.353
High,Open,17,27,14,19,0.037000000000000005,0.102,0.327,5.25,-0.16699999999999998,-0.5579999999999999,-0.701,-7.353
High,Open,17,28,15,19,0.037000000000000005,0.102,0.184,5.726,-0.16699999999999998,-0.5579999999999999,-0.701,-7.353
High,Open,17,29,16,19,0.037000000000000005,0.102,0.184,5.726,-0.16699999999999998,-0.5579999999999999,-0.701,-7.353
High,Open,17,30,16,19,0.037000000000000005,0.102,0.184,5.726,-0.16699999999999998,-0.5579999999999999,-0.701,-8.355
High,Open,18,21,7,19,0.42700000000000005,0.915,0.976,3.1430000000000002,-0.16699999999999998,-0.22,-0.7020000000000001,-3.502
High,Open,18,22,7,19,0.42700000000000005,0.915,0.976,3.1430000000000002,-0.16699999999999998,-0.22,-0.7020000000000001,-3.502
High,Open,18,23,9,19,0.24,0.42700000000000005,0.517,3.1430000000000002,-0.16699999999999998,-0.565,-0.7020000000000001,-3.502
High,Open,18,24,9,19,0.24,0.42700000000000005,1.0290000000000001,3.1430000000000002,-0.16699999999999998,-0.565,-0.735,-3.59
High,Open,18,25,10,19,0.24,0.55,1.0290000000000001,3.1430000000000002,-0.16699999999999998,-0.565,-0.735,-6.175
High,Open,18,26,12,19,0.24,0.302,0.784,5.085,-0.16699999999999998,-0.565,-0.735,-6.175
High,Open,18,27,12,19,0.24,0.302,0.784,5.085,-0.16699999999999998,-0.565,-0.735,-6.175
High,Open,18,28,13,19,0.302,0.45,0.47700000000000004,5.085,-0.16699999999999998,-0.565,-0.735,-6.175
High,Open,18,29,14,19,0.302,0.35600000000000004,0.45,5.085,-0.16699999999999998,-0.565,-0.735,-6.175
High,Open,18,30,14,19,0.35600000000000004,0.47700000000000004,0.5870000000000001,5.349,-0.16699999999999998,-0.565,-0.735,-7.19
High,Open,23,27,13,19,0.057999999999999996,0.22699999999999998,0.39399999999999996,2.6510000000000002,-0.026000000000000002,-0.076,-0.264,-4.699
High,Open,23,28,16,19,0.057999999999999996,0.09,0.226,2.8080000000000003,-0.026000000000000002,-0.076,-0.264,-4.699
High,Open,23,29,16,19,0.057999999999999996,0.09,0.22699999999999998,2.8080000000000003,-0.026000000000000002,-0.076,-0.264,-4.699
High,Open,23,30,16,19,0.057999999999999996,0.22699999999999998,0.493,2.91,-0.026000000000000002,-0.076,-0.264,-5.73
High,Open,24,27,9,19,0.252,0.39399999999999996,0.48200000000000004,2.608,-0.05,-0.22899999999999998,-0.263,-2.94
Close,Low,3,4,2,16,0.17600000000000002,0.467,,0.467,-0.132,-0.237,-0.24600000000000002,-3.455
Close,Low,3,5,3,18,0.17600000000000002,0.467,1.13,1.13,-0.132,-0.237,-0.24600000000000002,-3.455
Close,Low,3,6,6,19,0.047,0.048,0.17600000000000002,1.382,-0.132,-0.237,-0.24600000000000002,-3.455
Close,Low,3,7,9,19,0.17600000000000002,0.467,0.542,1.515,-0.132,-0.237,-0.24600000000000002,-3.455
Close,Low,3,8,12,19,0.147,0.17600000000000002,0.467,1.767,-0.132,-0.237,-0.24600000000000002,-3.455
Close,Low,3,9,12,19,0.17600000000000002,0.467,0.613,1.767,-0.132,-0.237,-0.24600000000000002,-3.455
Close,Low,3,10,13,19,0.015,0.17600000000000002,0.467,2.0869999999999997,-0.132,-0.237,-0.24600000000000002,-3.455
Close,Low,3,11,14,19,0.29600000000000004,0.467,0.5479999999999999,2.484,-0.132,-0.237,-0.24600000000000002,-3.455
Close,Low,3,12,14,19,0.5479999999999999,0.613,0.857,2.931,-0.132,-0.237,-0.24600000000000002,-4.675
Close,Low,3,13,14,19,0.5479999999999999,0.8490000000000001,0.857,2.931,-0.132,-0.237,-0.24600000000000002,-4.675
Close,Low,3,14,14,19,0.5479999999999999,0.8490000000000001,0.857,2.931,-0.132,-0.237,-0.24600000000000002,-4.675
Close,Low,3,15,14,19,0.5479999999999999,0.8490000000000001,0.857,2.931,-0.132,-0.237,-0.24600000000000002,-13.833
Close,Low,3,16,14,19,0.615,0.8490000000000001,0.867,3.178,-0.132,-0.237,-0.24600000000000002,-14.799000000000001
Close,Low,3,17,15,19,0.33899999999999997,0.615,0.8490000000000001,3.7239999999999998,-0.132,-0.237,-0.24600000000000002,-14.799000000000001
Close,Low,3,18,16,19,0.33,0.33899999999999997,0.8029999999999999,4.276,-0.132,-0.237,-0.24600000000000002,-14.799000000000001
Close,Low,3,19,16,19,0.33,0.33899999999999997,0.8029999999999999,5.277,-0.132,-0.237,-0.24600000000000002,-14.799000000000001
Close,Low,3,20,16,19,0.33,0.33899999999999997,0.8029999999999999,5.277,-0.132,-0.237,-0.24600000000000002,-14.799000000000001
Close,Low,3,21,16,19,0.33,0.8029999999999999,0.867,5.277,-0.132,-0.237,-0.24600000000000002,-14.799000000000001
Close,Low,3,22,16,19,0.33,0.8029999999999999,0.867,5.277,-0.237,-0.24600000000000002,-0.271,-14.799000000000001
Close,Low,3,23,16,19,0.33,0.8029999999999999,0.867,5.277,-0.237,-0.24600000000000002,-0.271,-14.799000000000001
Close,Low,3,24,17,19,0.562,0.8029999999999999,0.867,5.277,-0.237,-0.24600000000000002,-0.271,-14.799000000000001
Close,Low,3,25,17,19,0.8029999999999999,0.867,0.899,5.294,-0.237,-0.24600000000000002,-0.271,-14.799000000000001
Close,Low,3,26,17,19,0.8029999999999999,0.867,0.899,7.737,-0.237,-0.24600000000000002,-0.271,-14.799000000000001
Close,Low,3,27,17,19,0.8029999999999999,0.867,0.899,7.9910000000000005,-0.237,-0.24600000000000002,-0.271,-14.799000000000001
Close,Low,3,28,17,19,0.8029999999999999,0.867,0.899,10.587,-0.237,-0.24600000000000002,-0.271,-14.799000000000001
Close,Low,3,29,17,19,0.8029999999999999,0.867,0.899,10.587,-0.237,-0.24600000000000002,-0.271,-14.799000000000001
Close,Low,3,30,17,19,0.8029999999999999,0.867,0.899,10.587,-0.237,-0.24600000000000002,-0.271,-14.799000000000001
Close,Low,6,10,9,19,0.024,0.083,0.298,1.357,-0.11900000000000001,-0.131,-0.28,-2.101
Close,Low,6,11,13,19,0.024,0.13699999999999998,0.33299999999999996,1.554,-0.11900000000000001,-0.131,-0.28,-2.101
Close,Low,6,12,14,19,0.024,0.13699999999999998,0.33299999999999996,2.552,-0.11900000000000001,-0.131,-0.28,-5.84
Close,Low,6,13,15,19,0.024,0.094,0.13699999999999998,2.552,-0.11900000000000001,-0.131,-0.28,-5.84
Close,Low,6,14,15,19,0.024,0.094,0.13699999999999998,2.552,-0.11900000000000001,-0.131,-0.28,-5.84
Close,Low,6,15,16,19,0.024,0.094,0.17300000000000001,2.552,-0.11900000000000001,-0.28,-0.384,-14.885
Close,Low,6,16,17,19,0.024,0.094,0.115,2.552,-0.11900000000000001,-0.28,-0.384,-15.84
Close,Low,6,17,17,19,0.024,0.094,0.192,2.719,-0.11900000000000001,-0.28,-0.384,-15.84
Close,Low,6,18,17,19,0.024,0.094,0.192,3.259,-0.11900000000000001,-0.28,-0.384,-15.84
Close,Low,6,19,17,19,0.024,0.094,0.33899999999999997,4.251,-0.11900000000000001,-0.28,-0.401,-15.84
Close,Low,6,20,17,19,0.024,0.33899999999999997,0.743,4.251,-0.11900000000000001,-0.28,-0.401,-15.84
Close,Low,6,21,17,19,0.024,0.33899999999999997,0.743,4.251,-0.11900000000000001,-0.28,-0.401,-15.84
Close,Low,6,22,17,19,0.024,0.33899999999999997,0.743,4.251,-0.11900000000000001,-0.28,-0.401,-15.84
Close,Low,6,23,17,19,0.024,0.33899999999999997,0.743,4.251,-0.11900000000000001,-0.28,-0.401,-15.84
Close,Low,6,24,17,19,0.024,0.33899999999999997,0.743,4.251,-0.11900000000000001,-0.28,-0.401,-15.84
Close,Low,6,25,17,19,0.024,0.33899999999999997,0.743,4.2669999999999995,-0.11900000000000001,-0.28,-0.401,-15.84
Close,Low,6,26,17,19,0.024,0.33899999999999997,0.871,6.687,-0.11900000000000001,-0.28,-0.401,-15.84
Close,Low,6,27,17,19,0.024,0.33899999999999997,0.871,6.939,-0.11900000000000001,-0.28,-0.401,-15.84
Close,Low,6,28,17,19,0.024,0.33899999999999997,0.871,9.509,-0.11900000000000001,-0.28,-0.401,-15.84
Close,Low,6,29,17,19,0.024,0.33899999999999997,0.871,9.509,-0.11900000000000001,-0.28,-0.401,-15.84
Close,Low,6,30,17,19,0.024,0.33899999999999997,0.871,9.509,-0.11900000000000001,-0.28,-0.401,-15.84
Close,Low,7,9,3,19,0.10800000000000001,0.156,0.239,0.239,-0.11599999999999999,-0.11900000000000001,-0.131,-2.016
Close,Low,7,10,5,19,0.102,0.298,0.33899999999999997,1.0170000000000001,-0.11900000000000001,-0.131,-0.315,-2.016
Close,Low,7,11,11,19,0.016,0.08199999999999999,0.284,1.41,-0.11900000000000001,-0.131,-0.315,-2.016
Close,Low,7,12,13,19,0.08199999999999999,0.2,0.271,1.5130000000000001,-0.11900000000000001,-0.131,-0.384,-5.84
Close,Low,7,13,15,19,0.034,0.08199999999999999,0.2,2.208,-0.11900000000000001,-0.131,-0.384,-5.84
Close,Low,7,14,15,19,0.08199999999999999,0.2,0.23399999999999999,2.208,-0.11900000000000001,-0.131,-0.384,-5.84
Close,Low,7,15,16,19,0.17300000000000001,0.2,0.23399999999999999,2.208,-0.11900000000000001,-0.384,-0.493,-14.885
Close,Low,7,16,16,19,0.2,0.23399999999999999,0.33299999999999996,2.208,-0.11900000000000001,-0.384,-0.493,-15.84
Close,Low,7,17,16,19,0.2,0.23399999999999999,0.33299999999999996,2.821,-0.11900000000000001,-0.384,-0.493,-15.84
Close,Low,7,18,16,19,0.2,0.23399999999999999,0.33899999999999997,4.453,-0.11900000000000001,-0.384,-0.493,-15.84
Close,Low,7,19,16,19,0.2,0.23399999999999999,0.33899999999999997,5.455,-0.11900000000000001,-0.493,-0.501,-15.84
Close,Low,7,20,16,19,0.2,0.33899999999999997,0.539,5.455,-0.11900000000000001,-0.493,-0.501,-15.84
Close,Low,7,21,16,19,0.2,0.33899999999999997,0.539,5.455,-0.11900000000000001,-0.493,-0.598,-15.84
Close,Low,7,22,16,19,0.2,0.33899999999999997,0.539,5.455,-0.11900000000000001,-0.493,-0.598,-15.84
Close,Low,7,23,16,19,0.2,0.33899999999999997,0.539,5.455,-0.11900000000000001,-0.493,-0.598,-15.84
Close,Low,7,24,16,19,0.2,0.33899999999999997,0.539,5.455,-0.11900000000000001,-0.493,-0.598,-15.84
Close,Low,7,25,16,19,0.2,0.33899999999999997,0.539,5.472,-0.11900000000000001,-0.493,-0.598,-15.84
Close,Low,7,26,16,19,0.2,0.33899999999999997,0.539,7.92,-0.11900000000000001,-0.493,-0.598,-15.84
Close,Low,7,27,16,19,0.2,0.33899999999999997,0.539,8.175,-0.11900000000000001,-0.493,-0.598,-15.84
Close,Low,7,28,16,19,0.33899999999999997,0.539,0.9620000000000001,10.775,-0.11900000000000001,-0.493,-0.598,-15.84
Close,Low,7,29,16,19,0.33899999999999997,0.539,0.9620000000000001,10.775,-0.11900000000000001,-0.493,-0.598,-15.84
Close,Low,7,30,16,19,0.33899999999999997,0.539,0.9620000000000001,10.775,-0.11900000000000001,-0.493,-0.598,-15.84
Close,Low,8,9,1,17,0.10800000000000001,,,0.10800000000000001,-0.11599999999999999,-0.11900000000000001,-0.214,-1.141
Close,Low,8,10,5,19,0.191,0.298,0.33899999999999997,0.919,-0.11900000000000001,-0.214,-0.217,-1.439
Close,Low,8,11,9,19,0.272,0.284,0.33299999999999996,0.919,-0.11900000000000001,-0.214,-0.217,-1.439
Close,Low,8,12,12,19,0.20800000000000002,0.271,0.284,1.671,-0.11900000000000001,-0.217,-0.344,-5.84
Close,Low,8,13,13,19,0.141,0.20800000000000002,0.271,2.47,-0.11900000000000001,-0.217,-0.344,-5.84
Close,Low,8,14,14,19,0.141,0.20800000000000002,0.271,2.47,-0.11900000000000001,-0.217,-0.344,-5.84
Close,Low,8,15,14,19,0.141,0.20800000000000002,0.271,2.47,-0.11900000000000001,-0.217,-0.344,-14.885
Close,Low,8,16,14,19,0.141,0.20800000000000002,0.33299999999999996,2.47,-0.11900000000000001,-0.217,-0.344,-15.84
Close,Low,8,17,15,19,0.141,0.20800000000000002,0.33299999999999996,2.702,-0.11900000000000001,-0.217,-0.344,-15.84
Close,Low,8,18,16,19,0.141,0.20800000000000002,0.278,2.845,-0.11900000000000001,-0.217,-0.344,-15.84
Close,Low,8,19,16,19,0.141,0.20800000000000002,0.33899999999999997,3.832,-0.11900000000000001,-0.217,-0.344,-15.84
Close,Low,8,20,16,19,0.20800000000000002,0.33899999999999997,0.46299999999999997,3.832,-0.11900000000000001,-0.217,-0.344,-15.84
Close,Low,8,21,16,19,0.20800000000000002,0.33899999999999997,0.46299999999999997,3.832,-0.11900000000000001,-0.217,-0.344,-15.84
Close,Low,8,22,16,19,0.20800000000000002,0.33899999999999997,0.46299999999999997,3.832,-0.11900000000000001,-0.217,-0.344,-15.84
Close,Low,8,23,16,19,0.20800000000000002,0.33899999999999997,0.539,3.832,-0.11900000000000001,-0.217,-0.344,-15.84
Close,Low,8,24,16,19,0.20800000000000002,0.33899999999999997,0.539,3.832,-0.11900000000000001,-0.217,-0.344,-15.84
Close,Low,8,25,16,19,0.20800000000000002,0.33899999999999997,0.539,3.8489999999999998,-0.11900000000000001,-0.217,-0.344,-15.84
Close,Low,8,26,16,19,0.20800000000000002,0.33899999999999997,0.539,6.257999999999999,-0.11900000000000001,-0.217,-0.344,-15.84
Close,Low,8,27,16,19,0.20800000000000002,0.33899999999999997,0.539,6.5089999999999995,-0.11900000000000001,-0.217,-0.344,-15.84
Close,Low,8,28,16,19,0.33899999999999997,0.539,0.871,9.07,-0.11900000000000001,-0.217,-0.344,-15.84
Close,Low,8,29,16,19,0.33899999999999997,0.539,0.871,9.07,-0.11900000000000001,-0.217,-0.344,-15.84
Close,Low,8,30,16,19,0.33899999999999997,0.539,0.871,9.07,-0.11900000000000001,-0.217,-0.344,-15.84
Close,Low,9,10,3,15,0.184,0.298,0.43700000000000006,0.43700000000000006,-0.05,-0.11900000000000001,-0.337,-3.16
Close,Low,9,11,7,18,0.184,0.272,0.284,0.904,-0.05,-0.11900000000000001,-0.337,-3.16
Close,Low,9,12,8,19,0.184,0.271,0.284,1.671,-0.05,-0.11900000000000001,-0.337,-6.683
Close,Low,9,13,9,19,0.034,0.271,0.284,2.47,-0.05,-0.11900000000000001,-0.337,-6.683
Close,Low,9,14,9,19,0.271,0.284,0.39399999999999996,2.47,-0.11900000000000001,-0.337,-0.344,-6.683
Close,Low,9,15,10,19,0.271,0.284,0.39399999999999996,2.47,-0.11900000000000001,-0.344,-0.368,-15.647
Close,Low,9,16,10,19,0.35200000000000004,0.39399999999999996,0.395,2.47,-0.11900000000000001,-0.344,-0.384,-16.593
Close,Low,9,17,13,19,0.12300000000000001,0.35200000000000004,0.395,2.654,-0.11900000000000001,-0.344,-0.384,-16.593
Close,Low,9,18,13,19,0.12300000000000001,0.539,0.546,2.845,-0.11900000000000001,-0.344,-0.384,-16.593
Close,Low,9,19,13,19,0.12300000000000001,0.539,0.546,3.832,-0.11900000000000001,-0.344,-0.435,-16.593
Close,Low,9,20,14,19,0.12300000000000001,0.539,0.546,3.832,-0.11900000000000001,-0.344,-0.435,-16.593
Close,Low,9,21,14,19,0.539,0.546,0.5529999999999999,3.832,-0.11900000000000001,-0.344,-0.435,-16.593
Close,Low,9,22,14,19,0.539,0.546,0.5529999999999999,3.832,-0.11900000000000001,-0.344,-0.435,-16.593
Close,Low,9,23,14,19,0.539,0.546,0.5529999999999999,3.832,-0.11900000000000001,-0.344,-0.435,-16.593
Close,Low,9,24,14,19,0.539,0.546,0.5529999999999999,3.832,-0.11900000000000001,-0.344,-0.435,-16.593
Close,Low,9,25,14,19,0.539,0.546,0.5529999999999999,3.8489999999999998,-0.11900000000000001,-0.344,-0.435,-16.593
Close,Low,9,26,14,19,0.539,0.546,0.5529999999999999,6.257999999999999,-0.11900000000000001,-0.344,-0.435,-16.593
Close,Low,9,27,14,19,0.539,0.546,0.5529999999999999,6.5089999999999995,-0.11900000000000001,-0.344,-0.435,-16.593
Close,Low,9,28,15,19,0.539,0.546,0.5529999999999999,9.07,-0.11900000000000001,-0.344,-0.435,-16.593
Close,Low,9,29,16,19,0.539,0.546,0.695,9.07,-0.11900000000000001,-0.344,-0.435,-16.593
Close,Low,9,30,16,19,0.539,0.546,0.695,9.07,-0.11900000000000001,-0.344,-0.435,-16.593
Close,Low,12,13,3,16,0.076,0.525,0.755,0.755,-0.083,-0.10800000000000001,-0.257,-3.3560000000000003
Close,Low,12,24,12,19,0.075,0.381,0.706,3.8489999999999998,-0.29600000000000004,-0.423,-0.524,-11.859000000000002
Close,Low,12,25,12,19,0.075,0.381,0.706,3.866,-0.29600000000000004,-0.423,-0.524,-11.859000000000002
Close,Low,12,26,12,19,0.075,0.381,0.706,6.276,-0.29600000000000004,-0.423,-0.524,-11.859000000000002
Close,Low,12,27,12,19,0.075,0.381,0.706,6.527,-0.311,-0.423,-0.524,-11.859000000000002
Close,Low,12,28,13,19,0.075,0.381,0.706,9.088,-0.311,-0.423,-0.524,-11.859000000000002
Close,Low,12,29,14,19,0.217,0.381,0.619,9.088,-0.311,-0.423,-0.524,-11.859000000000002
Close,Low,12,30,14,19,0.217,0.381,0.619,9.088,-0.311,-0.423,-0.524,-11.859000000000002
Close,Low,13,15,1,18,1.258,,,1.258,-0.033,-0.151,-0.303,-2.69
Close,Low,13,16,2,19,0.195,1.258,,1.258,-0.151,-0.303,-0.524,-2.763
Close,Low,13,17,7,19,0.075,0.263,0.555,1.4369999999999998,-0.151,-0.303,-0.524,-3.32
Close,Low,13,18,8,19,0.075,0.263,0.555,3.034,-0.151,-0.524,-0.568,-3.32
Close,Low,13,19,8,19,0.075,0.263,0.555,4.023,-0.151,-0.524,-0.662,-3.32
Close,Low,13,20,10,19,0.075,0.076,0.555,4.023,-0.151,-0.524,-0.706,-3.32
Close,Low,13,21,11,19,0.064,0.075,0.076,4.023,-0.151,-0.524,-0.706,-4.177
Close,Low,13,22,11,19,0.064,0.075,0.076,4.023,-0.151,-0.524,-0.706,-4.177
Close,Low,13,23,12,19,0.026000000000000002,0.064,0.075,4.023,-0.151,-0.524,-0.754,-4.177
Close,Low,13,24,13,19,0.026000000000000002,0.064,0.075,4.395,-0.151,-0.524,-0.754,-4.355
Close,Low,13,25,13,19,0.026000000000000002,0.064,0.075,5.321000000000001,-0.151,-0.524,-0.754,-5.111000000000001
Close,Low,13,26,13,19,0.026000000000000002,0.064,0.075,6.6739999999999995,-0.151,-0.524,-0.754,-5.111000000000001
Close,Low,13,27,13,19,0.026000000000000002,0.075,0.14400000000000002,6.706,-0.151,-0.524,-0.754,-5.111000000000001
Close,Low,13,28,13,19,0.075,0.14400000000000002,0.266,9.271,-0.151,-0.524,-0.754,-5.627000000000001
Close,Low,13,29,13,19,0.217,0.266,0.6859999999999999,9.271,-0.151,-0.524,-0.754,-6.6339999999999995
Close,Low,13,30,13,19,0.217,0.266,0.6859999999999999,9.271,-0.151,-0.524,-0.754,-6.742999999999999
Close,Low,15,21,10,19,0.076,0.629,0.8290000000000001,2.536,-0.4,-0.6,-0.7390000000000001,-3.114
Close,Low,15,22,10,19,0.076,0.629,0.8290000000000001,3.3960000000000004,-0.4,-0.6,-0.7390000000000001,-3.114
Close,Low,15,23,10,19,0.076,0.629,0.8290000000000001,3.3960000000000004,-0.4,-0.6,-0.7390000000000001,-3.22
Close,Low,15,24,11,19,0.266,0.629,0.8290000000000001,4.395,-0.4,-0.6,-0.7390000000000001,-4.695
Close,Low,15,25,11,19,0.266,0.629,0.845,5.321000000000001,-0.4,-0.6,-0.7390000000000001,-5.4479999999999995
Close,Low,15,26,12,19,0.266,0.5820000000000001,0.629,6.6739999999999995,-0.4,-0.6,-0.7390000000000001,-5.4479999999999995
Close,Low,15,27,12,19,0.266,0.5820000000000001,0.629,6.6739999999999995,-0.4,-0.6,-0.7390000000000001,-5.4479999999999995
Close,Low,15,28,13,19,0.266,0.5820000000000001,0.629,6.6739999999999995,-0.4,-0.6,-0.7390000000000001,-5.4479999999999995
Close,Low,15,29,14,19,0.033,0.266,0.5820000000000001,7.475,-0.4,-0.6,-0.7390000000000001,-6.364
Close,Low,15,30,14,19,0.033,0.266,0.5820000000000001,7.475,-0.4,-0.6,-0.7390000000000001,-7.074
Close,Low,16,18,3,19,0.061,0.184,1.6059999999999999,1.6059999999999999,-0.113,-0.196,-0.284,-4.601
Close,Low,16,19,5,19,0.061,0.184,0.598,1.6059999999999999,-0.196,-0.284,-0.389,-4.601
Close,Low,16,20,9,19,0.061,0.076,0.114,1.6059999999999999,-0.196,-0.389,-0.435,-4.601
Close,Low,16,21,11,19,0.076,0.159,0.184,1.6059999999999999,-0.196,-0.389,-0.435,-4.601
Close,Low,16,22,12,19,0.071,0.076,0.184,2.271,-0.196,-0.435,-0.45399999999999996,-4.601
Close,Low,16,23,12,19,0.071,0.076,0.184,2.271,-0.435,-0.45399999999999996,-0.519,-4.899
Close,Low,16,24,12,19,0.071,0.184,0.266,3.116,-0.435,-0.45399999999999996,-0.519,-6.349
Close,Low,16,25,12,19,0.184,0.251,0.266,3.3310000000000004,-0.435,-0.45399999999999996,-0.519,-7.0889999999999995
Close,Low,16,26,13,19,0.184,0.266,0.5820000000000001,4.658,-0.435,-0.45399999999999996,-0.519,-7.0889999999999995
Close,Low,16,27,13,19,0.184,0.266,0.5820000000000001,4.658,-0.435,-0.45399999999999996,-0.519,-7.0889999999999995
Close,Low,16,28,13,19,0.184,0.266,0.5820000000000001,5.915,-0.435,-0.45399999999999996,-0.519,-7.0889999999999995
Close,Low,16,29,13,19,0.266,0.326,0.5820000000000001,5.915,-0.435,-0.45399999999999996,-0.519,-7.989
Close,Low,16,30,13,19,0.266,0.326,0.5820000000000001,5.915,-0.435,-0.45399999999999996,-0.519,-8.687000000000001
Close,Low,17,21,11,19,0.276,0.282,0.49700000000000005,1.5330000000000001,-0.165,-0.27699999999999997,-0.36700000000000005,-3.469
Close,Low,17,22,12,19,0.102,0.276,0.282,1.834,-0.165,-0.27699999999999997,-0.36700000000000005,-3.469
Close,Low,19,20,3,15,0.018000000000000002,0.07,0.848,0.848,-0.013999999999999999,-0.132,-0.209,-3.4139999999999997
Close,Low,19,21,4,18,0.018000000000000002,0.282,0.48200000000000004,0.848,-0.013999999999999999,-0.066,-0.132,-3.4139999999999997
Close,Low,19,23,9,19,0.018000000000000002,0.139,0.16399999999999998,1.577,-0.013999999999999999,-0.132,-0.35100000000000003,-3.4139999999999997
Close,Low,19,24,9,19,0.018000000000000002,0.139,0.16399999999999998,2.221,-0.013999999999999999,-0.132,-0.35100000000000003,-3.4139999999999997
Close,Low,19,25,11,19,0.018000000000000002,0.139,0.16399999999999998,2.702,-0.013999999999999999,-0.132,-0.35100000000000003,-4.001
Close,Low,19,26,12,19,0.16399999999999998,0.379,0.45,4.021,-0.013999999999999999,-0.132,-0.368,-4.001
Close,Low,19,27,12,19,0.16399999999999998,0.45,0.617,4.021,-0.013999999999999999,-0.132,-0.368,-4.001
Close,Low,19,28,14,19,0.16399999999999998,0.3,0.45,4.021,-0.013999999999999999,-0.132,-0.368,-4.119
Close,Low,19,29,15,19,0.16399999999999998,0.3,0.45,4.802,-0.013999999999999999,-0.132,-0.368,-5.142
Close,Low,19,30,15,19,0.16399999999999998,0.45,0.693,4.802,-0.013999999999999999,-0.132,-0.368,-5.652
Close,Low,20,23,4,19,0.16399999999999998,0.22699999999999998,0.631,1.273,-0.066,-0.287,-0.439,-2.356
Close,Low,20,24,6,19,0.032,0.16399999999999998,0.22699999999999998,2.221,-0.066,-0.287,-0.439,-3.236
Close,Low,20,25,9,19,0.129,0.16399999999999998,0.18100000000000002,2.221,-0.066,-0.287,-0.439,-4.001
Close,Low,20,26,11,19,0.138,0.16399999999999998,0.3,2.452,-0.066,-0.287,-0.439,-4.001
Close,Low,20,27,11,19,0.138,0.16399999999999998,0.45,2.694,-0.066,-0.287,-0.439,-4.001
Close,Low,20,28,13,19,0.138,0.16399999999999998,0.3,5.162999999999999,-0.066,-0.287,-0.439,-4.001
Close,Low,20,29,14,19,0.138,0.16399999999999998,0.3,5.162999999999999,-0.066,-0.287,-0.439,-4.931
Close,Low,20,30,14,19,0.138,0.16399999999999998,0.45,5.162999999999999,-0.066,-0.287,-0.439,-5.652
Close,Low,21,25,12,19,0.114,0.115,0.153,2.7889999999999997,-0.066,-0.1,-0.159,-4.001
Close,Low,21,26,13,19,0.114,0.16399999999999998,0.28,2.7889999999999997,-0.066,-0.159,-0.162,-4.001
Close,Low,21,27,14,19,0.114,0.133,0.16399999999999998,2.7889999999999997,-0.066,-0.159,-0.162,-4.001
Close,Low,21,28,15,19,0.114,0.16399999999999998,0.28,3.1,-0.066,-0.159,-0.162,-4.001
Close,Low,21,29,16,19,0.114,0.16399999999999998,0.28,3.1,-0.066,-0.159,-0.162,-4.931
Close,Low,21,30,16,19,0.114,0.16399999999999998,0.28,3.1,-0.066,-0.159,-0.162,-5.652
Close,Open,2,15,19,19,0.006,0.033,0.6779999999999999,4.033,-0.039,-0.165,-0.213,-6.152
Close,Open,2,16,19,19,0.006,0.033,0.6779999999999999,4.033,-0.039,-0.165,-0.213,-13.783
Close,Open,2,17,19,19,0.006,0.033,0.6779999999999999,4.033,-0.039,-0.165,-0.213,-13.783
Close,Open,2,18,19,19,0.006,0.033,0.6779999999999999,4.558,-0.039,-0.165,-0.213,-14.45
Close,Open,2,19,19,19,0.006,0.033,0.6779999999999999,5.277,-0.039,-0.165,-0.213,-14.45
Close,Open,2,20,19,19,0.006,0.033,0.6779999999999999,8.585,-0.039,-0.165,-0.213,-14.45
Close,Open,2,21,19,19,0.006,0.033,0.6779999999999999,8.585,-0.039,-0.165,-0.213,-14.45
Close,Open,2,22,19,19,0.006,0.033,0.6779999999999999,8.585,-0.039,-0.165,-0.213,-14.45
Close,Open,2,23,19,19,0.006,0.033,0.6779999999999999,8.585,-0.039,-0.165,-0.213,-14.45
Close,Open,2,24,19,19,0.006,0.033,0.6779999999999999,8.585,-0.039,-0.165,-0.213,-14.45
Close,Open,2,25,19,19,0.006,0.033,0.6779999999999999,8.585,-0.039,-0.165,-0.213,-14.45
Close,Open,2,26,19,19,0.006,0.6779999999999999,0.8170000000000001,8.585,-0.039,-0.165,-0.213,-14.45
Close,Open,2,27,19,19,0.006,0.6779999999999999,0.8170000000000001,8.585,-0.039,-0.165,-0.213,-14.45
Close,Open,2,28,19,19,0.006,0.6779999999999999,0.8170000000000001,10.587,-0.039,-0.165,-0.213,-14.45
Close,Open,2,29,19,19,0.006,0.6779999999999999,1.157,10.587,-0.039,-0.165,-0.213,-14.45
Close,Open,2,30,19,19,0.006,0.6779999999999999,1.157,10.587,-0.039,-0.165,-0.213,-14.45
Close,Open,15,21,15,19,0.08199999999999999,0.18600000000000003,0.273,8.642999999999999,-0.12300000000000001,-0.4,-0.4,-2.688
Close,Open,15,22,15,19,0.08199999999999999,0.18600000000000003,0.273,8.642999999999999,-0.12300000000000001,-0.4,-0.4,-2.688
Close,Open,15,23,16,19,0.08199999999999999,0.09,0.18600000000000003,8.642999999999999,-0.12300000000000001,-0.4,-0.4,-2.688
Close,Open,15,24,16,19,0.08199999999999999,0.18600000000000003,0.273,8.642999999999999,-0.12300000000000001,-0.4,-0.4,-2.832
Close,Open,15,25,16,19,0.08199999999999999,0.18600000000000003,0.273,8.642999999999999,-0.12300000000000001,-0.4,-0.4,-5.438
Close,Open,15,26,17,19,0.034,0.08199999999999999,0.18600000000000003,8.642999999999999,-0.12300000000000001,-0.4,-0.4,-5.438
Close,Open,15,27,17,19,0.034,0.08199999999999999,0.18600000000000003,8.642999999999999,-0.12300000000000001,-0.4,-0.4,-5.438
Close,Open,15,28,17,19,0.08199999999999999,0.18600000000000003,0.35,8.642999999999999,-0.12300000000000001,-0.4,-0.4,-5.438
Close,Open,15,29,17,19,0.08199999999999999,0.18600000000000003,0.5820000000000001,8.642999999999999,-0.12300000000000001,-0.4,-0.4,-5.438
Close,Open,15,30,17,19,0.08199999999999999,0.18600000000000003,0.6459999999999999,8.642999999999999,-0.12300000000000001,-0.4,-0.4,-6.461
